1 
6 0 
2 70 
1 
7 p p m n l a i c 
6 h g d e 
3 
15 63 35 8 7 
6 7.9 6.17 2.72 2.5 
8 q m h g i 
8 1.6 
10 q h h 
11 0 
5 
15 12 
18 53 35 39 9 30 
16 i h f a 
5 q l o i a k j c f 
5 t 
8 1 1 1 0 1 1 0 
13 1 1 1 0 0 1 0 0 
24 4.5 4.12 3.06 2.7 3.56 0.21 2.62 0.8 0.04 
24 5.9 4.34 3.19 2.25 1.01 0.42 0.24 1.65 
7 
10 0 0 
19 67 
16 4.41 1.38 0.83 0.81 0.65 
16 52 23 
19 r l j a 
22 p a b 
16 9.39 6.11 2.66 0.39 4.82 1.96 
14 
24 95 61 33 26 57 30 22 11 19 45 21 22 
40 7.68 3.09 2.31 2.82 1.8 0.05 0.98 2.68 
15 0 0 
14 93 42 
24 7.26 6.36 6.5 5.71 5.91 0.71 3.47 0.26 4.31 0.45 5.38 
15 1 0 0 
36 m j e a e a d 
27 
23 65 58 41 3 17 14 
29 r o b c c 
56 30 26 27 14 11 9 21 11 8 6 7 2 
35 96 72 50 47 61 21 49 36 40 3 
24 8.23 3.92 2.55 1.3 
20 0 0 0 0 0 0 0 0 0 
33 0 0 0 0 0 0 0 
37 67 
35 5.11 2.77 
41 35 4 
48 45 39 45 13 23 42 22 5 7 16 17 
62 8.59 3.05 3.21 2.89 2.8 1.89 2.44 1.27 2.22 2.23 2.77 1.47 0.82 1.17 0.49 0.31 
23 2.02 1.85 
15 i d h a c 
65 s d d b b c d b b a a c a c 
25 1 0 0 0 
39 p o o i o g c d g i n 
34 1 1 1 1 1 1 1 0 0 0 1 0 0 1 0 0 
40 0 0 0 0 0 0 0 0 
82 87 76 11 14 69 4 8 6 10 10 51 
54 3 
66 3.2 2.92 2.6 2.72 1.03 1.49 1.03 0.82 1.54 
22 1 1 
42 0 0 0 0 0 0 0 
43 0 0 0 0 0 0 0 0 0 0 0 
86 s k b b 
76 8.03 6.29 6.6 5.81 5.09 1.68 1.5 1.66 0.9 
92 3.6 3.01 1.47 1.66 0.8 0.4 0.98 1.04 1.11 
53 m c f a b b a 
110 0.72 0.54 0.12 0.41 
43 1.62 1.04 0.1 
47 0 0 0 0 0 0 0 0 0 0 0 0 0 0 
41 1 0 0 
57 6.21 5.91 5.5 5.42 5.31 1.65 4.73 2.13 2.94 
81 75 16 23 6 10 4 20 
44 0 0 
95 5.44 2.5 2.7 1.84 2.44 2.01 1.01 1.84 1.6 0.06 2.28 1.4 0.45 0.02 0.81 0.08 
39 1 0 1 0 
74 49 43 24 41 28 19 24 13 38 17 5 18 11 9 17 9 10 5 
76 1 0 0 0 0 0 0 0 0 0 0 0 0 0 0 0 
56 1 1 1 0 0 0 0 0 0 0 0 0 0 0 0 0 0 
72 2.69 2.42 2.47 2.02 1.05 1.38 0.04 0.72 0.82 0.9 
75 
138 2.22 2.18 1.78 1.87 1.24 1.71 0.45 1.65 1.51 1.08 0.92 1.56 1.65 0.13 0.28 0.76 
117 58 22 53 17 10 22 37 2 5 8 10 16 19 6 
47 90 59 90 42 52 
64 0 0 0 0 0 0 0 0 0 0 0 0 0 0 0 0 
137 g e f c e d f c a d b c c a c b a a 
120 19 18 11 8 16 6 
123 l k h j c g e h d a b e f d c a f 
51 0 0 0 0 0 0 0 0 0 0 0 
123 3.53 2.71 1.18 0.16 2.41 0.28 
33 
69 0.56 0.25 
63 1 1 1 0 0 0 0 0 0 0 0 
115 n a b a a b b 
123 0.16 0.02 
54 56 
106 s n n a a a i a 
64 0 0 0 0 0 0 0 0 0 0 0 0 0 
