0 1 2 2 3 3 4 7 8 9 9 9 10 10 11 (2 14.8) (2.1 1.9) (2.3 13.3) (2.5 19.6) (2.6 16.3) (2.6 16.9) (2.6 15.9) (2.7 18.3) (2.8 14.7) (3.1 6.1) (3.3 18.7) (3.4 6.8) 
0 2 3 5 5 6 8 8 10 11 (5.1 18.3) (5.1 18.9) (5.2 7.4) (5.3 9.2) (5.3 10) (5.5 10) (5.6 5.3) (5.6 8.1) (5.8 12.9) (5.8 18.3) (5.9 12.8) (6 13.2) (6 7.1) 
0 2 5 5 6 7 8 9 11 13 14 (8.3 13.1) (8.3 12.3) (8.4 19.3) (8.4 10.3) (8.4 17.3) (8.6 12.3) (8.7 13) (8.8 15.8) (8.9 18.7) (9 13.7) (9 13.6) (9.1 9.4) (9.1 12.8) (9.2 12) (9.3 11.6) 
0 2 3 4 7 8 9 10 11 12 13 14 14 (9 12.7) (9 13.1) (9.1 18.3) (9.2 14.4) (9.3 18.1) (9.3 16) (9.3 17.1) (9.4 9.6) (9.5 18.2) (9.6 9.4) (9.7 13.3) (9.8 9.1) (9.9 11) (10 10.7) (10.2 18.5) (10.2 19.1) 
0 1 2 3 4 4 6 6 6 8 9 10 10 14 15 (2.4 18.7) (2.5 17.2) (2.6 4.1) (2.7 3.7) (2.9 19.4) (2.9 8.9) (3.2 4.1) (3.2 13.6) (3.3 9.5) (3.4 13.1) (3.6 3.3) (3.6 17.7) (3.6 12.4) (3.6 13.2) (3.7 12.3) (3.8 4) (3.8 14) 
0 1 2 2 3 4 7 8 8 10 11 13 13 14 14 14 15 (2.4 8.8) (2.5 11) (2.7 7.9) (2.8 16.1) (2.9 8.4) (2.9 3.9) (2.9 18) (3 16.7) (3.2 7.6) (3.2 14) (3.3 18.6) (3.4 11.6) (3.4 11) (3.6 9.5) (3.9 2.9) (4 18.6) (4 16.8) 
0 1 2 3 4 4 4 5 7 9 9 10 10 12 13 13 13 14 15 16 16 17 17 17 18 (6 6.5) (6.1 18) (6.2 16.9) (6.3 6.7) (6.6 16.3) (6.7 18.4) (6.7 8.7) (6.8 14.2) (6.8 19.2) (7 8.9) (7.2 15.7) (7.2 10.2) (7.3 12.7) (7.6 19.2) (7.7 6.7) (7.8 11.8) (8 14.9) (8.3 13.5) (8.4 18.1) 
0 1 1 2 4 6 7 7 8 9 9 12 13 15 16 18 18 19 (8.2 8.7) (8.4 13.9) (8.5 12.3) (8.5 8.8) (8.6 13.6) (8.6 17.1) (8.7 9) (8.9 10) (9 13.4) (9.2 15.5) (9.2 9.8) (9.2 14.4) (9.3 17) (9.4 12) (9.4 16.7) (9.5 13.8) (9.6 16.5) (9.6 19) (9.8 12.5) (9.9 16.3) 
0 2 2 2 2 3 3 5 5 6 6 6 7 8 10 12 14 16 19 19 (1.4 11.7) (1.4 10) (1.8 14.9) (2 8.3) (2 1.5) (2.2 10.8) (2.5 13.6) (2.6 16.8) (2.7 3.3) (2.7 11.1) (2.8 1.8) (2.8 8.6) (2.9 2.2) (2.9 9.3) (3 4.8) (3 17.8) (3.1 2.4) (3.1 10) (3.1 8.8) (3.3 17.6) (3.3 5.4) (3.3 19) 
0 1 1 1 2 2 3 4 4 4 5 5 5 6 7 9 9 9 11 12 12 13 14 15 18 19 19 20 22 (1.4 2.8) (1.7 1.4) (1.9 5.1) (2 12.8) (2.3 3.2) (2.6 1.6) (2.7 8.5) (2.8 4.5) (2.8 15.9) (3.1 13) (3.1 2.7) (3.2 16.7) (3.4 11.3) (3.5 15.3) (3.6 19) (3.7 5.6) (3.7 12.8) (3.7 4.8) (3.8 4.7) (4 3.1) (4.1 6.1) (4.1 2.7) (4.2 15.1) 
0 3 4 9 14 14 16 18 20 (8.5 18) (8.5 15.5) (8.5 14.4) (8.6 10.7) (8.7 11.5) (8.7 18.7) (8.7 19.7) (8.7 17) (8.7 14.3) (8.8 10.6) (8.8 18.2) (8.8 16.2) (8.8 9.6) (8.8 9.5) (9 12.5) (9 19.3) (9.1 8.6) (9.1 15.7) (9.2 12.9) (9.2 9.9) (9.3 12.3) (9.3 12.2) (9.3 15.6) 
0 1 1 2 3 3 3 6 7 8 9 10 11 13 15 16 16 16 18 19 22 22 23 (5.1 17.2) (5.3 8.6) (5.4 16.2) (5.7 19.8) (5.7 17.6) (5.7 10.1) (5.8 18) (5.9 17) (6 8.8) (6.1 19.1) (6.2 13.7) (6.3 16.1) (6.3 11.7) (6.4 18.1) (6.4 9.2) (6.5 19) (6.8 9.5) (6.8 15) (6.9 9.9) (7 18.7) (7 17.7) (7 5.5) (7.2 6.1) (7.3 18.4) 
0 2 2 3 5 6 6 7 8 8 8 8 10 11 12 13 13 14 16 16 16 17 18 18 18 20 20 20 (8.7 9.4) (8.7 13.7) (8.9 17.5) (9 17.6) (9 9.1) (9.1 8.6) (9.3 14.3) (9.4 14.7) (9.8 10.4) (9.8 18.4) (9.9 11) (10 19.8) (10.1 15.2) (10.3 18.8) (10.4 17.2) (10.4 9.1) (10.7 11.9) (10.8 14.4) (11.1 10.5) (11.1 14.3) (11.4 11.1) (11.4 19) (11.4 9.6) (11.4 15.7) 
0 1 4 5 6 8 8 8 8 8 8 12 15 16 16 18 20 20 20 22 22 22 22 24 24 24 (1.2 17.3) (1.3 18.4) (1.3 18) (1.3 2.3) (1.4 14.4) (1.5 10.5) (1.6 11.4) (1.6 4.8) (2.2 16.3) (2.2 19.9) (2.2 3.4) (2.2 8.9) (2.3 4.8) (2.3 7.4) (2.3 8.5) (2.4 6.8) (2.6 5.2) (2.6 17.8) (2.7 14.8) (2.7 18.6) (3 6.8) (3 5.7) (3.4 4.9) (3.4 17) (3.7 16.7) 
0 2 2 3 5 7 8 8 11 12 14 14 16 16 16 17 17 17 18 18 18 19 20 20 20 21 22 22 22 22 23 24 26 26 26 (5.2 13.4) (5.2 7.1) (5.4 19.8) (5.5 14.4) (5.5 15.3) (5.6 10.1) (5.6 14.3) (5.7 14.5) (5.9 13.5) (5.9 12.1) (5.9 13.8) (6 9.9) (6.1 6.2) (6.1 12) (6.3 19.8) (6.3 6.2) (6.6 6.7) (6.9 12.4) (7.2 17.3) (7.3 12.5) (7.6 17) (7.7 16.7) (8.1 5.9) (8.2 11.9) (8.3 8.3) (8.3 6.8) (8.6 18.1) 
0 1 3 4 4 4 4 4 6 6 6 6 7 7 9 9 10 11 11 12 14 17 18 22 22 22 23 24 24 24 25 (8.7 14.2) (8.8 15.2) (8.8 12.1) (8.9 16.5) (9.4 13.5) (9.4 13.8) (9.8 19.5) (10 8.9) (10 15.8) (10.2 15.8) (10.3 12.5) (10.5 11.3) (10.6 10.4) (10.6 16.2) (10.7 19.6) (10.7 13.3) (10.7 9.2) (10.8 15.1) (10.9 18.8) (10.9 16.7) (10.9 10) (10.9 12.7) (11.2 15) (11.3 12.3) (11.6 16.7) (11.7 19.4) (11.7 19.3) 
0 3 5 5 7 11 12 16 16 17 21 23 24 24 24 26 26 27 27 (1.3 6.8) (1.3 7.9) (1.3 5.4) (1.4 19.7) (1.4 15.2) (1.6 12.2) (1.6 8.4) (1.7 8) (1.7 7.9) (1.7 13.7) (1.7 9.3) (1.8 17.9) (1.9 16.5) (1.9 14.7) (1.9 5.4) (1.9 7.8) (2.1 11.5) (2.2 18.1) (2.2 11.3) (2.2 3.7) (2.2 9.7) (2.3 4.1) (2.3 16.4) (2.4 14) (2.7 17.2) (2.7 7.6) (2.9 15.8) (3.1 16.7) 
0 3 3 3 3 4 6 7 7 8 10 10 12 13 15 16 16 16 19 20 20 21 21 21 22 23 24 26 26 26 (3.8 16.1) (3.8 3.6) (3.8 10.3) (4.2 12.1) (4.3 9.4) (4.3 15) (4.4 18.5) (4.6 10.3) (4.7 6.3) (4.7 8.6) (4.9 9.8) (4.9 13.9) (5 15.8) (5.1 19.1) (5.1 16.9) (5.2 11) (5.5 4.8) (5.5 19.2) (5.5 16.7) (5.6 17.2) (5.8 13.2) (6.1 11.3) (6.2 17.7) (6.3 16) (6.4 16.4) (6.4 8.6) (6.7 5.3) (6.7 5) 
0 6 8 14 19 22 23 (2.8 11.6) (2.8 5.9) (2.8 9.5) (2.8 6.4) (2.8 8.4) (2.8 8.8) (2.9 10.4) (2.9 18.7) (3 5.2) (3 10.7) (3 7.2) (3 6.1) (3 15) (3 17.7) (3.1 6) (3.1 11.5) (3.1 4.9) (3.1 19.7) (3.1 15.1) (3.2 13.5) (3.2 6.8) (3.2 11) (3.3 19.2) (3.4 17.5) (3.4 15.6) (3.4 12.7) (3.4 6.1) (3.4 6.8) 
0 2 3 5 6 7 9 9 9 9 10 11 11 11 11 11 12 13 13 13 13 13 14 14 15 17 18 19 22 24 27 27 (10 13.7) (10 10.4) (10.1 14.5) (10.2 13.9) (10.2 18.6) (10.3 17) (10.4 13.7) (10.5 12.7) (10.5 18.7) (10.9 18.2) (11 12.1) (11.5 17.8) (11.6 17) (12.1 13.1) (12.3 19.5) (12.4 15.1) (12.4 19.4) (12.5 16.3) (12.6 15) (12.7 13.6) (12.7 19.9) (12.7 16.8) (12.8 16.7) (12.8 15.1) (12.9 19.1) (12.9 12.6) (12.9 15.3) (13.1 10.2) (13.1 18.6) 
0 4 9 15 23 (8.7 19.9) (8.7 15.1) (8.7 14.4) (8.7 12.7) (8.8 19.6) (8.8 19.4) (8.8 9.7) (8.8 12.9) (8.8 17.5) (8.9 11.6) (8.9 9.4) (8.9 15.8) (8.9 9.4) (8.9 9.6) (8.9 11.7) (9 10.8) (9 16.3) (9 11.2) (9 14.5) (9 8.8) (9 19.2) (9 15.3) (9 10.5) (9.1 15.7) (9.1 9.9) (9.1 17.6) (9.1 12.1) (9.1 15.2) (9.1 14.5) (9.1 14.9) 
0 1 1 4 6 7 8 10 11 11 11 11 12 13 14 14 14 15 17 17 17 20 20 20 21 22 23 23 23 23 24 24 25 27 28 (1.9 17.7) (2.1 5.4) (2.1 10) (2.1 16.9) (2.2 10.8) (2.2 11.1) (2.3 2.8) (2.4 16) (2.5 15.7) (2.5 5.7) (2.6 19) (3 3.3) (3.1 9.8) (3.2 3.8) (3.5 18.3) (3.6 3.3) (3.6 7.7) (3.9 9.7) (3.9 9.3) (3.9 3.7) (4.2 5.9) (4.3 6.9) (4.4 16.7) (4.8 14.4) (5 13.4) (5.1 15.8) (5.1 9.8) (5.2 18.3) (5.3 16.6) (5.3 3.4) 
0 1 2 2 3 3 4 4 9 11 11 14 15 15 17 18 18 19 19 21 21 21 22 23 23 24 26 28 30 (0 19.8) (0.1 19.5) (0.3 3.3) (0.5 5.6) (0.7 13.2) (0.7 17.1) (0.7 13.9) (0.7 6.2) (0.7 18.7) (0.8 5.7) (0.8 0.7) (1 7.6) (1 13.9) (1 16.7) (1.1 14.6) (1.3 15.9) (1.3 12.7) (1.4 14.8) (1.6 6.5) (1.8 17.4) (1.8 17.9) (2.1 10.4) (2.2 15.4) (2.4 17.3) (2.5 7.9) (2.5 13.9) (2.6 13.9) (2.6 3.6) (2.7 6.7) (2.7 13.5) (2.8 1.8) 
0 2 3 5 6 10 12 14 16 16 19 21 21 23 25 26 28 (2.5 14.1) (2.5 18) (2.6 15.3) (2.7 9.2) (2.7 12.4) (2.8 9.3) (2.9 11.1) (2.9 10) (2.9 3.4) (2.9 4) (3 8.2) (3 5) (3.1 16.1) (3.1 9.4) (3.2 5) (3.2 4.3) (3.4 19.5) (3.4 16.2) (3.4 7.7) (3.5 16.6) (3.5 17.9) (3.7 17.6) (3.7 8.5) (3.8 10.2) (3.8 10) (3.9 5.3) (4 12.8) (4 6.6) (4.1 9.6) (4.1 4.1) (4.1 5) 
0 2 5 8 11 11 12 13 14 16 18 20 23 23 26 28 29 31 33 33 (1 1.7) (1 11) (1.1 2.5) (1.1 17.2) (1.1 5.1) (1.2 1.2) (1.2 8.9) (1.2 1.7) (1.3 19.2) (1.3 13.7) (1.3 9) (1.5 18.3) (1.6 3.9) (1.7 8.1) (1.8 10) (1.8 8.2) (1.9 1.7) (1.9 18.1) (2 3.6) (2 4.4) (2.1 17.5) (2.1 16.2) (2.1 8.2) (2.3 11.8) (2.3 19.9) (2.3 13.1) (2.4 8.9) (2.4 14.1) (2.5 8.8) (2.6 15) (2.6 14.5) (2.7 11) (2.7 7.5) (2.9 11.9) 
0 2 2 3 5 9 11 13 14 15 16 19 20 21 22 22 26 27 30 31 32 34 34 34 (5.6 16.2) (5.6 19.4) (5.8 16) (5.9 8.5) (5.9 7.3) (6 8.3) (6 8.7) (6 5.9) (6 11.8) (6.1 6.2) (6.1 18.8) (6.2 16.4) (6.2 15.1) (6.3 15.1) (6.4 8.1) (6.5 6.2) (6.6 13.7) (6.6 16.3) (6.6 6.3) (6.7 6.6) (6.8 6.5) (6.9 6.1) (7.1 15.8) (7.1 14.2) (7.1 6.4) (7.1 12.4) (7.2 5.7) (7.3 12.4) (7.3 7.6) (7.3 15.1) (7.4 15.3) (7.5 12.7) (7.6 16.3) (7.6 15) (7.9 6) (7.9 12) (7.9 10.7) 
0 7 13 21 30 (3.6 5.3) (3.6 16) (3.6 8.8) (3.6 4.5) (3.6 15.1) (3.6 9.1) (3.6 10.4) (3.7 6.1) (3.7 19.5) (3.7 7.5) (3.7 6.2) (3.7 7.1) (3.7 5.6) (3.8 7.9) (3.8 4) (3.8 10.3) (3.8 7.9) (3.8 5.9) (3.8 16) (3.8 6.9) (3.8 10.5) (3.9 16.4) (3.9 12.2) (3.9 11.8) (3.9 3.8) (3.9 5.5) (3.9 19) (3.9 14.5) (3.9 18.8) (3.9 12.4) (4 14.5) (4 9.4) (4 11.5) (4 9) (4 13.6) (4 12.6) (4 10.4) (4 17.5) (4 11.5) 
0 2 3 4 4 5 5 5 7 7 7 8 9 10 10 11 11 13 15 17 17 18 19 21 21 23 23 23 24 24 26 28 30 30 31 33 35 38 (1.4 14.9) (1.4 1.8) (1.5 13.5) (1.6 5.7) (1.8 3.9) (2.1 12.3) (2.1 9) (2.4 11.3) (2.5 1.4) (2.6 11.9) (2.8 9.8) (3 10.9) (3 4.3) (3.1 11.1) (3.1 12.1) (3.2 15.2) (3.2 5.5) (3.4 5.1) (3.5 19.4) (3.6 14) (3.6 7.8) (3.8 3.7) (3.8 2.9) (4.1 12.7) (4.3 4.9) (4.3 8.8) (4.4 18.8) (4.4 5.3) (4.5 18.9) (4.5 17) (4.7 6.4) (4.8 19.1) (4.8 9.6) (4.9 5.9) (4.9 10.7) (5 12.9) (5 19.7) (5 12.1) (5.1 5) (5.1 13.6) 
0 1 2 4 5 6 8 10 10 10 10 10 11 14 14 14 14 14 15 15 16 16 17 18 18 19 19 21 21 21 23 23 23 24 26 27 28 30 31 32 34 35 35 36 38 39 (0.2 13.2) (0.3 0.2) (0.4 15.6) (0.4 16.7) (0.5 8.7) (0.6 10.5) (0.7 19.3) (0.7 12.6) (0.8 5.8) (0.8 8.3) (1.3 7.5) (1.4 2.8) (1.4 2) (1.4 5.2) (1.9 11.7) (2.1 13.3) (2.3 6.2) (2.4 9.3) (2.6 17.8) (2.8 17.4) (2.8 6.6) (3.1 13.3) (3.1 10.5) (3.4 17.8) (3.5 8.3) (3.5 9.9) (3.6 16.8) (3.7 12) (3.8 12.5) (3.8 16.8) (3.9 19.4) (4 12.6) (4.1 5.8) (4.1 8.9) (4.2 5.5) (4.4 2.8) (4.5 7.7) (4.5 15.1) (4.6 17.6) (4.7 10.1) 
0 1 1 1 4 7 9 9 14 16 17 18 20 24 25 26 30 33 34 38 (1.7 15.6) (2 8.5) (2 18.6) (2 13.1) (2.1 9.2) (2.1 16.8) (2.1 5.5) (2.2 7.8) (2.2 16.6) (2.4 3.8) (2.4 11.2) (2.4 7) (2.4 19.6) (2.4 4.9) (2.5 18.9) (2.5 13.6) (2.6 6.2) (2.7 13.2) (2.8 14.9) (2.8 13.3) (2.9 5.5) (2.9 4.9) (2.9 10.1) (2.9 19.6) (3 13.3) (3.1 7.4) (3.2 16.5) (3.2 18.2) (3.2 11.6) (3.2 9.6) (3.3 2.4) (3.3 2.4) (3.3 3.9) (3.4 17.1) (3.5 9) (3.5 8.2) (3.5 7.8) (3.5 3.7) (3.6 8.1) (3.6 10.1) (3.6 15.9) 
0 4 4 5 5 6 7 9 10 11 11 13 16 18 23 23 25 26 28 28 28 30 31 33 33 34 38 (4.6 13.5) (4.6 9.7) (4.6 4.8) (4.6 12.9) (4.8 17.1) (5 10.7) (5.1 10.7) (5.2 11.5) (5.2 11.1) (5.3 7.6) (5.4 11.7) (5.6 18.1) (5.6 18.6) (5.7 12.7) (5.7 16.8) (5.7 9.9) (5.8 8.3) (5.8 17.1) (5.9 16.9) (5.9 10.2) (5.9 8.9) (5.9 10) (5.9 11.2) (6.1 6.8) (6.1 15.6) (6.2 14.3) (6.3 18.9) (6.3 19.1) (6.6 8.7) (6.6 14.5) (6.7 17.2) (6.8 5.5) (6.8 10.2) (7 5.2) (7.1 17) (7.1 16.2) (7.1 6.7) (7.1 16.8) (7.2 10.9) (7.2 13.6) (7.2 8.9) (7.2 7.3) 
0 5 6 12 12 15 15 16 19 21 27 30 31 33 36 37 38 38 40 41 (1 13) (1 14.2) (1 6.6) (1 3.2) (1 19.4) (1.1 2) (1.2 13.9) (1.2 5.8) (1.2 13.7) (1.2 11.4) (1.2 14.9) (1.2 17.9) (1.4 12.6) (1.4 16.1) (1.4 15.9) (1.6 4.8) (1.7 14) (1.7 1.7) (1.7 17.5) (1.8 15.3) (1.8 4.8) (1.9 9.7) (1.9 1.2) (1.9 9.5) (1.9 17) (1.9 10.1) (1.9 14.9) (2 17.4) (2 15.7) (2 7.2) (2.1 13.2) (2.2 6.7) (2.2 16.6) (2.3 15.6) (2.3 9.1) (2.3 3.2) (2.4 11.8) (2.5 11.3) (2.7 4.1) (2.7 13.3) (2.8 11.5) (2.9 13.2) 
0 1 1 1 4 6 7 7 8 8 9 11 12 13 14 14 17 20 20 21 21 21 21 22 26 26 27 28 29 31 31 31 33 34 35 35 37 37 37 38 39 39 39 41 42 43 (3.4 7.1) (3.7 7.6) (3.7 5.5) (3.7 11.2) (3.8 3.7) (3.8 4.5) (3.9 12.8) (4.1 9.5) (4.3 12.8) (4.4 4.9) (4.4 14.2) (4.5 13.9) (4.6 7.6) (4.7 13.1) (4.9 17.3) (4.9 12.8) (4.9 6.9) (5 6.7) (5 3.3) (5 18.3) (5.2 6.6) (5.6 6) (5.7 11) (5.7 6.6) (5.7 19) (5.7 18.1) (5.9 9.1) (6 8.4) (6.1 11.6) (6.2 15.4) (6.2 6) (6.5 16.1) (6.5 5) (6.6 5.2) (6.7 9.9) (6.9 17.5) (6.9 4.9) (7.2 12.7) (7.3 3.5) (7.6 19.8) (7.6 4.4) (7.7 7.7) (7.8 19.5) (7.9 11.1) 
0 1 2 5 7 8 8 8 9 11 14 15 17 17 19 19 19 22 24 26 27 27 27 30 31 32 32 35 35 38 40 41 41 42 43 (6.6 14) (6.7 14.4) (6.8 13.5) (6.8 16.6) (6.8 11.4) (6.9 13.9) (6.9 17.6) (7 18.3) (7.3 17.6) (7.4 18) (7.4 19.7) (7.5 12) (7.5 7.4) (7.5 9.1) (7.6 8.9) (7.7 15.5) (7.7 18.5) (7.9 17.9) (7.9 12.5) (8.2 12.9) (8.2 11.8) (8.2 12.1) (8.3 9.6) (8.3 15.3) (8.4 9.8) (8.4 17.8) (8.5 11) (8.8 16.7) (8.8 14) (8.8 19.2) (8.9 14.9) (9 9.3) (9.2 10.6) (9.2 17.5) (9.2 16.8) (9.4 12.7) (9.4 6.7) (9.4 12.9) (9.5 14) (9.5 15.3) (9.6 11.5) (9.8 19.3) (9.9 18) (10 9.7) (10 17.8) 
0 1 2 3 5 5 5 6 9 11 15 16 16 19 22 26 27 31 31 31 31 34 35 36 37 39 40 43 44 45 (2.7 10.1) (2.8 12.8) (2.9 18.2) (3 7.9) (3 18.2) (3.3 6.9) (3.4 13.3) (3.4 12.9) (3.4 4) (3.5 13.2) (3.5 11.3) (3.6 18.6) (3.6 3.6) (3.6 12.3) (3.6 2.7) (3.7 4.4) (3.9 15.8) (3.9 12.6) (3.9 5.8) (4 3.3) (4 11.6) (4 5.7) (4.1 14.5) (4.1 18.5) (4.1 6.5) (4.1 10.1) (4.2 17.3) (4.3 10.1) (4.3 8.7) (4.3 18) (4.3 5.3) (4.7 17.1) (4.7 9.4) (4.7 11.5) (4.8 12) (4.9 2.7) (5 19) (5.1 14.5) (5.1 3.9) (5.2 4.5) (5.3 12.4) (5.3 17.3) (5.3 7.9) (5.4 6) (5.5 13.4) (5.6 4.1) (5.6 16.2) 
0 1 3 3 4 5 5 7 9 12 15 18 20 22 26 26 27 28 28 28 30 32 35 38 39 41 42 45 46 (4.7 4.7) (4.8 7.6) (4.8 19.8) (5 7.2) (5.1 7.1) (5.3 4.8) (5.3 16.5) (5.4 16.6) (5.4 11.9) (5.5 5.2) (5.5 13.5) (5.5 7.3) (5.6 11.3) (5.6 7.6) (5.6 13.9) (5.7 13.2) (5.7 5.4) (5.7 5.6) (5.8 13.2) (5.8 19.8) (5.9 10.3) (5.9 8.5) (6 9.1) (6 18.4) (6 5.2) (6 8.2) (6.2 6.5) (6.3 4.7) (6.6 18.6) (6.6 8.1) (6.7 17.8) (6.7 17) (6.8 15.7) (6.8 4.7) (6.8 13.1) (6.9 8.4) (6.9 6.4) (6.9 16) (7 14.9) (7.1 15.2) (7.1 18) (7.2 13.8) (7.3 13.9) (7.3 12) (7.3 4.8) (7.4 11.1) (7.5 14.4) 
0 1 4 8 9 12 13 14 17 18 19 21 23 27 28 29 31 35 37 40 44 (8.1 17.3) (8.2 13.3) (8.2 15.4) (8.2 13.6) (8.3 19.8) (8.3 11.6) (8.3 9.2) (8.3 15.1) (8.4 19.7) (8.5 19.5) (8.5 15.4) (8.5 18.2) (8.6 11) (8.7 15.6) (8.8 13.2) (8.8 9.7) (8.8 17.1) (8.9 16.3) (9 17.3) (9.1 15.5) (9.1 16.9) (9.2 13.6) (9.2 11.3) (9.3 17.7) (9.3 14.1) (9.3 17.3) (9.3 18.5) (9.4 10.7) (9.5 10.7) (9.6 19.8) (9.6 11.8) (9.7 12.1) (9.7 19.3) (9.7 13.6) (9.7 16.7) (9.8 11.9) (9.8 14.2) (9.9 16.4) (9.9 12.8) (9.9 11.5) (10 19.2) (10 15.3) (10 10.3) (10 19.6) (10.1 12.7) (10.1 16.2) (10.1 11.6) (10.1 16.5) 
0 3 6 9 13 15 18 20 24 28 34 37 41 44 (6.1 6.5) (6.1 11.9) (6.1 11.7) (6.2 15.7) (6.2 19.4) (6.2 12.3) (6.3 16.4) (6.3 9.3) (6.3 14) (6.4 14.1) (6.4 11.4) (6.4 15.6) (6.4 10) (6.5 19.9) (6.5 11.2) (6.6 16) (6.6 18.1) (6.6 18.2) (6.7 10.3) (6.7 15.1) (6.8 18.2) (6.8 9.3) (6.8 14.9) (6.8 7.7) (6.9 8.8) (6.9 13.3) (6.9 17.3) (6.9 9.3) (7 13.9) (7 10.7) (7 18.6) (7 15.6) (7 11.3) (7 17.9) (7.1 16.2) (7.1 12.5) (7.1 12.2) (7.2 15.9) (7.2 12.2) (7.2 9.1) (7.2 8) (7.3 19.8) (7.3 16.2) (7.3 11.6) (7.4 16.9) (7.4 13) (7.4 11.6) (7.4 12.1) 
0 1 3 4 5 6 6 6 7 7 9 10 12 12 12 15 17 18 19 21 22 23 24 24 25 25 26 27 27 27 27 27 27 27 28 30 30 31 31 33 33 34 34 35 37 38 41 43 43 44 44 44 45 46 48 49 (4.1 12.2) (4.2 16.6) (4.2 15.2) (4.3 6.7) (4.4 10.2) (4.5 17.3) (4.8 15.2) (5 8.2) (5 19.3) (5.1 9) (5.2 7.4) (5.2 13.8) (5.5 7) (5.5 7.4) (5.5 4.7) (5.6 11.1) (5.6 10.6) (5.7 6.3) (5.8 11.1) (5.9 19.5) (5.9 14.8) (6 12.3) (6.1 13.5) (6.2 17.6) (6.4 6.3) (6.6 18.5) (6.7 12.4) (7.4 5.2) (7.5 10) (7.5 17.3) (7.7 9.9) (7.9 15.1) (7.9 15.4) (8.1 7.4) (8.3 16.6) (8.4 13.5) (8.4 9) (8.5 14.1) (8.6 6.8) (8.6 10.9) (8.6 17.8) (8.7 9.4) (8.7 16.9) (8.9 10.1) (9.2 11.2) (9.3 8.6) (9.4 16.3) (9.4 18.6) (9.5 16.3) (9.6 11.3) 
0 1 1 1 5 6 7 7 9 10 12 16 18 21 22 27 30 32 35 37 38 40 47 (2.8 10.8) (3.1 17.2) (3.1 12.4) (3.1 6.4) (3.1 4.7) (3.2 14.8) (3.3 17) (3.5 15.9) (3.5 19.5) (3.6 18.2) (3.7 16.7) (3.7 6) (3.8 6.3) (3.8 17.9) (3.8 15.4) (3.8 6.4) (3.9 4.8) (3.9 11.7) (4 18.7) (4 12.6) (4 11.5) (4.1 11.6) (4.2 6.8) (4.2 12.5) (4.2 4.9) (4.2 2.8) (4.2 16.9) (4.3 3.5) (4.3 18.4) (4.3 17.9) (4.4 8.1) (4.4 15.5) (4.5 11.1) (4.5 9.8) (4.5 6.4) (4.6 19.6) (4.6 12) (4.7 14.2) (4.8 10.9) (4.8 14.6) (4.9 17) (4.9 18) (4.9 7.9) (4.9 4.8) (4.9 6.2) (4.9 6.4) (4.9 15.5) (5 9.7) (5 16.3) (5 11.9) (5 11.2) (5 9.8) (5 11.4) 
0 5 14 23 29 35 45 (9.3 18.5) (9.3 10.8) (9.3 14.4) (9.3 10.2) (9.3 14.6) (9.4 14.1) (9.4 18.5) (9.4 14.7) (9.4 16) (9.4 13.2) (9.4 12.3) (9.4 14.2) (9.4 14) (9.4 11.3) (9.5 19.7) (9.5 19.9) (9.5 18.2) (9.5 18.3) (9.5 10.6) (9.5 16.4) (9.5 18.8) (9.5 13) (9.5 19.4) (9.6 16.6) (9.6 19.1) (9.6 10.2) (9.6 13) (9.6 19.4) (9.6 16) (9.7 13.2) (9.7 11) (9.7 12.9) (9.7 19.4) (9.7 16.4) (9.7 13.6) (9.8 17) (9.8 14.4) (9.8 12.8) (9.8 11.6) (9.8 16.7) (9.8 16.8) (9.8 11.4) (9.8 19.1) (9.8 19.6) (9.8 17.9) (9.9 19.1) (9.9 11.6) (9.9 16.7) (9.9 13.4) (9.9 15.4) (9.9 14.6) (9.9 11.4) (9.9 12.3) (9.9 15.4) 
0 1 1 1 3 5 5 6 6 6 6 6 6 6 8 8 9 14 14 15 17 20 21 22 22 24 25 28 28 30 33 33 33 34 36 38 38 39 41 42 43 44 44 46 46 48 48 48 51 51 51 52 (5.7 13.8) (6 7.8) (6 12.2) (6.1 6.9) (6.1 18) (6.3 16.3) (7 8.1) (7 19.5) (7.2 14.5) (7.3 12.3) (7.3 9.7) (7.3 16.1) (7.3 7.6) (7.3 7.5) (7.5 9.6) (7.6 17.2) (7.6 10.8) (7.7 17.1) (7.7 12.1) (7.7 8.3) (7.8 6.3) (7.9 12) (8.1 8.3) (8.1 12.7) (8.2 9.3) (8.3 12.6) (8.3 7.4) (8.3 15.3) (8.5 11.3) (8.5 8.3) (8.6 8.5) (8.6 7.1) (8.6 17.7) (8.9 19) (9 16.2) (9 10.3) (9.1 8.5) (9.1 13) (9.3 15.5) (9.4 16.3) (9.4 13.6) (9.5 12.1) (9.6 14.1) (9.7 16.5) (9.9 7.4) (9.9 7) (10.1 10.2) (10.1 12.2) (10.4 16.9) (10.4 15.4) (10.4 15.8) (10.7 7.5) (10.8 9.8) (10.8 13.1) 
0 2 2 3 6 9 11 11 12 14 15 17 21 21 23 25 28 31 33 33 34 36 36 36 37 39 41 43 46 46 48 49 50 50 51 52 52 53 (2.1 19.5) (2.1 5.5) (2.3 7.5) (2.4 16.9) (2.4 4.9) (2.4 4.7) (2.5 15.6) (2.5 18.8) (2.5 17.1) (2.6 13.2) (2.6 12.6) (2.8 17.5) (2.9 17.3) (2.9 3.1) (3 18.9) (3.1 3.5) (3.1 19.5) (3.2 12.6) (3.2 18.1) (3.2 15.1) (3.2 15.1) (3.4 9.6) (3.4 15.1) (3.5 3) (3.5 12.7) (3.6 19.9) (3.6 7.3) (3.6 9.4) (3.7 6.2) (3.7 14.4) (3.7 9.1) (3.8 4.1) (3.8 2.1) (4 6.4) (4.1 12.6) (4.1 19.2) (4.4 4.1) (4.5 10) (4.5 10.3) (4.6 7.6) (4.6 11.2) (4.7 10.8) (4.7 16.4) (4.8 5.7) (4.8 18.2) (4.8 6.7) (5 16.4) (5 2.6) (5.1 16.4) (5.2 7.7) (5.4 15.6) (5.5 5.1) (5.7 12.5) (5.8 13.8) (5.8 4.8) 
0 1 1 2 2 2 2 4 8 9 9 11 12 13 16 17 17 18 20 22 25 25 25 26 26 28 28 29 30 31 33 33 34 35 36 40 44 44 47 50 51 53 54 (8.9 10.5) (9.1 14.6) (9.5 17.4) (9.5 10.2) (9.6 10.6) (9.6 16.4) (9.6 13) (9.6 13.3) (9.7 14.4) (9.9 18.2) (9.9 16) (10 14.4) (10.1 19.4) (10.2 12.2) (10.2 9.5) (10.2 18.3) (10.3 16.9) (10.5 17.7) (10.6 17.3) (10.6 11) (10.7 14.1) (10.7 10.5) (10.8 19.3) (10.8 17.5) (10.8 13.8) (11.1 13.1) (11.3 12.7) (11.3 13.6) (11.5 11) (11.6 19.4) (11.7 13.4) (11.8 19.1) (11.8 19.3) (12 12.9) (12.1 17.4) (12.2 13.1) (12.3 19.4) (12.3 9.8) (12.3 11.7) (12.3 15.4) (12.4 11.7) (12.4 13.3) (12.4 12.7) (12.4 12.9) (12.6 13.4) (12.6 9.2) (12.6 16.5) (12.7 16.4) (12.7 9.3) (12.7 15.4) (12.8 13.6) (12.9 11.8) (12.9 17) (13 19.6) (13.1 16.2) 
0 4 10 14 18 22 26 28 32 36 43 50 (2.1 15.4) (2.1 16.8) (2.1 7.5) (2.1 17.2) (2.2 5.3) (2.2 14.4) (2.2 12.1) (2.2 16) (2.2 9.2) (2.2 18) (2.3 16.8) (2.3 5.5) (2.3 12.4) (2.3 17.3) (2.4 17.4) (2.4 10.1) (2.4 12.6) (2.4 11.7) (2.5 15.7) (2.5 19.4) (2.5 13.7) (2.5 16) (2.6 14.1) (2.6 6.3) (2.6 11.5) (2.6 13.6) (2.7 16.7) (2.7 19.7) (2.8 10.4) (2.8 10.2) (2.8 2.3) (2.8 19.1) (2.9 3.8) (2.9 12) (2.9 5) (2.9 9.3) (3 19.6) (3 7.5) (3 3.8) (3 11.5) (3 14.7) (3 15.5) (3 15.3) (3.1 12.2) (3.1 10) (3.1 19.7) (3.1 9.5) (3.1 6.9) (3.1 16.5) (3.1 19.3) (3.2 17.8) (3.2 14.1) (3.2 3.5) (3.2 7) (3.2 11.6) 
0 1 1 2 2 2 4 5 5 6 6 6 8 9 11 14 15 15 17 17 17 18 19 19 21 21 25 25 25 26 26 27 29 29 30 33 34 34 34 34 35 35 37 37 39 41 41 41 42 43 44 45 45 47 47 47 48 49 50 50 50 50 51 53 53 (9 16.9) (9.2 18.8) (9.5 13.7) (9.5 17.8) (9.6 19.5) (9.8 11.4) (10.1 13.8) (10.1 19.3) (10.2 16.2) (10.3 11.5) (10.3 9.5) (10.4 15.6) (10.4 11.3) (10.4 10.7) (10.5 17.4) (10.7 11) (10.7 15.7) (11 14.3) (11.1 18.5) (11.3 18.2) (11.3 13.1) (11.5 17.8) (11.5 15.1) (11.5 14.2) (11.5 18.8) (11.8 18.8) (12 18.4) (12.1 17.4) (12.1 11.8) (12.3 18.5) (12.4 13.4) (12.4 14.8) (12.4 11.9) (12.5 12.3) (12.9 18.6) (13.1 13.1) (13.1 15.2) (13.3 19.3) (13.3 9.2) (13.4 18.4) (13.4 15.4) (13.7 13.9) (13.8 13.4) (13.9 15.4) (14 19.8) (14.2 18.8) (14.2 9.4) (14.5 16.8) (14.6 19.9) (14.7 11) (15.1 14.8) (15.2 17.2) (15.2 13.6) (15.4 12.3) (15.4 10.2) (15.4 14.8) 
0 6 7 13 15 16 18 24 28 29 31 33 36 40 42 45 49 52 53 (8.7 14.3) (8.7 11.2) (8.7 17.7) (8.7 10.3) (8.7 18.1) (8.7 16.8) (8.8 8.9) (8.9 11.9) (8.9 15) (8.9 10.7) (8.9 18.5) (8.9 18.9) (8.9 19.9) (9 14.3) (9 19.6) (9.1 14.9) (9.2 12.6) (9.2 10.9) (9.3 15.8) (9.3 11.5) (9.3 12.6) (9.3 11.5) (9.3 17.5) (9.3 10) (9.4 15.2) (9.4 15.6) (9.4 10.6) (9.4 14.7) (9.5 18.7) (9.6 16.9) (9.6 12.5) (9.7 12.8) (9.7 17.9) (9.8 12.5) (9.8 17.3) (9.8 12.4) (9.9 9.7) (9.9 19.2) (9.9 13.5) (9.9 13.5) (10 16.1) (10 17.4) (10.1 16.4) (10.1 16.6) (10.1 11.5) (10.2 11) (10.2 17.1) (10.2 16.8) (10.2 9) (10.3 9.8) (10.3 17.2) (10.3 12.9) (10.4 9.5) (10.5 9.3) (10.5 11.1) (10.5 13.3) 
0 1 2 3 4 4 4 5 7 9 10 12 12 12 12 15 17 18 20 21 23 24 24 24 24 25 28 29 31 32 32 33 35 37 38 39 40 41 42 42 42 44 46 47 48 48 48 49 50 50 51 52 52 53 54 54 55 56 (7.1 19.4) (7.2 8.5) (7.3 10) (7.4 16) (7.7 18.3) (7.8 8.7) (7.8 9.5) (7.9 17.9) (7.9 19.9) (8 7.7) (8.1 7.9) (8.1 17.5) (8.5 11) (8.5 9.5) (8.5 17.7) (8.6 15.3) (8.6 7.7) (8.7 8.7) (8.8 15.3) (8.8 9.9) (8.9 19.4) (9 13.4) (9 19) (9.1 16.5) (9.5 14.4) (9.6 10.2) (9.6 8.7) (9.6 18.2) (9.7 16.9) (9.8 10.1) (9.8 14.7) (9.9 15.7) (10.1 17.7) (10.2 17.8) (10.2 17.1) (10.3 9.8) (10.3 18.9) (10.4 19.1) (10.5 18.8) (10.6 17.9) (10.7 8.3) (10.8 8.7) (11.1 19.1) (11.1 18.4) (11.2 14.3) (11.2 17.7) (11.3 16.7) (11.4 9.7) (11.7 15.9) (11.8 12.5) (12 15) (12.1 18.6) (12.3 16.6) (12.4 19.6) (12.6 8.1) (12.7 12.8) (12.8 7.4) 
0 2 5 6 6 6 9 11 12 13 14 16 17 18 20 21 23 24 24 25 28 31 33 36 40 41 44 44 44 44 45 46 47 49 50 54 54 56 (9 10) (9 17.2) (9.1 13.3) (9.1 10.8) (9.1 17.3) (9.2 16.7) (9.5 16.1) (9.5 16.4) (9.5 17.4) (9.6 10.8) (9.6 15) (9.7 16.5) (9.8 15.4) (9.9 13.2) (10 12.2) (10 18) (10.1 12.5) (10.2 10.2) (10.3 17.3) (10.3 11.3) (10.4 10.8) (10.5 12.7) (10.5 15) (10.6 17) (10.8 15.4) (10.9 10.2) (10.9 11.6) (10.9 10.9) (11 15.5) (11 14.2) (11 12.3) (11.1 11.6) (11.1 16.6) (11.2 11.6) (11.2 16.7) (11.2 18.8) (11.3 16.4) (11.3 18.7) (11.3 12.4) (11.3 12.2) (11.4 16.8) (11.5 15.5) (11.5 17.4) (11.5 11.9) (11.9 11.2) (12 12.8) (12.1 13) (12.2 16.1) (12.2 10.8) (12.3 19.7) (12.4 13.4) (12.4 18.8) (12.4 13.3) (12.4 12.2) (12.6 10.2) (12.6 15.6) (12.7 13.8) 
0 1 2 2 4 4 5 6 6 6 8 11 11 12 13 15 17 19 21 23 23 23 23 25 27 29 30 31 32 32 36 37 37 41 41 42 44 47 49 51 53 53 55 56 57 57 (7.3 9.3) (7.4 16.7) (7.6 10) (7.6 17.1) (7.8 19.6) (7.9 13.3) (8.2 15.4) (8.2 11.9) (8.3 14.1) (8.3 8.7) (8.3 9.3) (8.5 17.1) (8.6 10.5) (8.7 18.5) (8.7 11.8) (8.8 7.6) (8.8 17.4) (8.9 18.9) (8.9 10.6) (9 18.5) (9 9.3) (9.1 8.8) (9.1 19.5) (9.5 15.8) (9.5 10.3) (9.6 15.6) (9.6 16.9) (9.7 16.8) (9.7 12.5) (9.8 8.3) (9.9 7.3) (10 16) (10.2 9.3) (10.2 16.7) (10.2 19.7) (10.2 9) (10.3 15.5) (10.5 11.2) (10.5 14.7) (10.5 19.9) (10.5 16.2) (10.7 19.5) (10.8 16.3) (10.8 12.1) (10.9 13.5) (10.9 10.4) (10.9 19.9) (11 17.1) (11 10.8) (11.1 10) (11.1 9.2) (11.2 12) (11.2 15.3) (11.4 7.6) (11.4 18.6) (11.5 13) (11.6 8.3) (11.8 18.2) 
0 7 11 11 15 18 19 20 22 25 27 27 31 34 37 43 48 51 56 58 (4.7 13.8) (4.7 4.8) (4.7 5.7) (4.7 10.9) (4.7 7.9) (4.7 14.4) (4.7 5.3) (4.8 13.1) (4.8 14.3) (4.8 7.3) (4.8 7.7) (5 17.6) (5 13) (5 15.7) (5 12.4) (5.1 12.3) (5.1 11.4) (5.1 15.7) (5.2 18.6) (5.3 14.5) (5.4 18.5) (5.4 10.2) (5.5 19.4) (5.5 14.8) (5.5 14.8) (5.6 13.2) (5.6 6.6) (5.8 14.4) (5.8 7.3) (5.8 5.8) (5.8 19) (5.9 6.9) (5.9 7.5) (5.9 17.7) (6 17.6) (6 6.6) (6 6.4) (6.1 10.7) (6.1 6.1) (6.1 8.3) (6.1 11.4) (6.1 15.8) (6.1 10.3) (6.2 8.4) (6.2 10.7) (6.2 18.5) (6.2 12) (6.2 5.9) (6.3 18.6) (6.3 11.5) (6.3 13.3) (6.4 5.8) (6.4 19.9) (6.4 11.3) (6.4 11.6) (6.4 7) (6.5 12.8) (6.5 5.6) (6.6 10.9) 
0 2 4 5 7 10 14 17 18 18 19 22 24 25 26 27 27 30 32 36 38 38 40 43 46 49 50 54 55 56 58 60 60 (6.5 11.2) (6.5 9.6) (6.6 13.4) (6.6 10.5) (6.7 8.6) (6.8 8.1) (6.8 11.3) (6.9 14.8) (6.9 8.1) (6.9 19) (7 10.6) (7 15.9) (7 18.3) (7 8.3) (7.1 17) (7.1 8.3) (7.1 11.4) (7.2 9.1) (7.4 18.3) (7.5 18.9) (7.5 6.9) (7.5 12.8) (7.6 16.4) (7.6 11.1) (7.7 9) (7.8 9.3) (7.9 14.8) (8.1 12.1) (8.1 19.3) (8.1 14.3) (8.2 19.5) (8.2 11.3) (8.3 19.1) (8.3 10) (8.3 15.4) (8.3 12.2) (8.4 6.4) (8.4 15.3) (8.6 15.9) (8.6 14.7) (8.7 7.2) (8.7 10.8) (8.7 14.6) (8.8 11.4) (8.8 17.8) (8.8 15.1) (8.9 18.5) (8.9 18.9) (8.9 12.3) (9 6.9) (9.1 9.5) (9.1 12.4) (9.1 18.6) (9.1 11.7) (9.2 11.4) (9.3 18.8) (9.4 6.7) (9.4 11.7) (9.5 10.7) (9.5 11.8) (9.7 10.6) (9.7 13.3) (9.7 17.5) 
0 3 6 10 14 15 18 21 25 26 29 36 38 39 42 47 49 54 56 58 62 (4.2 14.1) (4.2 5.3) (4.2 6) (4.3 10.5) (4.3 15.6) (4.3 11.3) (4.4 14.5) (4.4 12) (4.4 4.4) (4.4 6.5) (4.5 12.7) (4.5 6.5) (4.5 16.3) (4.5 19) (4.6 12.9) (4.7 5.6) (4.7 19) (4.7 13.2) (4.8 9.3) (4.8 18) (4.8 18.1) (4.9 18) (4.9 11.3) (4.9 7.1) (4.9 10) (5 15.4) (5.1 5.4) (5.1 13.3) (5.1 13.1) (5.2 9.3) (5.2 7.2) (5.2 17.6) (5.2 5.6) (5.2 11.1) (5.2 12.6) (5.2 13.2) (5.3 5.5) (5.3 19.9) (5.4 18.2) (5.5 18.1) (5.5 9.2) (5.5 15.3) (5.6 7.6) (5.6 7.3) (5.6 8.4) (5.6 4.6) (5.6 14.7) (5.7 9) (5.7 15.1) (5.8 5.4) (5.8 12.2) (5.8 7.3) (5.8 9.9) (5.8 4.9) (5.9 5.7) (5.9 18.5) (6 6) (6 14) (6.1 4.3) (6.1 16.1) (6.1 7.7) (6.1 16.8) (6.2 15.5) 
0 1 2 3 3 11 13 16 19 20 23 24 25 27 28 30 33 34 34 36 37 39 39 40 40 44 46 46 49 49 50 50 50 50 52 54 55 56 58 58 60 61 (6.4 11) (6.5 18.1) (6.6 6.5) (6.8 12) (6.8 18.8) (6.8 17.9) (6.8 19.1) (6.8 12.9) (6.8 11.4) (6.8 17.7) (6.8 16.5) (6.9 19.2) (6.9 9.4) (7 8.3) (7 12.8) (7 17.5) (7.1 13.2) (7.1 14.7) (7.1 9.9) (7.2 17.6) (7.3 10.9) (7.3 9.4) (7.3 12.1) (7.4 14.7) (7.5 19) (7.6 11.6) (7.6 12.4) (7.7 11.9) (7.8 19.4) (7.8 12) (7.9 6.5) (7.9 13.1) (7.9 19.2) (8 16) (8.2 17.6) (8.2 14.5) (8.3 9) (8.4 10.9) (8.4 7.7) (8.6 7.5) (8.8 7.4) (8.8 12.8) (8.8 16.9) (8.8 9) (8.9 8.9) (8.9 19.9) (9.1 15.2) (9.1 12.2) (9.1 11) (9.3 18.7) (9.7 14.8) (9.7 9.9) (9.8 7.7) (9.8 8.2) (9.9 14.6) (10 10.5) (10.1 9) (10.1 14) (10.3 8) (10.3 13.5) (10.4 9.4) (10.5 13.4) (10.5 11.4) 
0 5 10 17 25 28 29 35 40 48 53 61 (4.3 16) (4.3 14.7) (4.3 13) (4.3 15) (4.3 6.6) (4.4 12.4) (4.4 11.5) (4.4 10.1) (4.4 16.7) (4.4 5.9) (4.5 17.9) (4.5 16.3) (4.5 10.9) (4.5 15.5) (4.5 9.4) (4.5 7.7) (4.5 15.1) (4.6 18.3) (4.6 19.7) (4.6 8.4) (4.6 10.3) (4.6 11.7) (4.6 18) (4.6 17.9) (4.6 5.6) (4.7 6.6) (4.7 11.6) (4.7 4.6) (4.8 19.1) (4.9 18.4) (4.9 16.1) (4.9 11.1) (4.9 7.1) (4.9 13.6) (4.9 19) (5 13.1) (5 6.2) (5 8.3) (5 15.1) (5 11.3) (5.1 4.4) (5.1 17.9) (5.1 6.5) (5.1 16.7) (5.1 18.3) (5.1 6) (5.1 4.8) (5.1 13.2) (5.2 13.7) (5.2 13.5) (5.2 5.5) (5.2 4.6) (5.2 19.1) (5.3 14.5) (5.3 8.3) (5.3 7.9) (5.3 17.2) (5.3 4.6) (5.3 9.9) (5.3 17.8) (5.3 7.4) (5.4 12.3) (5.4 5.4) (5.4 10.1) (5.4 9.3) 
0 2 8 11 16 17 20 23 24 27 28 31 35 40 44 47 48 52 55 58 63 (2.2 17.1) (2.2 16.7) (2.3 8.9) (2.3 4.2) (2.3 5.8) (2.3 7.9) (2.3 14.2) (2.3 14) (2.4 2.3) (2.4 14.5) (2.4 2.8) (2.5 16.6) (2.5 7) (2.5 5.6) (2.5 8) (2.5 13.2) (2.6 8.1) (2.7 14.5) (2.7 6.3) (2.7 19.3) (2.8 4.7) (2.8 14) (2.8 17.7) (2.9 14) (3 9.1) (3 12.5) (3 17.3) (3.1 10.5) (3.2 14.7) (3.2 4.3) (3.2 11.1) (3.3 14.6) (3.3 12.7) (3.3 19) (3.3 3.6) (3.4 9.7) (3.4 17.3) (3.4 16) (3.4 18.2) (3.4 17.1) (3.5 11.3) (3.5 16.2) (3.5 17) (3.5 16.5) (3.6 12.2) (3.6 15.6) (3.6 18.8) (3.7 14.5) (3.8 3.5) (3.8 10.3) (3.8 13.2) (3.8 16.9) (3.9 12.4) (3.9 3.1) (3.9 15.2) (4 6) (4 17.9) (4 2.9) (4.1 2.9) (4.1 8.6) (4.1 2.6) (4.1 8.8) (4.1 18.5) (4.2 17.7) (4.2 13.2) (4.2 8.3) (4.2 18.4) 
0 1 2 4 6 6 8 12 13 13 13 14 15 17 19 19 19 19 22 23 23 25 27 29 30 31 31 34 36 38 40 41 42 43 43 43 45 45 46 48 50 52 53 53 55 56 59 61 63 64 65 66 67 (4.7 11.8) (4.8 11.6) (4.9 7.7) (4.9 10.6) (5 18.1) (5 11) (5.2 15.9) (5.2 7.8) (5.3 19.7) (5.3 15.2) (5.3 5) (5.3 11.5) (5.4 10) (5.7 19.3) (5.8 14.9) (5.9 10.8) (5.9 9.1) (6 17.2) (6 18.4) (6.4 7.7) (6.4 16.6) (6.4 17.3) (6.5 13.3) (6.7 14.1) (6.7 19.4) (6.8 8.4) (6.8 15.2) (6.9 15.2) (6.9 16.4) (7 10.6) (7.1 9.2) (7.3 9) (7.3 8.3) (7.3 7.6) (7.4 10) (7.4 10.5) (7.5 19.6) (7.5 17.4) (7.6 8.9) (7.6 18.4) (7.7 16.6) (7.8 9.8) (7.9 16.9) (8.2 9.8) (8.2 19.4) (8.4 16.2) (8.5 12.3) (8.5 10.9) (8.6 11.8) (8.6 9.1) (8.7 11.8) (8.7 7.4) (8.8 16.1) (9 9.7) (9 19.8) (9.1 18.6) (9.2 15.4) (9.2 8.6) (9.2 8.5) (9.3 16.4) (9.3 10.7) (9.4 5.2) (9.4 14.7) (9.5 6) (9.6 14.9) (9.7 19) (9.8 10) (9.9 14.5) 
0 1 2 6 7 8 8 9 11 13 14 17 18 19 20 27 29 30 30 32 33 34 35 36 37 38 39 40 40 43 45 47 48 50 50 51 53 56 60 62 63 64 65 66 67 (5.4 5.6) (5.5 8.9) (5.6 15.5) (5.6 13.2) (5.6 16.3) (5.6 11) (5.7 5.5) (5.8 18.9) (6 15.3) (6.1 6.5) (6.1 12.6) (6.2 6.9) (6.2 15.8) (6.3 11) (6.4 15.2) (6.4 17.4) (6.4 19.4) (6.5 9.4) (6.6 13.9) (6.7 9.5) (6.8 13) (6.8 12.2) (6.8 15.7) (6.8 6) (6.8 11.4) (6.8 17) (6.8 15.8) (6.9 6.9) (6.9 19.3) (7 15.3) (7.2 18.3) (7.2 10.9) (7.3 5.9) (7.4 10.4) (7.5 6.8) (7.6 6.1) (7.7 13.2) (7.8 19.3) (7.9 12.5) (8 9.8) (8.2 7) (8.2 19.9) (8.2 8.3) (8.3 5.5) (8.3 9.9) (8.4 13.9) (8.4 18.4) (8.5 14.9) (8.6 15.2) (8.6 19) (8.8 18.8) (8.9 17.9) (8.9 11.7) (9 11.7) (9 18.5) (9 14.2) (9.1 14.9) (9.1 11.8) (9.1 11.1) (9.1 13.2) (9.2 16.1) (9.2 9.4) (9.3 15.4) (9.4 7.2) (9.5 8.5) (9.6 14) (9.7 10.5) (9.8 9) (9.8 18.1) 
0 5 6 7 9 10 14 15 17 18 20 21 21 22 22 22 24 25 26 27 28 29 34 34 34 35 38 38 40 41 42 43 43 43 44 47 47 49 52 52 54 56 57 57 59 61 62 62 65 67 68 (7.2 14.9) (7.2 17.2) (7.2 12.4) (7.2 7.2) (7.2 15) (7.3 17.9) (7.4 18.3) (7.5 15.2) (7.5 15) (7.6 11) (7.7 15.6) (7.7 8.4) (7.7 16.1) (7.7 10.4) (7.8 15.4) (7.9 14.6) (7.9 7.4) (8 12) (8.1 10.2) (8.1 7.4) (8.2 11.8) (8.4 7.6) (8.7 16.7) (8.7 15.7) (8.8 18.7) (8.9 12.8) (9 9.1) (9.1 8.2) (9.2 14.9) (9.3 14.9) (9.3 9.1) (9.3 7.2) (9.3 19.5) (9.3 8.6) (9.6 17.6) (9.7 12.3) (9.7 10.4) (9.7 17.7) (9.9 17.6) (9.9 15.6) (10 16.6) (10.1 13) (10.2 17.5) (10.5 15.8) (10.6 9.2) (10.6 17.8) (10.6 15.3) (10.8 11) (10.8 12.1) (10.9 18.2) (10.9 12.1) (10.9 19.1) (11.1 19.7) (11.1 18.6) (11.2 19.2) (11.2 7.6) (11.3 18.8) (11.5 7.8) (11.5 14.8) (11.6 12.6) (11.6 15.5) (11.7 8.4) (11.9 11.5) (11.9 16.7) (11.9 17.8) (12 8.8) (12 15.3) (12.1 14.2) (12.2 11.1) (12.2 16.9) 
0 1 2 2 2 3 4 4 5 7 9 12 13 13 14 15 15 16 16 17 18 20 20 21 24 27 29 31 32 33 33 34 35 37 39 41 41 42 44 46 48 51 52 55 55 56 58 61 62 62 63 64 64 65 65 70 70 (7.6 18.7) (7.7 15.4) (8 9.4) (8.1 10.3) (8.3 16.4) (8.4 17.1) (8.4 11.2) (8.5 19) (8.5 16) (8.6 8.4) (8.6 10) (8.6 18.1) (8.7 16.5) (8.9 16.7) (9 14.5) (9.2 13.4) (9.4 16.3) (9.5 12.2) (9.6 14.2) (9.6 18) (9.8 10.7) (9.9 10.8) (9.9 14.7) (9.9 19.9) (10 10.1) (10 7.7) (10 18.9) (10.1 15.3) (10.1 10.4) (10.2 17.9) (10.2 18) (10.3 16.4) (10.4 17.2) (10.6 11) (10.7 10.8) (10.8 15.3) (10.8 19.5) (10.9 16.5) (10.9 13.2) (11 10.9) (11 8.8) (11.2 13.1) (11.3 16.4) (11.3 10.3) (11.4 8.5) (11.4 13.3) (11.5 17.5) (11.5 8) (11.6 16.3) (11.6 15.9) (11.6 12.9) (11.7 17.3) (11.8 11.7) (11.8 10.5) (11.8 13.4) (12 8.4) (12.1 7.6) (12.1 15.4) (12.2 15.5) (12.2 18.8) (12.2 13.6) (12.3 7.7) (12.5 9.8) (12.6 18.9) (12.8 17.1) (13 10.7) (13 10.7) (13 17.6) (13 18.4) (13 17.3) (13.2 16.3) 
0 4 6 11 14 15 22 25 25 26 26 28 32 36 39 41 44 46 49 51 53 55 58 59 62 65 66 70 (0.7 10.4) (0.7 19.6) (0.7 5.8) (0.7 2.3) (0.8 8.2) (0.8 10) (0.9 14.4) (0.9 17.7) (0.9 5.8) (0.9 3.3) (0.9 18.1) (1 10.6) (1 8.6) (1 3.1) (1.1 12.3) (1.2 15.3) (1.2 9.1) (1.2 7.2) (1.2 18.4) (1.2 14.8) (1.2 10.7) (1.2 2.1) (1.3 10.4) (1.3 9) (1.3 18.8) (1.5 16.5) (1.7 18.5) (1.7 5.7) (1.8 7.8) (1.8 1.6) (1.8 15.4) (1.8 13.4) (1.9 8.2) (1.9 12.3) (1.9 15.9) (1.9 15.8) (2 8.4) (2 8.6) (2 10.4) (2.1 5.9) (2.1 18.8) (2.2 8.2) (2.2 14.1) (2.2 8.5) (2.3 2.8) (2.3 4.3) (2.4 8.8) (2.4 9.8) (2.4 6.6) (2.5 1.6) (2.5 7.4) (2.6 6.9) (2.6 11.2) (2.7 6.4) (2.7 17.9) (2.8 2.1) (2.8 11.2) (2.8 4.1) (2.9 18.4) (3 11.3) (3 2.4) (3 1.6) (3.1 17.2) (3.1 5.9) (3.1 0.7) (3.2 6) (3.3 19.7) (3.3 18.4) (3.3 1.4) (3.3 1.8) (3.4 5.8) 
0 2 2 4 6 8 8 9 10 12 14 15 15 17 21 22 24 25 26 26 28 30 33 35 36 39 39 40 43 44 46 49 49 50 54 57 60 63 66 69 70 71 (9.1 10.6) (9.1 16.5) (9.3 17.6) (9.3 14.1) (9.4 15.9) (9.4 9) (9.5 19.3) (9.5 10.4) (9.7 17) (9.8 13.4) (9.9 19.3) (9.9 9.2) (10 17.9) (10 16.4) (10.1 15.7) (10.3 9.9) (10.3 15.6) (10.4 12.4) (10.4 17) (10.4 11.9) (10.4 18.4) (10.5 9) (10.6 17.1) (10.6 9.6) (10.7 10) (10.8 18.6) (11 13) (11 15.2) (11.1 9.8) (11.1 12.6) (11.2 11.3) (11.2 9.3) (11.2 10.5) (11.3 18.4) (11.3 19.7) (11.4 11.8) (11.5 14.8) (11.5 11.3) (11.5 13.4) (11.7 17.2) (11.8 17) (11.8 14.7) (11.8 15.3) (11.9 19.9) (12 19) (12 9) (12.1 12.2) (12.1 19) (12.1 12.1) (12.3 14.3) (12.4 11.5) (12.4 16.4) (12.4 13.1) (12.4 9.6) (12.5 9.3) (12.5 13.7) (12.5 13) (12.6 12.8) (12.6 18.5) (12.6 9.3) (12.7 10.9) (12.7 12.9) (12.7 16.7) (12.8 18.5) (12.8 11.1) (12.8 12.8) (12.9 13.1) (12.9 15) (12.9 13.5) (13 9.7) (13.1 15.7) (13.2 10.1) 
0 1 2 2 3 7 9 10 12 17 17 18 18 18 25 25 28 30 33 34 37 37 37 39 39 41 45 45 46 47 51 52 53 56 59 60 65 71 (1.6 19) (1.7 2.9) (1.9 8.4) (2 11.3) (2 18.2) (2 18.2) (2 16) (2.1 14.1) (2.1 6.9) (2.2 6.8) (2.3 13.4) (2.3 18.8) (2.4 11.7) (2.4 17.5) (2.4 4.9) (2.4 16.1) (2.4 18.9) (2.6 16) (2.9 16.3) (2.9 11.8) (2.9 10.1) (2.9 10.5) (2.9 4.3) (2.9 18.1) (2.9 17.4) (3.1 7) (3.1 10.5) (3.1 3.7) (3.2 18.8) (3.2 9.4) (3.3 15.1) (3.3 16.6) (3.3 8.4) (3.4 19.8) (3.5 18.8) (3.5 5.7) (3.5 13.5) (3.8 18) (3.8 14.5) (4 11.3) (4 14.8) (4.1 8.6) (4.1 17.7) (4.1 9.1) (4.1 11.5) (4.3 11.4) (4.4 7) (4.5 9.9) (4.5 11.6) (4.5 4.7) (4.5 11.2) (4.6 17.8) (4.7 18.8) (4.8 17.6) (4.8 5.3) (4.8 15.5) (4.9 17.9) (4.9 4.3) (4.9 18.8) (5 8.8) (5.1 7.7) (5.1 18.4) (5.1 14.3) (5.1 17.3) (5.1 13.4) (5.2 5) (5.2 13.9) (5.2 19.2) (5.2 16.9) (5.2 5.8) (5.2 8.1) (5.3 11.6) (5.3 14.1) 
0 1 4 6 6 7 10 10 10 10 11 12 13 14 15 17 19 19 19 21 24 26 26 26 26 26 27 30 31 32 32 34 34 35 35 37 38 39 39 39 42 42 42 42 44 46 50 52 54 56 58 61 61 63 65 66 67 68 69 69 69 70 72 73 (6.4 11.4) (6.5 9.3) (6.5 10.4) (6.5 8.8) (6.6 18.7) (6.6 8.7) (6.8 17.9) (6.9 15.6) (6.9 7.1) (6.9 10.9) (7.3 7.6) (7.4 18.9) (7.5 12.9) (7.6 6.4) (7.7 18.3) (7.8 17.1) (7.8 16.7) (7.9 10.9) (7.9 10.7) (8.2 15.5) (8.2 16.7) (8.3 6.5) (8.3 12.2) (8.3 9.7) (8.4 9.9) (8.4 19.2) (8.9 7.6) (9 14.7) (9 8.7) (9 9) (9.1 8.9) (9.2 10.3) (9.4 7.7) (9.4 6.8) (9.6 11.5) (9.8 11) (9.8 11.4) (9.9 11.1) (10 7.1) (10.3 9.1) (10.3 7.6) (10.3 8.3) (10.7 7.5) (10.7 15.9) (10.8 18.2) (10.8 19.1) (10.9 18.7) (10.9 19.7) (10.9 13.5) (10.9 18) (11 17) (11 9.5) (11.1 9.8) (11.1 19.5) (11.2 19) (11.2 11.3) (11.3 11.3) (11.3 13) (11.4 10.2) (11.4 9.9) (11.4 19.6) (11.6 14.9) (11.6 8.8) (11.7 18.9) (11.7 18) (11.8 17.9) (11.9 10.2) (12 13.3) (12.1 13.6) (12.4 12.8) (12.5 11.8) (12.5 18) (12.6 13.6) (12.7 16.3) 
0 1 2 4 6 6 8 10 10 12 13 16 17 17 17 17 17 19 21 21 22 22 23 24 25 26 27 27 27 30 32 32 32 33 34 35 37 37 39 39 40 40 41 42 44 44 45 46 46 46 47 48 48 49 49 49 49 51 51 52 53 53 54 55 55 57 59 60 60 61 61 66 68 68 69 69 73 (9.2 16.1) (9.3 14.4) (9.4 18.3) (9.4 16.1) (9.5 17.7) (9.5 9.7) (9.7 11.8) (9.7 9.8) (9.8 18) (9.8 18.7) (10 18.5) (10 10.8) (10.1 13.1) (10.2 10.9) (10.2 9.6) (10.2 18.3) (10.3 15.5) (10.8 15.5) (10.8 10.9) (10.9 18.5) (10.9 17.7) (11.1 17.6) (11.3 9.3) (11.4 11) (11.5 18.9) (11.6 14.3) (11.7 12.4) (12 19.7) (12 10.5) (12 16.7) (12.1 11.2) (12.1 14.8) (12.4 10.3) (12.5 13.9) (12.6 11.1) (12.7 14) (12.7 15) (12.9 18.8) (12.9 13.1) (13.1 11.2) (13.3 15.4) (13.4 18.8) (13.5 19.3) (13.5 14.1) (13.7 16.7) (13.8 18.8) (14.1 14) (14.2 18.8) (14.4 16.6) (14.8 11.2) (14.8 18.4) (15 18.4) (15.1 17) (15.3 9.7) (15.4 18.1) (15.6 14.6) (15.6 15) (15.7 18.6) (15.7 9.7) (15.8 10.5) (16 17.4) (16.2 12.6) (16.2 15.1) (16.2 13) (16.2 17.7) (16.2 18) (16.3 13.3) (16.3 10.9) (16.5 15.7) (16.7 13.2) (16.7 11.6) (16.7 12.7) (16.7 18.9) (16.8 13.8) 
0 6 8 11 16 19 19 22 23 26 29 29 32 38 44 51 55 59 60 63 65 70 73 (4.3 4.8) (4.3 5.9) (4.3 7.1) (4.3 17.2) (4.3 7.4) (4.3 14.3) (4.4 12.3) (4.4 18) (4.5 11.2) (4.5 11.2) (4.5 11.2) (4.6 5.5) (4.6 8.4) (4.6 17.5) (4.6 4.2) (4.6 16) (4.7 18.3) (4.7 7.3) (4.7 7.9) (4.9 5) (4.9 9.9) (4.9 13.5) (5 7.6) (5.1 4.6) (5.1 15.7) (5.1 17.3) (5.2 7.5) (5.2 13.6) (5.2 6.8) (5.4 5.6) (5.4 18.8) (5.4 11.1) (5.5 5) (5.5 15.7) (5.5 17.4) (5.5 12) (5.5 12.9) (5.5 11.9) (5.6 10.2) (5.6 19.6) (5.6 5.6) (5.6 11.3) (5.6 7.3) (5.6 15.7) (5.7 16.2) (5.7 10.8) (5.7 5.1) (5.7 12.1) (5.7 4.7) (5.7 5.5) (5.7 4.6) (5.8 10.3) (5.8 18.3) (5.8 9.6) (5.8 7.9) (5.9 17.1) (5.9 16.7) (5.9 8.9) (5.9 15) (6 8.1) (6.1 8.4) (6.1 4.3) (6.1 13.7) (6.2 17.4) (6.2 5.6) (6.3 16.9) (6.3 16.8) (6.3 7.4) (6.3 11.4) (6.3 12.1) (6.4 12.6) (6.4 13) (6.4 5.8) (6.5 16.3) (6.5 14.8) (6.5 13.5) 
0 3 4 5 6 8 8 8 8 10 11 14 14 16 17 22 25 25 25 26 27 28 29 30 31 33 33 35 36 40 41 43 43 45 45 46 49 49 50 51 55 55 56 58 59 60 60 63 64 66 67 70 73 73 74 74 75 75 78 78 78 (2.1 8) (2.1 18.1) (2.1 11.8) (2.2 10.4) (2.3 12.6) (2.4 16.6) (2.5 18.7) (2.5 15.7) (2.9 13) (2.9 12.9) (3 6.7) (3.1 14) (3.1 8.1) (3.1 7.6) (3.3 5) (3.3 12.7) (3.4 11.7) (3.5 7) (3.5 10.9) (3.5 18.1) (3.5 19.7) (3.5 4.1) (3.6 3.8) (3.6 13.6) (3.6 3.7) (3.9 15.9) (4 4) (4.1 3.2) (4.2 7.1) (4.3 12.8) (4.4 2.9) (4.5 2.2) (4.5 4) (4.7 12.8) (4.7 3) (4.8 10.4) (4.9 3.5) (4.9 19.2) (4.9 19.9) (4.9 3.2) (5 14.8) (5.1 16.9) (5.1 17.3) (5.3 2.5) (5.3 16.8) (5.5 8.3) (5.6 6.9) (5.6 9.4) (5.6 19.2) (5.8 14.6) (5.9 17.1) (6 19.5) (6 16.7) (6 8.7) (6 3.5) (6.2 4.4) (6.3 10.6) (6.3 12.7) (6.4 18.2) (6.5 4.5) (6.7 15.8) (6.7 11.4) (6.7 4.3) (6.8 4.8) (6.9 19.2) (6.9 19.9) (7 5.9) (7.1 5.7) (7.1 16.7) (7.1 3.6) (7.2 17.7) (7.2 9.4) (7.2 16) (7.4 19.8) (7.6 8.9) (7.8 9.9) (7.8 6.4) (7.8 3.3) (8.1 9.4) 
0 2 2 5 7 7 9 10 11 11 15 16 17 20 21 21 21 22 24 24 25 26 28 29 30 30 31 32 33 33 35 39 41 45 46 47 49 50 51 53 56 60 63 64 68 68 68 69 69 70 74 77 78 78 (2.4 11) (2.4 8.9) (2.6 14) (2.6 5) (2.6 8.5) (2.7 6.7) (2.7 15.4) (2.9 13.9) (2.9 13.4) (3 13.6) (3.1 11.6) (3.3 18.5) (3.3 8.2) (3.3 5) (3.3 4.6) (3.4 2.6) (3.5 19.9) (3.6 18.9) (3.6 7.4) (3.6 16.4) (3.7 12.8) (4 4.4) (4.1 9) (4.1 7.2) (4.3 18.6) (4.4 17.3) (4.5 4.2) (4.5 15.7) (4.6 11.6) (4.7 6.8) (4.9 17.1) (5 8.1) (5.1 6.1) (5.3 12.2) (5.3 8.2) (5.4 18.5) (5.4 11.6) (5.4 8.9) (5.4 14.3) (5.5 9.2) (5.5 5.3) (5.6 16.9) (5.6 16.9) (5.6 7.7) (5.6 13.9) (5.7 9.2) (5.8 2.9) (5.9 16.9) (5.9 17.3) (6 15.3) (6.1 15.1) (6.2 9.9) (6.2 14.2) (6.3 19.4) (6.3 6.5) (6.3 5.2) (6.4 8.2) (6.4 18.6) (6.4 16.4) (6.4 17.4) (6.5 8.3) (6.5 18.3) (6.5 15.6) (6.6 2.9) (6.7 19.9) (6.7 14.9) (6.7 4.6) (6.7 4.5) (7 19.2) (7.2 7.4) (7.3 7.5) (7.3 4.6) (7.3 10) (7.3 5.1) (7.4 7.6) (7.4 10.1) (7.4 6.4) (7.5 7.5) (7.7 3) (7.7 13.3) 
0 2 4 5 5 6 6 6 7 7 7 9 9 9 12 13 13 15 16 17 19 20 25 25 25 25 26 29 29 31 31 33 33 34 36 36 36 38 38 38 40 40 40 40 40 43 46 47 47 48 50 50 52 54 55 57 57 58 58 59 59 59 62 62 64 66 68 68 69 70 70 70 73 74 75 75 75 76 76 76 76 77 77 80 80 81 82 (7.7 19.2) (7.7 15.7) (7.8 15.7) (7.8 13.3) (7.9 18.8) (8.1 18.1) (8.4 12.4) (8.7 19.6) (8.7 12.7) (9 8.9) (9 14) (9 11) (9.1 9.7) (9.3 14.9) (9.3 16.5) (9.4 15.8) (9.5 16) (9.6 10.1) (9.6 17.6) (9.7 13.9) (9.8 13.4) (9.8 9.1) (9.8 18.9) (9.8 15.6) (9.8 19.3) (10.2 13.6) (10.3 12) (10.3 11.8) (10.3 9.8) (10.5 13.1) (10.5 16.7) (10.7 13) (10.7 19.1) (10.9 16.2) (11 9.1) (11 19.7) (11.3 11.8) (11.3 19.1) (11.6 17.9) (11.6 12.7) (12.1 19.3) (12.1 11) (12.1 12.2) (12.2 8) (12.2 11.8) (12.2 19.2) (12.3 14.4) (12.5 11.7) (12.6 12.8) (12.6 8) (12.8 10.7) (12.8 11) (12.9 11) (12.9 18.5) (13 15.2) (13.1 15.3) (13.1 13.8) (13.3 12.3) (13.5 8.2) (13.8 9.9) (13.8 10.6) (13.8 11.1) (14 15.3) (14 8.7) (14.1 15.1) (14.1 8.8) (14.2 14.2) (14.2 9.6) (14.4 17.9) (14.5 9.1) (14.8 12.2) (14.8 8.5) (14.8 16.4) (14.9 17.1) (15 18.5) (15.3 8) (15.7 14.3) (15.9 9.1) (15.9 19) (15.9 9.1) (16.1 8.8) (16.2 13.4) (16.3 17.3) 
0 1 2 2 4 4 5 6 8 8 10 12 12 13 16 17 18 19 21 21 22 22 23 25 27 28 30 32 32 33 34 34 34 35 37 39 39 40 42 42 42 43 44 45 47 48 50 51 52 52 56 56 58 59 60 60 61 61 63 63 65 67 68 68 71 72 74 75 75 77 77 78 79 (4.1 17.5) (4.2 8.2) (4.4 4.1) (4.4 10.3) (4.6 11.9) (4.7 7.3) (4.8 12.9) (4.8 13.4) (5 18.3) (5 12.1) (5.1 18.5) (5.1 8.4) (5.3 16.3) (5.4 12.5) (5.4 19.3) (5.4 17.7) (5.5 17.7) (5.6 5.3) (5.7 17) (5.8 11) (5.8 4.1) (6 19.2) (6.2 13.8) (6.3 16.5) (6.3 6.9) (6.4 6.5) (6.4 17.8) (6.5 17) (6.6 8.1) (6.6 13.9) (6.7 5.1) (6.7 9.6) (6.9 10.7) (7 5.3) (7.3 11.7) (7.4 18.2) (7.4 8) (7.5 7.7) (7.5 7.6) (7.7 16.6) (7.8 8) (7.8 9.3) (8.1 17) (8.2 19.7) (8.3 5.8) (8.4 13.9) (8.4 4.5) (8.5 17.9) (8.6 19.6) (8.6 8.3) (8.7 5.7) (8.8 18.5) (9 6.2) (9 16.3) (9 17.3) (9 19.8) (9.2 18.2) (9.2 14.4) (9.3 12.3) (9.4 13.9) (9.6 6.8) (9.8 13) (9.8 5.4) (10 17.4) (10 16.9) (10.1 10.3) (10.1 8.8) (10.2 16.9) (10.4 9.7) (10.4 19.3) (10.4 4.6) (10.5 10.8) (10.6 6.8) (10.6 15.2) (10.7 13.2) (10.9 6.6) (10.9 4.2) (11.1 18.6) (11.2 17.6) (11.3 14.3) (11.3 7.6) (11.3 16.2) (11.3 18.3) 
0 3 5 8 10 12 13 14 16 18 20 20 22 23 24 24 27 27 28 31 34 37 37 39 43 46 46 46 48 50 51 54 55 56 60 63 64 65 65 66 68 71 74 75 77 81 82 (1.3 16.4) (1.3 14.3) (1.3 2.9) (1.4 18.7) (1.4 13.5) (1.5 5.9) (1.5 19.7) (1.5 5.8) (1.6 13.3) (1.6 3.8) (1.7 7.8) (1.7 17.9) (1.8 11.7) (1.9 2.2) (2 18.2) (2 18.9) (2.1 4.3) (2.1 11.3) (2.2 17.8) (2.2 2.5) (2.4 5.1) (2.4 12.6) (2.5 6.6) (2.6 15.8) (2.8 9.1) (2.8 11.7) (2.8 18.9) (3 10.9) (3.1 12.7) (3.1 5.4) (3.1 4.3) (3.2 1.7) (3.2 16.1) (3.2 6.7) (3.3 9.3) (3.3 13.6) (3.3 1.6) (3.5 9) (3.5 12.9) (3.6 17.7) (3.6 13.9) (3.6 2.3) (3.6 10.9) (3.7 6.9) (3.7 15.6) (3.7 2.6) (4 7.5) (4 11.9) (4.1 17.1) (4.1 2.2) (4.2 18) (4.3 18.4) (4.3 17) (4.3 17.2) (4.4 10.4) (4.5 14.5) (4.6 7.5) (4.6 2.4) (4.6 7.6) (4.6 18.9) (4.7 8.8) (4.7 14.6) (4.7 13.6) (4.8 5) (4.9 8) (5.1 4.3) (5.2 1.6) (5.2 4.2) (5.3 14.3) (5.3 2.1) (5.3 8.1) (5.4 8.5) (5.4 5.5) (5.4 4.9) (5.5 17.6) (5.6 7.1) (5.6 17) (5.7 4.8) (5.7 12.3) (5.7 17.5) (5.7 13.4) (5.8 12.8) (5.9 6.6) 
0 1 1 4 8 10 11 12 13 14 15 15 18 18 20 21 22 24 25 26 26 27 29 31 33 37 37 38 40 42 44 45 46 46 47 50 53 53 55 57 58 58 58 58 58 60 62 63 64 66 66 66 66 71 71 72 74 77 79 81 (0.1 15.1) (0.3 9.1) (0.3 7.7) (0.3 4) (0.4 15) (0.4 17.2) (0.4 3) (0.4 5.8) (0.5 10.5) (0.5 13) (0.6 15.1) (0.7 19.1) (0.8 6.7) (0.9 0.1) (1 4.6) (1.2 6.5) (1.2 5.3) (1.2 16.4) (1.4 17.9) (1.4 16.9) (1.5 7.2) (1.6 18.6) (1.7 4.9) (1.7 3.1) (1.8 14.6) (1.9 19.4) (2.1 11.9) (2.2 8.3) (2.2 3.8) (2.3 18.5) (2.3 1.3) (2.4 3.2) (2.4 10.3) (2.5 4.2) (2.5 3) (2.5 19.2) (2.5 12.6) (2.7 10.4) (2.8 5.3) (2.8 7.8) (2.9 12.2) (2.9 11.7) (3 12.2) (3 8.2) (3.1 14.2) (3.2 8.6) (3.4 8.7) (3.5 10.6) (3.5 5.1) (3.5 13.4) (3.6 9.2) (3.6 16.8) (3.6 8) (3.8 14.5) (3.8 5.9) (3.9 4.4) (3.9 8) (4 13.9) (4.5 1.1) (4.5 3.1) (4.6 11.3) (4.6 10.5) (4.7 9.4) (4.8 19.5) (4.9 12.3) (4.9 6.7) (5.3 7.9) (5.3 13.3) (5.3 19.8) (5.3 17.8) (5.3 13) (5.5 1.1) (5.6 10.2) (5.6 18.9) (5.7 10.6) (5.7 14.1) (5.7 10.2) (5.8 0.4) (5.8 7.9) (5.9 7.1) (5.9 5.1) (6 17) (6 0.5) (6 6.9) (6 7.3) 
0 3 3 3 4 4 5 5 6 8 9 9 10 14 14 15 15 15 15 16 16 17 18 18 20 21 22 23 25 25 25 25 25 26 28 28 30 30 31 32 32 33 33 33 33 34 34 34 36 38 39 41 42 42 43 43 44 46 46 47 48 48 49 49 51 53 53 54 55 56 60 60 61 62 65 65 67 68 70 71 73 74 76 77 79 82 82 84 84 84 (3.5 12.5) (3.5 8.8) (3.5 4.1) (3.8 15) (4 9.9) (4.2 19.9) (4.3 14.3) (4.3 14.5) (4.4 8.3) (4.6 6.1) (4.7 18.6) (4.7 6.5) (4.7 12.9) (4.7 9.4) (4.9 9.5) (5.3 7.4) (5.5 11.8) (5.6 10.6) (5.8 15.8) (5.8 18.7) (5.9 17.3) (6 7.4) (6.1 16.2) (6.2 16.3) (6.2 17.1) (6.7 11.7) (6.8 11.4) (6.8 15.5) (7 8.8) (7 11.1) (7.2 6.1) (7.3 14.3) (7.5 7.4) (7.9 5.9) (8.2 13.3) (8.2 18.9) (8.3 14.8) (8.3 10.5) (8.4 8.2) (8.5 3.6) (8.5 6.7) (8.6 9) (8.8 11) (9 17.6) (9.1 12.9) (9.1 4.9) (9.3 13.2) (9.4 19.4) (9.6 17.6) (9.8 9.3) (9.8 18.5) (9.9 12.9) (9.9 11.9) (10.1 13.1) (10.2 6.2) (10.3 16.3) (10.4 18.1) (10.4 11.5) (10.4 19.1) (10.4 10.1) (10.6 18.5) (10.7 11.6) (10.8 13) (10.8 8.7) (10.8 8.4) (11 4.9) (11 18.9) (11.1 4.4) (11.2 6.5) (11.2 17.8) (11.3 17.4) (11.4 19.7) (11.4 19.1) (11.5 12.8) (11.6 17.8) (11.6 17.2) (11.7 19.5) (11.8 19.2) (11.8 18.1) (11.9 5.4) (11.9 3.4) (11.9 7.5) (12.1 8.9) (12.1 10.1) (12.4 10.9) (12.4 12.9) 
0 2 8 14 18 22 26 30 33 37 40 43 48 51 52 55 57 59 65 70 75 78 83 86 (3.2 13.2) (3.2 10.5) (3.3 13.4) (3.3 6.5) (3.3 13.1) (3.3 7) (3.3 15.2) (3.3 17.6) (3.4 7.9) (3.4 9.7) (3.4 9.5) (3.4 14.3) (3.4 14.5) (3.4 17.4) (3.5 15.6) (3.5 6.5) (3.5 14.1) (3.5 17.3) (3.6 11.9) (3.6 19.2) (3.6 6.9) (3.6 15.3) (3.7 4.1) (3.7 15) (3.7 18.7) (3.7 3.8) (3.8 5) (3.8 11.3) (3.8 10) (3.8 10.4) (3.9 7) (3.9 17.7) (3.9 9.8) (4 14.3) (4 14.3) (4 16.2) (4 8.4) (4.1 9) (4.1 7) (4.1 15.1) (4.2 9.2) (4.2 16.8) (4.2 6.4) (4.3 16.2) (4.3 19.8) (4.3 3.3) (4.3 16.7) (4.3 13.7) (4.4 9.8) (4.4 8.4) (4.4 18) (4.5 11.3) (4.6 16.6) (4.6 10) (4.6 13.6) (4.7 15.3) (4.7 13.9) (4.8 7.5) (4.8 11.4) (4.9 10.5) (4.9 15.9) (4.9 10.8) (4.9 12.6) (4.9 8.7) (4.9 5) (5 12.2) (5 7.4) (5 15.9) (5 17.7) (5 7.8) (5.1 6.8) (5.1 15.5) (5.1 4.2) (5.1 5.9) (5.1 11.9) (5.2 15.2) (5.2 14.6) (5.2 18.8) (5.3 8.6) (5.3 14.8) (5.3 4.6) (5.3 7.2) (5.3 7) (5.4 14.6) (5.4 9.7) (5.4 17.8) (5.5 13.1) 
0 6 24 29 39 51 64 73 80 (7 14) (7 7.9) (7 10) (7 17.9) (7 11.3) (7 13.7) (7.1 10.7) (7.1 7.7) (7.1 17) (7.1 19.1) (7.1 11.9) (7.1 10) (7.1 17.8) (7.1 13) (7.1 14.9) (7.1 8.4) (7.1 10.4) (7.1 11.9) (7.1 9.5) (7.1 12.7) (7.1 11.8) (7.1 12.5) (7.1 16.6) (7.1 10.9) (7.2 17.7) (7.2 13.9) (7.2 13.6) (7.2 14) (7.2 16.3) (7.3 11.1) (7.3 9.3) (7.3 16.5) (7.3 19.8) (7.3 9.6) (7.3 18.9) (7.3 14.9) (7.3 19.3) (7.3 11.4) (7.3 16.7) (7.4 13.8) (7.4 11.7) (7.4 14) (7.4 10.2) (7.4 7.5) (7.4 17.8) (7.4 19.2) (7.4 15.6) (7.4 19.2) (7.4 16.1) (7.4 11.8) (7.4 13.9) (7.5 12.7) (7.5 19.2) (7.5 8.9) (7.5 16.4) (7.5 7.2) (7.5 7.6) (7.5 13.6) (7.5 9.5) (7.5 13) (7.5 18.6) (7.5 15.8) (7.5 10.6) (7.5 12.7) (7.6 10.6) (7.6 17) (7.6 12) (7.6 8.4) (7.6 13) (7.6 14.6) (7.6 15.8) (7.6 13.6) (7.6 11.3) (7.7 13.7) (7.7 7.9) (7.7 18) (7.7 16.5) (7.7 12.3) (7.7 9.1) (7.7 17.7) (7.8 12.3) (7.8 15) (7.8 19.4) (7.8 8) (7.8 9.4) (7.8 18.9) (7.8 7.4) (7.8 17.5) 
0 2 4 7 10 10 16 17 19 20 20 24 28 30 34 36 37 39 41 49 52 54 59 64 68 72 77 81 84 (2.3 13.6) (2.3 8.2) (2.4 5) (2.4 8.3) (2.5 11.9) (2.5 14.7) (2.5 15.3) (2.6 19) (2.6 17.1) (2.6 3.6) (2.8 14.9) (2.8 16.5) (2.8 10) (2.8 10.4) (2.8 14.3) (2.8 10.4) (2.9 19.5) (3 10.9) (3 16.4) (3.1 6) (3.3 12.6) (3.3 10.3) (3.3 10.2) (3.3 14) (3.4 3.9) (3.4 13.2) (3.4 7.9) (3.4 8.8) (3.5 6.1) (3.5 4.9) (3.6 17.5) (3.6 12.5) (3.6 12.7) (3.6 9.9) (3.7 6.6) (3.7 10.1) (3.8 9.5) (3.9 11.9) (3.9 14.2) (4 5.3) (4 12.3) (4.1 11.7) (4.1 9.8) (4.1 17.3) (4.1 11) (4.1 13.2) (4.1 7.9) (4.1 11.3) (4.1 10.6) (4.2 5.8) (4.2 8.4) (4.2 10.3) (4.3 8.9) (4.3 8) (4.4 12.7) (4.4 5.2) (4.4 3.5) (4.4 15) (4.4 18.7) (4.5 12.2) (4.5 17.5) (4.5 6.4) (4.5 18) (4.5 5.7) (4.6 17.4) (4.6 19.4) (4.6 3.4) (4.6 4.7) (4.7 16.4) (4.7 12.5) (4.7 11.1) (4.7 6) (4.8 2.4) (4.8 12.6) (4.8 15.8) (4.8 17.4) (4.8 3.7) (4.9 5.3) (4.9 3.5) (4.9 18.5) (4.9 12.2) (5 5.8) (5 3.4) (5 19.9) (5.1 7.3) (5.1 13.5) (5.1 14.3) (5.1 10.2) 
0 2 2 2 3 7 12 13 16 18 20 23 25 27 30 34 36 38 39 41 43 44 53 56 57 57 62 63 69 71 74 79 80 82 84 85 87 (8.9 14.8) (8.9 10.9) (9.2 9.3) (9.3 13.3) (9.3 17.4) (9.3 16.3) (9.3 12.4) (9.4 19.7) (9.4 13.1) (9.4 14.5) (9.4 17.1) (9.4 14.1) (9.5 16.6) (9.6 18.5) (9.6 19) (9.6 14.6) (9.7 16.1) (9.7 16.7) (9.8 16.7) (9.8 13.6) (9.9 18) (9.9 18.3) (9.9 17.9) (10 17.2) (10 17.4) (10.1 17.7) (10.1 14) (10.2 18.2) (10.2 13.9) (10.2 8.9) (10.3 9.7) (10.3 13.6) (10.3 19.7) (10.3 18.4) (10.4 9.6) (10.4 17.1) (10.5 9.6) (10.5 19.4) (10.6 16.4) (10.7 12.6) (10.7 10.8) (10.8 19.2) (10.8 12.7) (10.9 18.6) (11 9.4) (11 13.9) (11 15.9) (11 10.7) (11 18) (11 19.9) (11 13.5) (11 17.1) (11 16.5) (11.1 10.5) (11.1 12) (11.1 15.2) (11.2 15.9) (11.4 8.9) (11.4 13.6) (11.4 14.9) (11.4 13) (11.4 13.6) (11.5 10.6) (11.6 11.5) (11.6 14.7) (11.6 12.4) (11.6 19.6) (11.6 18.7) (11.6 17.5) (11.7 11.7) (11.7 16.1) (11.8 12.6) (11.8 10.7) (11.8 8.9) (11.9 15.2) (11.9 14.7) (11.9 11.2) (11.9 14.9) (11.9 15.5) (12 17.1) (12.1 9) (12.1 10.3) (12.2 13.9) (12.2 9.7) (12.3 11.6) (12.4 12.2) (12.4 17.8) (12.5 9.8) (12.5 18.6) 
0 6 22 34 41 54 66 76 (8.5 19) (8.5 13) (8.5 11) (8.5 10) (8.5 13.6) (8.5 18.9) (8.6 11.7) (8.6 14.5) (8.6 16.8) (8.6 16.5) (8.6 13.7) (8.6 18.1) (8.6 19.9) (8.6 10.5) (8.6 14.5) (8.6 19.1) (8.6 11.8) (8.6 13.9) (8.6 19.8) (8.6 14.9) (8.6 11.7) (8.6 19.8) (8.7 14.1) (8.7 15.8) (8.7 10.3) (8.7 8.5) (8.7 17.7) (8.7 18.4) (8.7 9.8) (8.7 16.9) (8.7 18) (8.7 10.6) (8.7 8.6) (8.7 9.9) (8.8 9) (8.8 9.6) (8.8 17.9) (8.8 12.4) (8.8 8.8) (8.8 9.1) (8.8 9) (8.9 18.2) (8.9 14.4) (8.9 11.1) (8.9 11.7) (8.9 14.1) (8.9 9.7) (8.9 18.1) (8.9 18.3) (8.9 11.2) (8.9 18.2) (8.9 11.2) (8.9 13.8) (8.9 17.3) (9 10.3) (9 14.7) (9 9) (9 11.7) (9 12.1) (9 12.8) (9 10.2) (9 19.1) (9 15.4) (9 13.6) (9 9.5) (9 12.4) (9.1 9.4) (9.1 9.4) (9.1 14.1) (9.1 9.6) (9.1 19.9) (9.1 13.4) (9.1 17) (9.1 16.5) (9.1 18.7) (9.1 15.5) (9.2 8.6) (9.2 16.8) (9.2 12.1) (9.2 16.6) (9.2 10.4) (9.2 15.3) (9.2 10.6) (9.2 8.8) (9.2 9.5) (9.2 14) (9.2 11.7) (9.2 16.8) (9.2 17.2) 
0 3 5 10 12 14 15 17 23 26 27 29 31 31 34 38 41 45 46 46 51 53 58 58 60 63 68 72 78 80 83 84 88 89 90 (2.9 8.7) (2.9 19.9) (2.9 16.1) (3 18.8) (3 11.2) (3.1 6) (3.1 13.5) (3.1 4.4) (3.1 4) (3.1 18.3) (3.2 6.9) (3.2 19.1) (3.3 4.9) (3.3 6) (3.4 12.3) (3.5 11.4) (3.5 11.3) (3.6 5.6) (3.6 10.7) (3.6 18.1) (3.6 14.3) (3.6 18.7) (3.6 19.8) (3.7 18.1) (3.7 3.7) (3.7 10.4) (3.8 8.7) (3.9 6.8) (3.9 14) (4 9.8) (4 2.9) (4.2 5.9) (4.2 8.8) (4.2 14.6) (4.3 16.7) (4.3 13.4) (4.3 5.6) (4.3 17.5) (4.4 10.3) (4.4 6.9) (4.4 5.7) (4.5 3.1) (4.5 18.5) (4.5 12.4) (4.5 12.1) (4.6 12.5) (4.8 14.4) (4.8 18.7) (4.8 4.9) (4.8 2.9) (4.8 9.5) (4.9 9.3) (4.9 4.7) (5 16.9) (5 18.7) (5 10.4) (5 3.2) (5 16.6) (5.2 13.1) (5.2 7.3) (5.3 9.5) (5.3 13) (5.3 18.6) (5.4 9.7) (5.4 9.7) (5.4 18) (5.4 8) (5.4 18.7) (5.5 4.6) (5.5 10.3) (5.5 6.2) (5.5 8.8) (5.6 14.8) (5.6 12) (5.6 3.3) (5.6 3.8) (5.6 18.8) (5.6 5.2) (5.7 11.6) (5.7 5.5) (5.8 11.3) (5.8 9.6) (5.8 13.1) (5.9 16.6) (6 14.2) (6 9.7) (6 18.9) (6 6.3) (6.1 13.1) (6.2 3) (6.3 10.5) (6.3 17.4) 
0 3 6 9 12 13 13 16 18 22 24 27 29 30 30 31 34 37 39 41 43 43 44 47 48 49 52 53 54 57 59 61 66 66 68 71 77 78 80 82 88 89 91 (5 16.9) (5 13.9) (5 16.2) (5.1 14) (5.1 18.9) (5.1 5.6) (5.2 17) (5.2 5.7) (5.2 19.8) (5.3 18.4) (5.3 15.8) (5.3 6.7) (5.4 14.9) (5.6 17.4) (5.6 16.3) (5.6 14.3) (5.7 19.2) (5.7 19.8) (5.8 17.5) (5.8 16.8) (5.8 18.4) (5.8 16) (5.9 7.2) (5.9 9.2) (6 13.6) (6 17.6) (6 17) (6.1 6.4) (6.1 18.9) (6.2 19.8) (6.4 7.7) (6.5 13.8) (6.5 5.5) (6.5 14.2) (6.6 5.3) (6.6 8.8) (6.6 19.6) (6.7 7.3) (6.7 14.6) (6.8 15.7) (6.8 14.5) (6.9 18.7) (6.9 15.2) (7.1 8.4) (7.2 8.9) (7.2 5.7) (7.2 7.4) (7.3 14.9) (7.4 5.3) (7.5 5.2) (7.5 13.8) (7.5 12.5) (7.6 12.9) (7.7 19.7) (7.8 6) (7.8 15.1) (7.8 15.4) (7.9 9.8) (7.9 12.4) (8 15.7) (8 14.1) (8.1 10.1) (8.1 14.6) (8.1 8) (8.1 9.8) (8.1 17.2) (8.3 6.3) (8.3 9.4) (8.4 9.4) (8.4 12.6) (8.4 15.9) (8.5 17.5) (8.5 7.3) (8.5 12) (8.5 14.8) (8.5 13.1) (8.5 6.9) (8.6 15) (8.7 7.9) (8.7 7.1) (8.8 13.6) (8.8 8.1) (8.9 15) (8.9 11.2) (8.9 19.3) (8.9 8.1) (8.9 16.8) (8.9 18.2) (9 19.7) (9.1 11.8) (9.1 5.1) (9.2 10.9) 
0 2 3 6 6 7 9 9 9 10 10 11 12 12 13 15 17 17 18 20 23 24 24 26 27 29 29 29 31 32 36 36 37 39 41 43 44 49 50 51 52 56 57 59 60 61 63 63 64 64 66 67 69 70 72 72 73 74 77 78 78 79 80 80 82 82 82 82 83 83 85 86 86 88 89 89 89 91 93 (6.4 12.9) (6.4 6.5) (6.5 16.5) (6.6 8) (6.6 13.9) (6.6 18) (6.8 19) (6.9 16.1) (6.9 17.1) (7.2 19.5) (7.4 10.2) (7.5 7) (7.7 12.4) (7.8 10.2) (7.8 18.6) (7.9 12) (7.9 17.9) (8.1 13.5) (8.2 10.1) (8.2 14) (8.3 15.8) (8.3 13.6) (8.3 16.1) (8.4 13.9) (8.6 12.9) (8.6 7.9) (8.7 7.1) (8.8 19.7) (8.8 16) (9.1 19.3) (9.1 7) (9.2 16.2) (9.3 15.6) (9.3 8.3) (9.3 12.8) (9.3 14.4) (9.5 17.1) (9.6 11.4) (9.6 17.8) (9.7 10.6) (9.7 12.3) (9.8 10.2) (9.8 8.4) (9.9 9.7) (10 11.2) (10 11.4) (10 14.8) (10 8.7) (10 13) (10.1 7.3) (10.2 6.7) (10.3 15) (10.4 8.9) (10.4 16.7) (10.4 14.7) (10.4 8) (10.5 15.5) (10.6 18.5) (10.6 11.3) (10.7 6.8) (10.8 13.3) (10.9 19.6) (10.9 11.9) (11.1 12.8) (11.3 11.5) (11.3 15.6) (11.4 11.1) (11.5 6.3) (11.5 7.3) (11.6 15.3) (11.7 19.7) (11.7 16.4) (11.9 10.4) (12 16.7) (12.1 8.3) (12.1 9.1) (12.1 14.3) (12.2 14.7) (12.4 14.1) (12.5 13.2) (12.7 18.2) (12.7 12.6) (13.1 10.7) (13.3 13.8) (13.3 8.7) (13.4 18.6) (13.6 19.5) (13.6 11.9) (13.7 9.6) (14 7.1) (14 18.5) (14.1 14.2) (14.1 13.4) (14.2 11.6) 
0 8 17 21 41 47 52 57 64 70 77 86 (2 18.1) (2 16.5) (2 17.3) (2 5.2) (2 3.5) (2 7.3) (2 11.4) (2 14.2) (2.1 12.8) (2.1 8.6) (2.1 15.3) (2.1 15) (2.1 7.1) (2.1 9.7) (2.1 7.8) (2.1 10.5) (2.1 8.5) (2.2 9.9) (2.2 12.2) (2.2 6) (2.2 9.6) (2.3 12.4) (2.3 8.7) (2.3 12.7) (2.3 3.6) (2.3 6.6) (2.3 18.7) (2.3 15.3) (2.3 17.9) (2.3 12.3) (2.3 5) (2.3 13.1) (2.3 16) (2.3 19) (2.3 16.3) (2.3 11.5) (2.3 6.5) (2.3 19.6) (2.3 15.7) (2.3 7.2) (2.3 8.2) (2.4 16.4) (2.4 14.2) (2.4 14.3) (2.4 8.8) (2.4 19.6) (2.4 16.6) (2.5 9.4) (2.5 8.6) (2.5 17) (2.5 8.1) (2.5 14.5) (2.6 7.7) (2.6 19.2) (2.6 15.7) (2.6 15.4) (2.6 14.3) (2.7 2.5) (2.7 18.2) (2.7 13.9) (2.7 13.2) (2.7 10.7) (2.7 19.5) (2.7 3.9) (2.8 3.3) (2.8 15.4) (2.8 4.8) (2.8 8.4) (2.8 2.6) (2.8 6.2) (2.9 9.8) (2.9 15.8) (2.9 19.4) (2.9 14.7) (2.9 12.3) (2.9 2.6) (2.9 7.8) (3 7.4) (3 15.9) (3 5.2) (3 6.7) (3 11) (3 3.5) (3 13.2) (3 2.1) (3 7.9) (3.1 9.4) (3.1 16.7) (3.1 18.7) (3.1 14.5) (3.1 14.7) (3.1 6.8) (3.1 19.2) (3.1 13.9) (3.1 10.4) 
0 7 16 26 34 39 50 61 67 77 85 91 (7.3 9.8) (7.3 10) (7.3 8.1) (7.3 9) (7.3 9.4) (7.3 9.1) (7.3 14.2) (7.4 12.6) (7.4 9.3) (7.4 10.6) (7.4 11.8) (7.4 11.8) (7.4 13.6) (7.4 13.9) (7.4 7.5) (7.4 9.4) (7.5 18.9) (7.5 12.7) (7.5 9.2) (7.5 11.2) (7.5 8.8) (7.5 14.6) (7.5 19.1) (7.5 10.4) (7.5 14.6) (7.5 9.8) (7.6 18.7) (7.6 17.3) (7.6 10.6) (7.6 15.7) (7.6 19.1) (7.6 18.1) (7.6 12.6) (7.6 19.3) (7.7 15.8) (7.7 8.6) (7.7 13.3) (7.7 19.2) (7.7 8.7) (7.8 9.3) (7.8 18) (7.8 12.1) (7.8 9.8) (7.8 18.9) (7.8 10) (7.8 9.2) (7.8 15.7) (7.8 12.3) (7.8 19.5) (7.8 16.5) (7.9 19.3) (7.9 12.1) (7.9 12.9) (7.9 9.1) (7.9 10.6) (7.9 13.1) (7.9 17.3) (7.9 10.2) (7.9 15.9) (7.9 16.7) (7.9 18.1) (8 11.6) (8 15.5) (8 16) (8 13.9) (8 18.4) (8 11.1) (8.1 18.2) (8.1 19.6) (8.1 9.2) (8.1 16.9) (8.1 10.2) (8.1 15.4) (8.1 17.8) (8.1 19.1) (8.1 14.7) (8.1 11.9) (8.2 11.9) (8.2 19.4) (8.2 19.7) (8.2 11.8) (8.2 19.1) (8.2 7.5) (8.2 9.8) (8.2 11.2) (8.3 19.9) (8.3 18.8) (8.3 7.4) (8.3 17) (8.3 9.1) (8.3 12.2) (8.4 18.9) (8.4 19.5) (8.4 17.6) (8.4 12.3) (8.4 16.2) 
0 3 4 4 4 5 8 10 12 14 14 15 18 18 19 20 22 24 25 25 27 29 29 32 33 34 36 36 37 39 40 41 42 42 44 47 48 49 49 49 51 53 56 58 61 62 63 65 67 68 71 72 74 76 77 78 79 79 81 81 84 85 85 88 88 90 93 93 95 (1.8 4.3) (1.8 6.7) (1.8 1.8) (1.9 10.3) (2.2 18.2) (2.3 14.2) (2.3 12.5) (2.3 17.4) (2.4 8.9) (2.4 8.3) (2.5 7.4) (2.5 3.6) (2.6 19.3) (2.6 5.9) (2.8 10.5) (2.9 2.6) (2.9 13.5) (2.9 15.7) (3.1 11.4) (3.2 15.5) (3.3 10.6) (3.3 14.9) (3.4 3.9) (3.4 11) (3.5 11.5) (3.7 12.2) (3.7 11.5) (3.8 4.6) (3.8 5.4) (4 16.7) (4 9.1) (4 2.4) (4.1 16.4) (4.2 11.4) (4.3 13.7) (4.3 19.4) (4.5 7.6) (4.6 17.3) (4.6 14.5) (4.7 3.4) (4.8 4.5) (4.9 17.1) (5.1 17) (5.1 6.8) (5.2 13.4) (5.2 7.5) (5.2 8.9) (5.3 14.3) (5.4 6.1) (5.7 5.8) (5.7 6) (5.8 15) (5.8 13.5) (5.9 1.8) (5.9 4.9) (5.9 8.6) (6 14.9) (6 1.9) (6.1 17) (6.1 3.7) (6.1 6.6) (6.2 12.7) (6.3 6.9) (6.4 8.7) (6.4 19.8) (6.5 16.5) (6.5 14) (6.6 10) (6.7 18.9) (6.7 19.3) (6.7 13.4) (6.8 7.3) (6.9 15.5) (6.9 7.6) (7 4.1) (7 3.7) (7.1 4.6) (7.2 3.2) (7.3 10.3) (7.5 15.7) (7.5 17.7) (7.7 3.4) (7.7 6.2) (7.7 18.9) (7.8 18) (8 11.9) (8 2.2) (8 14.8) (8.2 8.9) (8.2 19.5) (8.3 19.8) (8.3 18.3) (8.3 4.2) (8.5 19.9) (8.5 4.7) (8.6 18.7) (8.6 12.9) 
0 3 4 4 6 6 6 6 8 9 9 10 10 11 12 14 15 17 18 19 20 20 20 23 24 25 28 28 28 30 32 35 36 36 37 37 38 39 39 40 41 41 42 42 43 46 46 48 50 54 55 56 59 60 61 63 65 65 68 69 69 70 70 70 72 72 73 73 75 76 77 77 78 79 80 81 81 82 83 85 85 86 86 87 87 87 87 88 88 88 90 91 92 92 93 94 (1.2 8.7) (1.2 16.9) (1.2 11.6) (1.3 15.2) (1.5 19.6) (1.5 16.1) (1.9 19.8) (1.9 13.5) (2 2.8) (2.2 7.4) (2.4 2.8) (2.5 12.5) (2.6 3.7) (2.6 2.3) (2.7 5.1) (2.8 8.9) (2.8 16.5) (2.9 9.5) (3 11.9) (3.1 19.7) (3.4 5.3) (3.4 11.7) (3.4 19.6) (3.5 10.6) (3.6 11.5) (3.7 15.4) (3.7 16.8) (3.7 5.2) (4 9.8) (4 17.6) (4.1 4.4) (4.1 1.9) (4.2 3.4) (4.2 19.8) (4.2 11.7) (4.3 6) (4.5 13.6) (4.7 12.7) (4.8 19.6) (5 16.8) (5.1 1.8) (5.3 1.2) (5.5 19.8) (5.6 3.1) (5.6 15.9) (5.6 15.4) (5.8 7) (5.8 6.7) (5.9 6.7) (5.9 9.2) (6 17.3) (6 7.1) (6 16.4) (6 10.5) (6.1 19) (6.2 4.9) (6.3 2) (6.3 9.3) (6.3 16.8) (6.4 18) (6.5 3.6) (6.6 4.2) (6.6 1.9) (6.7 4.5) (6.7 4.8) (6.9 4.2) (6.9 16.1) (6.9 7) (7 1.2) (7.2 13) (7.5 15) (7.5 13.2) (7.7 2.9) (7.9 4.3) (7.9 16.7) (8 2) (8.1 3.4) (8.3 4.5) (8.4 19.5) (8.5 8.4) (8.6 10.2) (8.8 13.7) (8.9 5.8) (9 16.3) (9 2.9) (9.2 8.9) (9.4 8.4) (9.8 11.6) (10.1 4.3) (10.1 12) (10.2 19.9) (10.3 2.3) (10.5 9.5) (10.6 17.9) (10.7 15) (10.7 13.5) (10.7 16.3) 
0 1 2 2 6 7 7 8 9 9 10 11 11 14 14 15 16 17 17 17 20 25 28 31 31 33 36 40 41 44 47 48 49 49 49 52 53 55 56 58 58 58 60 62 62 64 67 68 69 70 72 74 76 76 78 78 78 79 80 83 84 89 91 91 92 93 96 (7.1 8.1) (7.2 14.3) (7.4 18.6) (7.4 9.1) (7.4 19.3) (7.4 12.6) (7.5 11.6) (7.7 13.8) (7.8 12.6) (8 17.9) (8.1 7.9) (8.3 16.2) (8.3 17.7) (8.3 11.4) (8.5 12) (8.6 11) (8.7 8.1) (9 17.4) (9 11.5) (9 8.5) (9.1 10.1) (9.1 8.7) (9.1 13.7) (9.1 10.8) (9.1 19.2) (9.2 11) (9.2 8.2) (9.2 12.6) (9.3 16.6) (9.3 15.4) (9.3 18.5) (9.5 17.7) (9.5 14.5) (9.6 16.4) (9.6 12.2) (9.6 8) (9.7 13.6) (9.7 13.4) (9.7 10.3) (9.7 9.8) (9.8 14) (9.9 16.5) (9.9 7.3) (9.9 17.8) (10 19.6) (10 14.1) (10 9.3) (10.1 13.6) (10.2 14.1) (10.5 8.2) (10.5 18.7) (10.5 16.1) (10.6 9.1) (10.7 10.1) (10.7 19.1) (10.8 15.8) (10.9 14.4) (10.9 16.6) (11.2 10) (11.2 17.8) (11.3 15.5) (11.3 16.2) (11.5 19.2) (11.5 18.8) (11.6 9.5) (11.6 8.5) (11.6 11.1) (11.7 7.1) (11.8 10.2) (11.9 10.6) (12 18.4) (12 9.5) (12.1 19.5) (12.1 7.7) (12.2 17.7) (12.2 13.3) (12.4 15.7) (12.4 14.2) (12.7 12.8) (12.8 7.6) (12.9 8.4) (12.9 16.1) (12.9 16) (13 11.3) (13.1 16.3) (13.1 13.3) (13.1 19.4) (13.1 15.3) (13.1 14.8) (13.2 17.8) (13.2 10.1) (13.4 14.6) (13.5 11.2) (13.6 8.2) (13.6 10.7) (13.6 18.5) (13.7 9.5) (13.7 19.7) 
0 3 5 9 9 11 12 16 18 19 21 22 22 26 28 32 33 36 38 40 42 45 45 46 48 50 52 53 55 56 58 61 61 64 65 69 71 72 72 74 76 82 83 83 84 85 89 91 92 94 97 (3 9.3) (3 17) (3 18.3) (3.1 12.3) (3.1 8.4) (3.2 10.3) (3.2 7.2) (3.2 13.2) (3.2 17) (3.4 8.5) (3.4 9.3) (3.5 12.5) (3.6 4.3) (3.6 7.5) (3.6 12) (3.6 4.8) (3.7 9.7) (3.7 3.4) (3.8 17.9) (3.9 3.8) (3.9 12.2) (4 11.7) (4.2 18.3) (4.2 11.3) (4.2 11.9) (4.2 16.1) (4.3 5.1) (4.3 3.4) (4.4 8.3) (4.4 11.8) (4.4 7.7) (4.4 3.7) (4.5 16.4) (4.6 9.7) (4.6 3.5) (4.6 19.7) (4.7 6.6) (4.7 10.8) (4.8 4.8) (4.8 11.8) (4.9 19.9) (4.9 15.4) (5 11.2) (5 10.6) (5 18.9) (5.2 7.3) (5.3 3.9) (5.3 3.1) (5.4 15.1) (5.4 17.8) (5.5 18.8) (5.5 18.6) (5.6 11.6) (5.7 13.5) (5.7 3.9) (5.8 16.5) (5.9 6.6) (5.9 11.4) (6 15.8) (6 6.7) (6 17.2) (6.2 4) (6.2 15.6) (6.2 18.1) (6.3 8.9) (6.4 7.5) (6.4 12.5) (6.4 6.9) (6.4 16.9) (6.5 13.1) (6.5 19.2) (6.6 12.1) (6.8 11.1) (6.8 11.2) (6.9 7.4) (6.9 16.1) (7 3.8) (7 19.2) (7 12.4) (7 6.8) (7 11.7) (7 8.2) (7.1 13.5) (7.3 3.2) (7.4 19.2) (7.5 11.1) (7.5 16.4) (7.5 5) (7.5 6.8) (7.6 16.3) (7.6 16.6) (7.7 12.9) (7.8 12.3) (7.8 13.2) (7.9 3.2) (7.9 3.1) (7.9 3.8) (8 17) (8 12.7) 
0 1 1 2 4 6 7 9 9 10 12 12 12 12 12 12 12 13 15 15 15 15 17 17 18 20 22 22 23 24 26 28 28 28 29 29 30 32 32 32 32 36 37 38 38 40 41 42 42 43 44 47 48 49 50 51 51 51 52 55 55 55 57 57 60 61 62 63 66 66 67 67 70 72 73 75 76 78 78 78 79 80 81 82 85 86 88 90 90 91 91 91 92 94 94 94 96 97 97 (1.6 7.6) (1.8 9) (1.9 13.3) (1.9 13) (2 17.5) (2 15.1) (2.1 19.3) (2.2 5.7) (2.2 11.9) (2.4 6.7) (2.5 16.2) (2.5 12.5) (3.2 17.1) (3.3 8.4) (3.3 12.5) (3.7 10.7) (3.7 6) (3.9 4.2) (4 12.3) (4 10.5) (4.1 11.4) (4.1 2.5) (4.3 19.9) (4.4 19) (4.5 17.7) (4.5 13.8) (4.6 19.5) (4.6 19) (4.9 2.2) (5.1 8.4) (5.2 13) (5.2 9.2) (5.6 13) (5.6 4.3) (5.6 7.3) (5.6 5.4) (5.7 7.8) (5.8 16.7) (6 11.3) (6 9.1) (6.1 18.6) (6.2 11.8) (6.4 2.1) (6.5 14.4) (6.6 19.4) (6.6 18.2) (6.6 12.5) (6.7 13.5) (6.8 18.1) (6.9 5.9) (7 14.1) (7.3 10.9) (7.4 16.6) (7.4 10.7) (7.4 14.8) (7.7 16) (7.7 7.3) (7.9 10.9) (7.9 9.9) (7.9 14.1) (8 10.8) (8.1 17.5) (8.2 7.2) (8.3 10.8) (8.3 15.7) (8.3 8.7) (8.5 2.9) (8.7 12.6) (8.7 9.3) (8.7 4.6) (8.8 13.8) (8.8 8) (8.9 18.3) (9 5.6) (9 3.5) (9.1 12.1) (9.2 18.3) (9.2 15) (9.5 13.2) (9.6 7) (9.7 3.4) (9.8 12.4) (9.9 19.7) (9.9 5.4) (9.9 14) (10 16.2) (10.1 2.2) (10.1 5.7) (10.2 15.5) (10.2 17.1) (10.4 7.3) (10.7 19.8) (10.8 12.4) (10.8 18.9) (11.1 3.5) (11.1 19.2) (11.2 14.9) (11.4 16.5) (11.4 17.4) 
0 1 3 7 15 18 19 22 29 30 31 35 36 40 46 49 53 55 59 65 67 70 77 81 84 87 88 95 (7.6 7.6) (7.7 11.2) (7.7 14) (7.8 10.8) (7.8 13.3) (7.8 16.8) (7.8 8.5) (7.9 11.4) (7.9 15.6) (7.9 18.6) (7.9 13.8) (7.9 12.7) (7.9 15.3) (7.9 18) (7.9 19.1) (8 9.8) (8 10) (8 19) (8.1 12.5) (8.2 15.5) (8.2 18.5) (8.2 16.5) (8.3 16.7) (8.3 13.6) (8.3 19.8) (8.3 19.8) (8.3 7.7) (8.3 16.5) (8.3 14.1) (8.4 11.7) (8.5 9.4) (8.6 12.4) (8.6 17) (8.6 14.7) (8.6 12.1) (8.7 18.7) (8.8 9.5) (8.8 13.1) (8.8 7.9) (8.8 17) (8.9 16.1) (8.9 7.6) (8.9 9.4) (8.9 11.2) (8.9 15.6) (8.9 17.6) (9 9.4) (9 8.6) (9 11.3) (9.1 19.2) (9.1 13.7) (9.1 18.4) (9.1 9.3) (9.2 10.4) (9.2 14.2) (9.3 11.4) (9.3 8.7) (9.3 19.1) (9.3 11.8) (9.4 18.6) (9.4 19.7) (9.4 8.6) (9.4 8.8) (9.4 7.7) (9.4 13.5) (9.5 18.7) (9.5 11.5) (9.6 7.9) (9.6 19.4) (9.6 8.1) (9.7 19.2) (9.7 19.7) (9.7 19.6) (9.7 19.8) (9.7 13.3) (9.7 19.4) (9.7 15.7) (9.8 14.3) (9.8 16.2) (9.8 8.2) (9.8 12.4) (9.9 18.9) (9.9 12.9) (9.9 12.5) (10 15.1) (10 17.8) (10 12.5) (10.1 11.6) (10.2 17.2) (10.2 19.1) (10.2 19.5) (10.2 18.8) (10.2 17.3) (10.2 18.5) (10.2 16.3) (10.3 14.7) (10.3 12) (10.3 8.6) (10.3 19) 
0 3 6 8 10 15 21 22 23 23 23 23 24 25 27 31 33 34 38 41 45 47 51 52 55 57 58 59 60 63 64 66 67 67 67 71 74 74 75 76 78 80 83 84 86 87 88 90 94 96 99 (4.7 13.3) (4.7 14.2) (4.7 8.7) (4.8 17.8) (4.8 13.1) (4.8 18.9) (4.9 17.6) (4.9 14.8) (5 16.2) (5 12.2) (5.1 13.4) (5.1 12.1) (5.1 12.5) (5.1 14.7) (5.1 6.4) (5.2 13) (5.2 10.7) (5.2 7.9) (5.2 8) (5.2 6.4) (5.2 19.4) (5.3 16) (5.4 14.3) (5.8 14) (5.9 8.2) (6 17.8) (6 4.7) (6.1 14.2) (6.1 5.3) (6.1 4.8) (6.1 5.7) (6.2 18.5) (6.2 5.5) (6.3 18) (6.4 16) (6.4 17.1) (6.4 8.2) (6.4 5) (6.5 11) (6.5 16.8) (6.5 19.6) (6.6 11.6) (6.6 5.2) (6.6 19.2) (6.6 19.8) (6.7 16.3) (6.7 18.1) (6.8 11) (6.8 13.4) (6.8 10.1) (6.8 9.4) (6.9 5.6) (7 6) (7 17.1) (7 17) (7.1 15.2) (7.1 13.9) (7.2 7.6) (7.3 15.4) (7.4 14.6) (7.5 14.7) (7.5 8.3) (7.5 14.1) (7.6 5.3) (7.7 12.7) (7.7 19.4) (7.8 15.3) (8.1 6.5) (8.1 12.3) (8.1 12.9) (8.1 7.1) (8.2 10.3) (8.2 17.9) (8.2 8.4) (8.4 9.1) (8.5 13.6) (8.6 14) (8.6 18.4) (8.7 12.3) (8.7 9.5) (8.8 11.1) (8.8 8.3) (8.8 13.4) (8.9 7.7) (9 17.7) (9 12.8) (9.1 17.5) (9.2 18.7) (9.3 5.5) (9.3 10.2) (9.4 14.2) (9.4 11.8) (9.4 18.9) (9.4 6.9) (9.5 16.9) (9.5 12.9) (9.6 16.4) (9.6 10.7) (9.6 14.3) (9.7 12.3) 
0 8 20 30 49 57 67 77 88 (6.8 11.1) (6.8 19.8) (6.8 11.7) (6.8 16.3) (6.8 8.3) (6.8 10.9) (6.8 19) (6.8 9.2) (6.9 17.8) (6.9 17.2) (6.9 19.7) (6.9 8.2) (6.9 17.9) (6.9 11.5) (6.9 7.9) (6.9 17.3) (6.9 12.1) (6.9 9.5) (6.9 8.5) (6.9 12.2) (7 19.5) (7 9.4) (7 16.6) (7 10.6) (7 11.2) (7 19.6) (7 17.7) (7 9.1) (7 15.5) (7 17.8) (7.1 16.5) (7.1 12) (7.1 14.7) (7.1 10.1) (7.1 14.5) (7.1 9.8) (7.1 15.5) (7.1 8.1) (7.1 12.3) (7.1 8.8) (7.1 7.4) (7.1 9.8) (7.1 13.9) (7.1 6.8) (7.1 9.5) (7.1 19.1) (7.1 7.9) (7.1 17.5) (7.1 9.7) (7.2 16.8) (7.2 8.5) (7.2 9.1) (7.2 11.5) (7.2 19) (7.2 15) (7.2 15.8) (7.2 11.9) (7.3 10.7) (7.3 12) (7.3 9.5) (7.3 17.7) (7.3 19.6) (7.3 14.8) (7.3 17) (7.3 11) (7.3 11.9) (7.3 14.8) (7.4 11.8) (7.4 19.3) (7.4 18.5) (7.4 17.8) (7.4 19.5) (7.4 15.2) (7.4 9.3) (7.4 17.9) (7.4 12.1) (7.4 11.2) (7.5 13.7) (7.5 9) (7.5 17.8) (7.5 7.6) (7.5 18.8) (7.5 15.5) (7.5 10.5) (7.5 14.1) (7.5 19.9) (7.5 16.4) (7.5 13.5) (7.6 10.2) (7.6 17.7) (7.6 14.6) (7.6 9.2) (7.6 19.2) (7.6 15.8) (7.6 11.1) (7.6 7.4) (7.6 12.3) (7.6 13.3) (7.6 18.2) (7.6 10.7) 
0 1 2 5 6 7 7 7 8 8 9 9 10 12 13 13 14 15 15 16 16 17 18 19 19 22 22 24 25 27 28 31 32 32 32 32 32 33 35 36 39 39 41 43 43 44 45 45 46 48 49 50 52 53 54 55 55 56 57 57 58 60 61 63 64 65 66 66 66 66 66 66 67 68 69 70 70 71 71 72 73 73 73 73 73 76 77 79 81 81 83 84 85 85 87 89 89 91 92 93 96 97 98 100 100 100 (7.5 10.3) (7.6 17.1) (7.7 11.8) (7.7 16.3) (7.7 18.3) (7.8 17.4) (7.9 7.7) (8.2 14.3) (8.4 18.6) (8.6 17.8) (8.7 8.3) (8.7 8.2) (8.8 16) (9 16.1) (9.1 8.5) (9.3 9) (9.5 14.6) (9.6 16.8) (9.7 13.5) (9.9 14.8) (9.9 10.1) (9.9 13.5) (10.1 16.5) (10.1 12.5) (10.2 8.4) (10.3 12.6) (10.3 13.4) (10.4 14.5) (10.5 9.3) (10.5 14.7) (10.5 11.1) (10.6 8.7) (11.1 9) (11.2 18.4) (11.2 18.7) (11.3 9.6) (11.4 13.6) (11.4 7.5) (11.4 19.6) (11.6 16.3) (11.6 19) (11.7 17.6) (11.7 11.6) (11.9 16.7) (12 7.6) (12.2 19.2) (12.3 10.6) (12.3 18.9) (12.4 12.9) (12.5 15) (12.6 9.1) (12.6 17) (12.7 9.5) (12.8 15.6) (12.9 10) (13.1 8) (13.2 10.3) (13.4 12.6) (13.5 17.8) (13.5 7.9) (13.6 19.8) (13.7 15.6) (13.7 11.9) (13.8 8) (13.9 9.9) (14 16.1) (14.6 12.2) (14.7 9) (14.8 17.2) (14.9 19.9) (15.1 9.8) (15.3 19.7) (15.4 15.4) (15.9 16.4) (15.9 9.1) (15.9 11.3) (16 9.6) (16.1 15.1) (16.1 11.2) (16.2 17.2) (16.2 16.6) (16.4 14.5) (16.4 17.8) (16.5 7.9) (16.6 11.2) (16.8 16.2) (16.8 13.2) (16.9 12.5) (16.9 8.7) (17.1 11.3) (17.1 12.7) (17.2 10.1) (17.3 18.2) (17.4 9.8) (17.4 10) (17.4 15.7) (17.5 10.2) (17.6 13.7) (17.7 11.4) (17.7 17.8) (18 10.7) 
0 1 6 14 21 27 32 36 42 48 53 59 65 71 75 84 87 92 97 99 (8 8.2) (8.1 14.7) (8.1 10.3) (8.1 13.5) (8.1 15.1) (8.1 8.9) (8.2 12.2) (8.2 17.2) (8.2 19.8) (8.2 9.5) (8.2 19.2) (8.2 18.4) (8.2 14.4) (8.2 19.2) (8.3 16.6) (8.3 17.2) (8.3 12.5) (8.3 15) (8.3 18.9) (8.3 10.9) (8.3 14.5) (8.4 11.2) (8.4 12.9) (8.4 13.3) (8.4 15) (8.4 13.9) (8.4 13.8) (8.5 11.1) (8.5 14.7) (8.5 19) (8.5 11.7) (8.5 17.4) (8.6 19.6) (8.6 15.2) (8.6 16.4) (8.6 16.8) (8.7 18) (8.7 19.7) (8.7 13.1) (8.7 19.8) (8.7 18.1) (8.7 17.2) (8.8 18.5) (8.8 13.7) (8.8 15.1) (8.8 12.5) (8.8 12.6) (8.8 16.6) (8.9 16.3) (8.9 13.1) (8.9 13.4) (8.9 19.8) (8.9 18.7) (9 19.6) (9 9.4) (9 8.6) (9 14.4) (9 9.5) (9 11.1) (9.1 17.8) (9.1 16.6) (9.1 19.9) (9.1 8.2) (9.1 15.4) (9.1 9.9) (9.2 19.1) (9.2 13.8) (9.2 19.3) (9.2 14.5) (9.2 11.4) (9.2 17) (9.3 18.3) (9.3 10.8) (9.3 18.3) (9.3 16.4) (9.4 13.6) (9.4 19.8) (9.4 14.1) (9.4 16.6) (9.4 10.4) (9.4 13.4) (9.4 19.3) (9.4 8.1) (9.4 10.1) (9.5 17.1) (9.5 16.7) (9.5 14.3) (9.6 16.2) (9.6 8.2) (9.6 14.7) (9.6 9.7) (9.6 10.7) (9.7 8.2) (9.7 17.4) (9.7 14.4) (9.7 18.6) (9.7 8.7) (9.8 17.6) (9.8 9.4) (9.9 12.3) (9.9 16.6) 
0 4 10 16 25 28 35 39 43 48 54 55 59 66 71 74 78 79 85 87 88 93 98 (6.8 7.2) (6.8 8.4) (6.8 17.2) (6.8 13.6) (6.9 18.1) (6.9 9.2) (6.9 14.7) (6.9 11.1) (6.9 13.4) (6.9 11.5) (7 7.9) (7 15.7) (7 15.6) (7 7.4) (7 7.3) (7 9.8) (7.1 14.7) (7.1 11.6) (7.1 15.6) (7.1 13.9) (7.1 9.2) (7.1 18.6) (7.1 11.9) (7.1 11.6) (7.1 15.7) (7.2 12.9) (7.2 19.8) (7.2 13.6) (7.3 13.2) (7.3 12.1) (7.3 15.1) (7.3 10.9) (7.3 8.5) (7.3 13.1) (7.3 17.5) (7.4 16) (7.4 11.9) (7.4 14.8) (7.4 10.2) (7.5 7.1) (7.5 10.4) (7.5 13.1) (7.5 16.6) (7.6 7.5) (7.6 10.6) (7.6 13.6) (7.6 17) (7.6 7.8) (7.7 7.3) (7.7 14.4) (7.7 19.4) (7.7 17) (7.7 13.2) (7.7 14.4) (7.8 19.7) (7.9 11.3) (7.9 7.3) (7.9 17.8) (7.9 13.5) (8 12) (8 11.5) (8 11.5) (8 10.7) (8 12.6) (8 7.4) (8 16.1) (8.1 7.4) (8.1 18.4) (8.1 10.8) (8.1 18.5) (8.1 16.8) (8.2 14.7) (8.2 18.3) (8.2 8.7) (8.3 13.4) (8.3 19.8) (8.3 18.2) (8.3 10.1) (8.4 9.8) (8.5 18.4) (8.5 17.1) (8.5 15.8) (8.5 18.1) (8.5 11.8) (8.5 15.8) (8.6 12) (8.6 12.7) (8.7 12.9) (8.8 16.6) (8.8 15.2) (8.8 18.8) (8.8 11.6) (8.8 15.7) (8.9 9.3) (8.9 9.4) (8.9 7.6) (8.9 11.6) (8.9 14.3) (9 9.9) (9 16.8) (9 8.1) (9 15) (9 11.5) 
0 5 8 12 15 19 20 24 28 31 39 43 49 51 54 59 66 72 77 80 87 90 93 98 100 (5.7 16.7) (5.7 5.9) (5.7 13.8) (5.7 13.7) (5.7 10.2) (5.8 8.3) (5.8 12.7) (5.8 18.7) (5.9 16.7) (5.9 7.4) (5.9 19.7) (5.9 12.9) (6 6.2) (6 18.1) (6 7.7) (6.1 18.4) (6.1 10.8) (6.1 7.5) (6.1 6) (6.2 19.4) (6.3 10.5) (6.3 10.9) (6.3 9.2) (6.3 17.2) (6.4 12.3) (6.4 9.1) (6.4 12.4) (6.4 16.4) (6.5 5.9) (6.5 10.3) (6.5 14.6) (6.6 13.7) (6.6 15.1) (6.6 11.1) (6.6 10.8) (6.6 8) (6.6 6.3) (6.6 8) (6.6 5.9) (6.7 8.6) (6.7 7.4) (6.7 7.6) (6.7 13.7) (6.8 11.1) (6.8 19.1) (6.8 14.9) (6.8 15.8) (6.8 9.1) (6.8 16) (6.9 14.5) (6.9 18.2) (7 13.1) (7 8.3) (7 6.1) (7.1 19.9) (7.1 14.4) (7.1 14.1) (7.1 17) (7.1 15.9) (7.2 8.9) (7.2 7.3) (7.2 7.5) (7.2 14.1) (7.2 13.4) (7.2 18.5) (7.2 5.8) (7.3 13.8) (7.3 5.7) (7.3 11.2) (7.3 10.2) (7.3 17.5) (7.3 14.2) (7.4 9.2) (7.4 10) (7.4 11.4) (7.4 19.1) (7.4 14.6) (7.5 15.9) (7.5 19.4) (7.5 6.6) (7.6 18.6) (7.6 13.7) (7.6 14.2) (7.6 17.3) (7.6 15.9) (7.6 16.6) (7.6 14.6) (7.7 10.2) (7.7 9.1) (7.7 18.4) (7.8 7.9) (7.8 18.2) (7.8 13) (7.9 16) (7.9 12.8) (7.9 10.8) (7.9 19.8) (7.9 13.6) (8 16.8) (8 6.6) (8.1 10.4) (8.1 14.5) (8.1 12.4) 
0 3 5 6 9 12 13 17 20 24 25 27 29 31 32 32 33 35 39 40 41 42 45 47 54 57 57 60 61 64 65 65 69 71 72 76 79 80 81 82 83 84 88 91 93 95 95 99 (1.2 1.3) (1.2 8.9) (1.2 5.4) (1.3 8.8) (1.3 15.8) (1.4 8.5) (1.5 4.6) (1.5 11) (1.5 13.4) (1.6 16.6) (1.6 8.3) (1.6 1.5) (1.7 1.4) (1.8 9.5) (1.8 8.1) (1.8 2.5) (1.8 5.9) (1.9 11.3) (1.9 5.4) (1.9 1.4) (2 10.9) (2 2.3) (2 5.4) (2 3.4) (2.1 16.3) (2.2 19.9) (2.2 18.8) (2.3 10.9) (2.3 6.5) (2.4 19.2) (2.4 9.2) (2.5 5.2) (2.7 5.7) (2.8 12.3) (2.8 19.8) (2.9 11.3) (2.9 13.8) (2.9 9) (2.9 3.5) (3 14.6) (3.1 9.7) (3.2 17.3) (3.3 18.4) (3.3 13.1) (3.3 12.7) (3.4 11.9) (3.4 4.7) (3.5 13.6) (3.5 18.1) (3.5 13) (3.5 4.5) (3.5 6.6) (3.5 17.2) (3.5 6.6) (3.6 19) (3.6 10.8) (3.6 2.4) (3.8 17.4) (3.8 2.3) (3.8 19.9) (3.9 16.5) (4 2.6) (4 17) (4 19.2) (4.1 7.5) (4.3 15.3) (4.3 3.3) (4.3 9.7) (4.3 17.6) (4.4 12.2) (4.4 12.1) (4.5 14.8) (4.6 14) (4.6 16) (4.6 1.2) (4.6 3.6) (4.7 19.1) (4.7 3) (4.7 1.6) (4.8 12.9) (4.9 5.6) (5 7.8) (5.1 3.7) (5.2 11.4) (5.3 9) (5.3 6.5) (5.3 3.8) (5.3 10.9) (5.4 2.5) (5.4 10.3) (5.4 1.9) (5.5 9.4) (5.5 18.4) (5.6 6.2) (5.6 3.4) (5.8 2.7) (5.8 10.7) (5.8 10.9) (5.8 1.8) (5.9 8.5) (5.9 9.9) (5.9 2.3) (5.9 10.8) 
0 1 1 1 2 3 3 7 9 9 10 11 11 12 14 15 16 16 18 18 20 22 23 24 25 27 29 30 30 31 34 34 34 38 41 41 42 42 42 42 42 42 43 45 47 50 53 54 54 54 56 56 56 56 57 59 60 60 62 63 64 64 64 65 67 67 69 69 70 71 72 74 74 74 75 75 75 75 75 75 76 78 79 79 80 80 81 82 82 83 83 86 87 88 89 91 92 94 98 98 99 100 101 102 (5.9 14.3) (6.2 17) (6.3 15.8) (6.5 8.2) (6.5 15.2) (6.5 11) (6.5 13.5) (6.6 11.3) (6.6 19.9) (6.8 16.2) (6.9 15) (7.1 11.6) (7.2 10.7) (7.2 17.9) (7.3 8.8) (7.4 9.4) (7.6 11.3) (7.6 13.5) (7.8 17.9) (7.8 18.7) (7.9 15) (7.9 11.7) (8 17.9) (8.1 10.7) (8.2 18.6) (8.3 12.8) (8.3 18.5) (8.4 9.7) (8.4 8.6) (8.5 7) (8.7 6.2) (8.8 15.1) (8.8 12.1) (8.8 11.4) (9.1 10.8) (9.1 13.7) (9.1 10.2) (9.1 12.4) (9.2 6.5) (9.2 8.3) (9.2 10.8) (9.4 9.1) (10 17.4) (10.1 14.5) (10.1 17.7) (10.2 9.1) (10.2 15.4) (10.3 14.3) (10.3 8) (10.3 16) (10.4 9) (10.4 13.1) (10.4 19.2) (10.5 9.8) (10.8 5.9) (10.8 11.3) (11.2 15.7) (11.3 17.6) (11.3 9.8) (11.4 13.8) (11.6 15.3) (11.6 13.4) (11.7 15.8) (11.8 8.8) (12.1 14.9) (12.2 11.4) (12.2 10.8) (12.4 19) (12.4 9.7) (12.6 6.8) (12.7 11.5) (12.8 6.6) (12.9 10.2) (12.9 13.6) (13.2 8.7) (13.8 17.2) (13.9 11.9) (13.9 18) (14 7) (14.2 18.7) (14.4 17.6) (14.5 14.5) (14.7 17.3) (14.9 12.1) (14.9 15) (14.9 11) (15 14.7) (15.1 10.5) (15.2 16.1) (15.3 6.1) (15.3 18.8) (15.4 6.3) (15.5 17.4) (15.5 19.6) (15.6 14.3) (15.6 13.4) (15.6 13.5) (15.6 7.3) (15.8 9.6) (15.9 17.9) (16 10.6) (16.1 17.9) (16.2 10.6) (16.2 17.4) 
0 18 43 60 78 94 (2.5 19) (2.5 4) (2.5 14) (2.5 16.6) (2.5 3.2) (2.5 7.9) (2.5 18.5) (2.5 6.2) (2.5 7.2) (2.5 5.1) (2.5 12) (2.5 3) (2.5 7.1) (2.5 17.2) (2.5 19.3) (2.5 6.8) (2.5 13.2) (2.5 15.8) (2.6 18.2) (2.6 3.8) (2.6 5.8) (2.6 19.9) (2.6 18.3) (2.6 9.9) (2.6 6.7) (2.6 13.2) (2.6 8.1) (2.6 6.3) (2.6 11.9) (2.6 13.1) (2.6 13.7) (2.6 6.1) (2.6 10.5) (2.6 8.4) (2.6 13.7) (2.6 9.7) (2.6 17.9) (2.6 6.3) (2.6 10.1) (2.6 3.4) (2.6 9.3) (2.6 8.2) (2.6 16.2) (2.7 6) (2.7 13) (2.7 6.3) (2.7 2.7) (2.7 14.2) (2.7 12.2) (2.7 12.3) (2.7 3.7) (2.7 16.2) (2.7 4.9) (2.7 6.1) (2.7 6.2) (2.7 7.6) (2.7 5.1) (2.7 6) (2.7 15.2) (2.7 12) (2.8 15.7) (2.8 11.8) (2.8 11.2) (2.8 10.5) (2.8 17.4) (2.8 8.6) (2.8 9.6) (2.8 17) (2.8 6.2) (2.8 5.6) (2.8 12.6) (2.8 13.9) (2.8 17.3) (2.8 7.4) (2.8 5.8) (2.8 15.1) (2.8 3.4) (2.8 14) (2.9 15.4) (2.9 18.9) (2.9 19.4) (2.9 2.8) (2.9 8.2) (2.9 17) (2.9 16.5) (2.9 2.5) (2.9 8.8) (2.9 11.7) (2.9 11.1) (2.9 16.5) (2.9 19.4) (2.9 19.2) (2.9 18.3) (2.9 17.8) (3 12) (3 12.9) (3 18.9) (3 15.3) (3 7.8) (3 9.4) (3 17) (3 13.7) (3 9.1) (3 15.7) (3 8.5) 
0 3 8 11 16 20 23 30 32 35 39 41 47 52 57 61 66 70 72 76 78 81 85 88 92 97 (8.2 12.1) (8.2 9.2) (8.2 8.4) (8.3 17.9) (8.3 9.9) (8.3 11.2) (8.3 13.3) (8.3 11.6) (8.4 10.8) (8.4 12.3) (8.4 12.8) (8.5 14.8) (8.5 15.7) (8.5 8.9) (8.5 10.5) (8.5 14.4) (8.6 12.7) (8.6 15.5) (8.6 17.2) (8.6 18.1) (8.7 18.2) (8.7 14.1) (8.7 18.9) (8.8 12.8) (8.8 10.6) (8.8 14.9) (8.8 14.2) (8.8 8.4) (8.8 18) (8.8 17.7) (8.9 9.3) (8.9 19) (9 10.5) (9 10.5) (9 19.9) (9.1 14.7) (9.1 18.3) (9.1 16.6) (9.1 8.4) (9.2 14.5) (9.2 9.3) (9.3 17.3) (9.3 14.6) (9.3 14.1) (9.3 10.9) (9.3 10.2) (9.3 12.4) (9.4 13.7) (9.4 11.1) (9.4 14.4) (9.4 9.2) (9.4 18.5) (9.5 8.9) (9.5 12.4) (9.5 14) (9.5 16) (9.5 16.3) (9.6 9.5) (9.6 16.9) (9.6 18.2) (9.6 14.6) (9.7 14.7) (9.7 9) (9.7 9.2) (9.7 15) (9.7 12.4) (9.8 18.6) (9.8 9.6) (9.8 13.8) (9.8 9.1) (9.9 8.9) (9.9 11.5) (10 12.6) (10 17.1) (10 8.5) (10 12) (10.1 8.9) (10.1 13.7) (10.2 11.9) (10.2 8.9) (10.2 16.7) (10.3 18.4) (10.3 18.1) (10.3 17.4) (10.3 16) (10.4 13.3) (10.4 14.8) (10.4 9.5) (10.5 19.9) (10.5 15.9) (10.5 12.2) (10.5 12.5) (10.6 14.5) (10.6 17.4) (10.6 11.6) (10.6 9.8) (10.6 9) (10.7 13.8) (10.7 8.9) (10.7 8.7) (10.7 9.2) (10.7 19.8) (10.7 18.4) (10.7 17.8) (10.7 16.5) (10.7 12.6) 
0 1 4 6 8 9 9 10 12 14 15 18 20 22 22 23 23 25 26 27 28 29 30 30 31 32 35 39 42 43 45 47 48 49 50 50 54 54 55 55 58 59 59 62 64 64 64 65 67 69 71 71 72 73 75 75 77 77 79 81 82 85 85 87 90 91 91 94 95 100 100 105 (3.8 12.5) (3.9 3.9) (3.9 3.8) (3.9 8.3) (4 5.6) (4 15.4) (4.1 7.2) (4.1 5.1) (4.2 6) (4.4 19.7) (4.5 7.5) (4.5 11.1) (4.6 13.4) (4.6 18.3) (4.7 15.8) (4.8 11.7) (4.8 12.3) (4.8 10.7) (4.9 13.1) (4.9 11.1) (5 17.4) (5 13.2) (5.2 11.3) (5.4 13.8) (5.4 13.3) (5.5 13.8) (5.6 15.2) (5.7 10.1) (5.8 5.9) (5.9 10.5) (6.1 13.4) (6.2 17.8) (6.3 9.3) (6.3 17.1) (6.3 7.2) (6.4 18.9) (6.4 18.7) (6.4 15.6) (6.4 14.4) (6.5 18.4) (6.5 17.7) (6.5 17.9) (6.6 12.3) (6.7 15.5) (6.7 18.2) (6.8 18.6) (6.8 19.2) (6.9 12.3) (7 8.1) (7.1 6.4) (7.3 18.1) (7.3 13.4) (7.3 7.2) (7.3 12.9) (7.5 14.6) (7.7 17.8) (7.7 16.8) (7.7 7.6) (7.8 14.1) (8 5) (8 14.8) (8 13.9) (8.1 6.9) (8.1 6) (8.4 8.7) (8.5 13.4) (8.5 19.8) (8.6 12.2) (8.6 10) (8.7 15.2) (8.7 8.2) (8.9 7.8) (9 11.9) (9.1 7.4) (9.1 4) (9.3 14.3) (9.3 16.7) (9.5 13.3) (9.5 17.3) (9.6 12) (9.6 4.1) (9.7 10.8) (9.8 16.6) (9.8 6.6) (9.8 11.2) (10 18) (10 11.8) (10.1 4.7) (10.1 14.5) (10.1 15.1) (10.2 16.2) (10.4 14) (10.4 15.1) (10.4 8.9) (10.5 19.6) (10.6 10) (10.6 8.3) (10.6 13.2) (10.6 15.4) (10.6 6.8) (10.8 11.8) (10.8 14.1) (10.8 11.1) (10.8 7.2) (10.8 11.1) (10.9 6.9) 
