33 p p p p o n j j h e a a 
26 1 1 1 1 1 1 1 1 0 0 0 0 
46 9.95 9.73 9.22 8.16 7.45 5.43 4.49 4.06 3.76 1.43 0.59 0.35 0.34 
51 92 76 63 40 34 32 28 24 22 21 19 17 10 8 
60 96 91 89 78 68 64 64 63 62 52 49 19 12 10 7 6 
60 94 83 78 78 76 76 75 68 41 33 23 21 12 6 1 1 
49 1 1 1 1 1 1 0 0 0 0 0 0 0 0 0 0 0 
60 t p o m l l k k k j j i f e d b a 
76 9.83 9.18 8.9 8.78 8.67 8.49 8.41 7.73 6.41 5.26 5.09 4.71 4.37 4.28 4.2 2.79 1.89 1.58 0.67 
85 98 94 85 84 77 68 60 60 56 56 53 46 45 45 42 36 27 27 14 1 
56 1 1 1 1 1 1 1 1 1 1 1 1 1 0 0 0 0 0 0 0 0 0 
95 98 95 86 83 80 69 63 57 55 52 51 47 44 44 36 27 26 22 20 20 17 5 5 
96 99 94 85 85 83 79 79 77 73 73 70 67 64 62 59 48 40 32 22 11 7 5 1 
108 99 98 97 89 89 85 79 75 73 73 67 60 54 52 51 39 38 33 26 20 15 15 12 5 
63 1 1 1 1 1 1 1 1 1 1 1 1 1 0 0 0 0 0 0 0 0 0 0 0 
118 t s r r r q p p p p o n n k k j i i h h g d c b b a 
136 s r q q p m m m l l l k j j i i h h h h e e e d d c b a a a 
132 9.85 8.68 8.06 7.71 7.55 7.31 7.05 6.83 6.36 6.28 6.07 5.81 5.79 5.72 5.58 5.53 4.76 4.41 4.33 3.89 2.95 2.6 2.09 2.09 1.93 0.85 0.65 0.55 0.35 0.34 
146 97 89 86 85 83 80 78 64 61 61 58 55 51 49 42 38 29 29 28 27 27 26 24 19 15 14 11 8 8 4 3 2 
159 99 95 93 92 69 68 67 63 62 61 60 56 52 49 44 42 41 34 33 29 26 26 24 23 23 20 20 19 18 8 5 5 3 
99 1 1 1 1 1 1 1 1 1 1 1 1 1 1 0 0 0 0 0 0 0 0 0 0 0 0 0 0 0 0 0 0 0 
164 9.45 8.64 8.11 8.03 7.81 6.78 6.67 6.66 6.38 6.14 6.02 6.01 5.27 5.27 4.97 4.95 4.84 4.22 4.1 3.68 3.61 3.53 3.53 3.47 2.8 2.78 2.78 2.7 2.35 2.32 1.68 1.34 0.87 0.13 
107 1 1 1 1 1 1 1 1 1 1 1 1 1 1 1 1 1 1 0 0 0 0 0 0 0 0 0 0 0 0 0 0 0 0 0 0 
177 9.55 9.42 9.42 8.86 8.82 8.27 8.1 7.83 7.59 7.22 6.71 6.64 6.49 6.13 5.98 5.93 5.21 5.02 4.5 4.32 4.31 3.99 3.97 3.41 3.25 3.25 3.16 2.94 2.9 2.81 2.05 1.63 1.39 0.83 0.67 0.62 0.17 
174 t t t t t s s r r r q q p n m m l l l j j i i i i h g g g g f e e d d c a a 
203 99 94 91 90 88 87 83 80 77 73 72 65 62 61 61 60 57 57 57 49 47 47 43 43 38 37 36 30 29 29 24 22 22 18 18 17 11 11 8 4 
207 t s s r q p p p p p o n n n l l l l k k k j i h h h g f f f e e e d d c c b b b a 
132 1 1 1 1 1 1 1 1 1 1 1 1 1 1 1 1 1 1 1 1 1 1 0 0 0 0 0 0 0 0 0 0 0 0 0 0 0 0 0 0 0 0 0 
144 1 1 1 1 1 1 1 1 1 1 1 1 1 1 1 1 1 1 0 0 0 0 0 0 0 0 0 0 0 0 0 0 0 0 0 0 0 0 0 0 0 0 0 
215 9.99 9.84 9.61 9.47 9.24 8.99 8.95 8.57 8.57 8.55 8.31 7.95 6.93 6.9 6.8 6.3 6.26 6.08 5.8 5.78 5.11 4.98 4.79 4.68 4.53 4.45 3.84 3.78 3.76 3.76 2.52 2.23 2.16 1.45 1.42 1.1 0.96 0.95 0.94 0.92 0.7 0.16 0.06 
208 t t t t t t s s s r r q q q o o o o o n n m m m m m l l k k j i h h g f e d d d c c b 
224 s r r p n n n n n n m m m m m l l l k k j j j j i h h h h g g g f f f e e d c c b b a a a 
236 9.89 9.73 9.63 9.58 9.5 9.29 9.19 9.09 9.03 8.55 8.5 8.43 8.38 8.31 8.18 8.13 7.93 7.88 7.84 6.99 6.94 6.5 6.44 6.12 6.03 5.54 5.44 4.9 4.76 4.73 3.97 3.7 3.62 3.41 2.98 2.94 2.88 2.69 2.57 2.2 2.03 2.01 1.77 1.7 0.75 
245 99 96 94 93 87 86 85 83 82 81 77 75 74 73 69 67 63 58 56 56 56 52 52 48 44 40 38 35 34 34 34 33 33 32 30 29 29 22 20 18 18 18 17 16 14 13 
235 93 93 90 90 88 85 83 82 78 76 74 73 71 70 70 68 63 62 60 60 58 57 56 56 50 46 46 45 42 37 29 29 25 21 20 20 16 15 14 9 8 7 5 5 2 2 
265 t t t s r r q q q q q o o o o n n m m m m k k k k j j j i i i i h h g f f f e e e e d d c c c b b a 
270 9.74 9.72 9.25 9.22 9.05 9.03 8.92 8.7 8.45 8.26 8.03 7.68 7.24 7.16 6.95 6.03 5.95 5.87 5.35 5.23 5.11 4.89 4.66 4.51 4.43 4.43 4.27 4.13 3.88 3.77 3.54 3.48 3.31 3.31 3.2 2.97 2.25 1.93 1.86 1.72 1.63 1.57 1.26 1.03 0.75 0.54 0.39 0.37 0.32 0.27 0.21 
291 99 98 96 96 94 92 90 89 87 85 85 81 79 78 71 69 67 64 64 61 60 56 51 49 47 45 44 42 40 38 37 35 33 33 33 32 30 29 26 20 19 17 17 16 14 12 12 10 9 6 4 3 
264 t t t t t t t t s s s s r r q q p p o o o o o n n n m m m m m l l l j j j j j i i i h h g e e d d c b b 
274 t t t s s s s s r q p p p p o o o m m l l k k k k j j j i i i h h h g g f f f f e e e d d d c c c c c b 
164 1 1 1 1 1 1 1 1 1 1 1 1 1 1 1 1 1 1 1 1 1 1 1 1 1 1 1 1 0 0 0 0 0 0 0 0 0 0 0 0 0 0 0 0 0 0 0 0 0 0 0 0 0 
291 99 88 86 86 83 81 80 80 80 80 75 72 71 70 68 68 67 67 64 60 56 53 52 50 50 48 47 47 46 42 38 37 36 36 35 34 33 27 24 21 20 18 16 15 13 13 12 12 11 6 6 5 3 1 
299 t t t t s s s r r r p p p p p p o o o o o n n n m m m m m l l l k j j i i g g g f f d d d d c c c c c b b a a 
300 99 98 95 93 92 91 91 88 83 82 79 78 78 75 72 70 68 68 64 62 62 58 58 57 56 52 47 45 44 43 43 43 40 37 35 34 32 31 30 30 29 28 27 25 24 19 16 11 11 11 10 8 6 4 1 
305 9.97 9.74 9.58 8.71 8.46 8.46 8 7.8 7.77 7.7 7.66 7.6 7.41 7.06 6.91 6.79 6.5 6.06 5.85 5.78 5.76 5.43 5.34 5.22 4.58 4.5 4.48 4.39 4.02 3.95 3.87 3.82 3.52 3.29 3.26 2.88 2.78 2.72 2.69 2.59 2.52 2.42 2.28 2.21 2.18 2.02 1.21 1.15 0.95 0.9 0.85 0.81 0.65 0.61 0.32 0.15 
203 1 1 1 1 1 1 1 1 1 1 1 1 1 1 1 1 1 1 1 1 1 1 1 1 1 0 0 0 0 0 0 0 0 0 0 0 0 0 0 0 0 0 0 0 0 0 0 0 0 0 0 0 0 0 0 0 0 0 
316 t t s r r r r r q p p p o o o o n n n m m l l l l l k k j j j i i i h g g g g g f f e e e d d d c c b b b b b b a a a 
181 1 1 1 1 1 1 1 1 1 1 1 1 1 1 1 1 1 1 1 1 1 1 1 1 1 1 0 0 0 0 0 0 0 0 0 0 0 0 0 0 0 0 0 0 0 0 0 0 0 0 0 0 0 0 0 0 0 0 0 
343 99 94 91 87 84 81 81 80 79 78 72 68 68 67 67 66 65 63 62 60 60 60 58 55 55 54 52 51 49 45 45 43 41 37 36 35 32 31 29 28 26 24 24 24 24 23 20 20 19 18 18 18 15 15 14 12 12 9 6 3 
319 t t t t t t s s r r r r q q p p p p p o n m m m l k j j j j i i i i i i i h h h h g g g g g g g f e e e d c c c c c b b a 
344 t t t t s s r r q q q q p p p o o o o o m m m l l l l j j i i i i i i h h g g g g f f f f f e e e d d d c c b b b a a a a a 
210 1 1 1 1 1 1 1 1 1 1 1 1 1 1 1 1 1 1 1 1 1 1 1 1 1 1 1 1 0 0 0 0 0 0 0 0 0 0 0 0 0 0 0 0 0 0 0 0 0 0 0 0 0 0 0 0 0 0 0 0 0 0 
347 t t s s s r r r r r q q q q p p n n n m m m l l l l l l k k k j j j j i h h h h h g g f f f f e e e e d d d d c c c c b b b a a 
386 9.99 9.86 9.53 9.48 9.23 8.98 8.95 8.71 8.66 8.47 8.35 8.15 8.07 7.84 7.54 7.41 7.26 7.25 7.07 7.06 6.97 6.96 6.55 6.5 6.39 6.37 6.23 5.84 5.72 5.66 5.47 5.45 5.25 5.18 4.83 4.82 4.62 4.51 4.46 4.41 4.33 4.18 4.15 3.9 3.76 3.61 3.24 3.17 2.83 2.77 2.69 2.62 2.27 2.12 2.05 1.96 1.74 1.43 1.24 1.1 0.82 0.8 0.62 0.56 0.36 0.28 0.18 
223 1 1 1 1 1 1 1 1 1 1 1 1 1 1 1 1 1 1 1 1 1 1 1 1 1 1 1 1 1 1 0 0 0 0 0 0 0 0 0 0 0 0 0 0 0 0 0 0 0 0 0 0 0 0 0 0 0 0 0 0 0 0 0 0 0 0 0 0 
215 1 1 1 1 1 1 1 1 1 1 1 1 1 1 1 1 1 1 1 1 1 1 1 1 1 1 1 1 1 1 1 1 1 1 1 1 1 1 1 0 0 0 0 0 0 0 0 0 0 0 0 0 0 0 0 0 0 0 0 0 0 0 0 0 0 0 0 0 
242 1 1 1 1 1 1 1 1 1 1 1 1 1 1 1 1 1 1 1 1 1 1 1 1 1 1 1 1 1 1 1 1 1 0 0 0 0 0 0 0 0 0 0 0 0 0 0 0 0 0 0 0 0 0 0 0 0 0 0 0 0 0 0 0 0 0 0 0 
400 9.94 9.89 9.66 9.61 9.55 9.46 9.4 9.13 8.55 8.19 8.16 8 7.99 7.79 7.69 7.45 7.27 7.25 7.23 7.08 7.01 6.92 6.72 6.54 6.38 6.08 5.92 5.68 5.6 5.49 5.38 5.32 5.07 5.04 4.98 4.69 4.68 4.65 4.59 4.36 4.15 4.13 4.02 3.79 3.26 3.15 3.01 2.65 2.62 2.53 2.49 2.06 1.93 1.84 1.44 1.35 1.34 1.22 0.94 0.64 0.58 0.55 0.5 0.38 0.35 0.28 0.17 0.07 0.04 
409 98 98 95 93 92 92 89 88 88 87 86 84 82 81 76 73 71 70 68 66 64 64 64 61 59 59 58 56 51 50 50 49 49 48 48 47 46 44 42 41 40 35 35 35 33 33 32 31 29 27 24 24 23 23 20 20 20 19 19 16 13 13 10 9 9 8 6 6 4 4 4 
254 1 1 1 1 1 1 1 1 1 1 1 1 1 1 1 1 1 1 1 1 1 1 1 1 1 1 1 1 1 1 1 1 1 1 1 1 1 0 0 0 0 0 0 0 0 0 0 0 0 0 0 0 0 0 0 0 0 0 0 0 0 0 0 0 0 0 0 0 0 0 0 0 0 
259 1 1 1 1 1 1 1 1 1 1 1 1 1 1 1 1 1 1 1 1 1 1 1 1 1 1 1 1 1 1 1 1 1 1 1 1 0 0 0 0 0 0 0 0 0 0 0 0 0 0 0 0 0 0 0 0 0 0 0 0 0 0 0 0 0 0 0 0 0 0 0 0 0 
412 t s s s r r r r q q q q q q q p p p o o o o n n n n n m m m l l l l k k k k j j j j i i i i h h h g g f f f f f e e e e e d d c c b b b b b a a a 
431 97 96 96 96 95 92 90 89 88 88 86 86 85 84 83 83 81 80 80 79 78 75 75 74 72 72 71 71 69 66 64 60 57 55 50 50 49 44 44 43 42 42 41 39 38 37 35 34 33 32 30 30 30 28 27 26 26 23 23 23 21 17 15 15 14 14 13 10 9 7 6 5 3 2 1 
447 9.88 9.84 9.81 9.81 9.7 9.63 9.48 9.44 9.24 9.16 9.16 8.99 8.98 8.96 8.9 8.85 8.71 8.53 8.17 8.07 8.02 7.95 7.72 7.45 7.4 7.36 6.74 6.53 6.28 6.23 6.05 5.77 5.77 5.67 5.66 5.66 5.5 5.49 5.49 5.29 5.26 5.03 4.98 4.71 4.49 4.46 4.4 3.62 3.6 3.38 2.92 2.91 2.85 2.8 2.35 2.34 2.28 2.22 2.22 2.16 2.09 1.9 1.89 1.83 1.66 1.54 1.38 1.38 0.97 0.88 0.74 0.6 0.27 0.21 0.18 
271 1 1 1 1 1 1 1 1 1 1 1 1 1 1 1 1 1 1 1 1 1 1 1 1 1 1 1 1 1 1 1 1 1 1 1 0 0 0 0 0 0 0 0 0 0 0 0 0 0 0 0 0 0 0 0 0 0 0 0 0 0 0 0 0 0 0 0 0 0 0 0 0 0 0 0 0 
456 98 97 97 97 93 92 91 90 90 89 88 88 88 87 83 81 81 80 77 77 77 76 74 73 73 71 68 68 67 67 67 66 62 60 60 59 59 55 53 50 48 46 42 39 37 35 34 34 32 32 31 31 30 28 27 26 26 25 21 19 18 18 15 14 13 12 11 11 10 10 10 8 7 6 4 3 1 
461 t t t t s s s r r q q q q p p p o o o o o o n n m m m m l l l l l l k k j j j j j i i i h h h g g g g g f f f f e e e d d d d c b b b b b b b a a a a a a a 
460 97 93 91 90 87 84 84 84 79 78 77 76 74 74 70 70 67 67 67 66 64 63 63 63 62 61 60 59 59 58 58 57 54 53 52 51 50 50 49 46 45 43 43 42 41 41 41 40 38 38 38 38 35 32 31 31 31 29 29 29 24 23 21 21 20 17 16 16 16 15 13 9 8 7 6 6 3 2 
480 99 99 97 97 97 97 97 96 88 86 82 82 81 79 77 76 74 72 72 71 69 67 66 66 65 64 63 63 59 56 54 53 52 49 48 47 46 45 44 44 43 42 40 38 38 36 34 33 33 32 31 31 31 30 30 26 26 24 22 21 20 19 19 19 18 17 16 13 12 12 11 9 9 6 3 3 3 3 2 1 1 
487 t t s s r r r r r q q p o o o n n n n n n m m m l l l l l l k k k k j j j i i i i h h g g g g g g g f f f f f f e e e e e d d d c c c c c b b b b b b a a a a a a a 
506 97 96 96 94 94 93 92 91 90 88 87 86 86 84 82 82 82 78 78 78 77 77 76 74 72 72 70 70 70 69 67 65 65 64 64 62 61 60 60 56 56 55 53 51 48 45 44 42 40 39 37 33 32 29 25 25 23 21 21 21 20 17 17 16 16 15 14 14 13 13 13 12 12 8 8 7 5 4 4 3 3 3 3 
513 95 94 94 93 93 92 91 89 88 87 86 85 85 85 84 80 79 79 78 76 75 75 73 73 73 72 72 71 68 68 64 64 63 60 58 57 56 54 51 50 50 50 49 47 47 47 47 46 43 42 39 39 39 37 36 34 31 29 29 27 26 26 19 19 18 17 17 16 15 14 12 12 11 11 10 10 8 7 6 5 4 3 1 1 
499 9.82 9.81 9.18 9.11 9.1 9.07 8.85 8.49 8.35 8.23 8.23 8.12 8.11 8.09 7.99 7.96 7.68 7.68 7.6 7.59 7.57 7.44 7.41 7.32 7.23 7.15 7.08 6.86 6.61 6.53 6.51 6.49 6.32 5.95 5.85 5.57 5.09 5.04 4.56 4.42 4.39 4.37 4.35 4.27 4.07 4 3.92 3.65 3.53 3.47 3.34 3.29 3.24 3.12 3.01 2.93 2.93 2.86 2.7 2.67 2.61 2.5 2.43 2.38 2.19 2.18 2.15 2.08 2.04 1.91 1.63 1.49 1.31 1.24 1.07 1.02 1.01 1 0.78 0.7 0.67 0.55 0.54 0.38 
518 99 99 98 98 93 91 90 89 88 86 84 84 83 82 81 79 78 77 77 77 76 76 75 75 74 71 69 67 64 63 63 61 61 60 60 58 58 56 55 55 54 53 52 52 43 43 43 39 38 37 37 37 37 35 34 34 34 33 31 31 30 28 26 23 22 22 21 21 18 15 15 14 13 12 10 7 7 7 6 5 5 4 3 3 2 
539 9.98 9.8 9.77 9.63 9.5 9.41 9.36 9.3 9.25 9.18 8.93 8.86 8.67 8.52 8.48 8.36 8.23 8.15 8.04 8.01 7.92 7.91 7.79 7.64 7.45 7.38 7.37 7.19 7.18 6.84 6.78 6.78 6.57 6.5 6.16 6.14 6.13 6.05 5.9 5.87 5.73 5.44 5.44 5.41 5.37 5.29 5.07 4.98 4.83 4.72 4.71 4.69 4.65 4.64 4.43 4.38 4.37 4.34 4.32 4.3 4.25 3.92 3.9 3.88 3.8 3.8 3.77 3.61 3.44 3.4 3.34 3.32 3.3 3.18 3.17 3.1 3.01 2.69 2.36 2.06 1.33 1.28 0.95 0.87 0.8 0.46 0.17 0.02 
322 1 1 1 1 1 1 1 1 1 1 1 1 1 1 1 1 1 1 1 1 1 1 1 1 1 1 1 1 1 1 1 1 1 1 1 1 1 1 1 1 1 1 0 0 0 0 0 0 0 0 0 0 0 0 0 0 0 0 0 0 0 0 0 0 0 0 0 0 0 0 0 0 0 0 0 0 0 0 0 0 0 0 0 0 0 0 0 0 
541 99 98 98 95 94 93 92 91 90 88 87 86 86 83 80 80 79 78 78 78 77 73 72 72 72 71 68 67 67 66 65 64 64 64 63 62 62 62 61 61 61 60 59 58 56 55 55 53 49 48 46 45 44 44 43 42 40 36 35 35 35 33 30 28 27 27 26 25 23 22 22 20 20 19 19 19 18 18 14 12 8 8 7 4 4 3 2 2 
552 96 95 93 92 91 88 88 87 87 86 85 81 80 79 78 78 78 77 77 75 75 74 74 70 69 68 68 67 66 65 63 63 61 59 59 58 58 58 55 53 52 51 51 51 49 47 47 45 44 43 43 43 43 40 39 39 36 36 36 35 35 34 32 29 28 28 26 26 26 24 24 21 21 17 16 15 14 13 11 10 9 9 8 6 6 4 4 3 1 
541 9.81 9.73 9.24 9.01 8.79 8.36 8.25 8.18 8.12 8.07 7.86 7.76 7.71 7.18 6.97 6.88 6.8 6.73 6.66 6.46 6.45 6.39 6.28 6.14 6.13 5.9 5.87 5.77 5.76 5.75 5.74 5.74 5.54 5.47 5.35 5.33 5.3 5.29 5.24 5.14 5.05 5.02 5 4.87 4.66 4.66 4.66 4.55 4.46 4.36 4.34 4.25 4.14 3.69 3.61 3.33 3.29 2.97 2.92 2.84 2.75 2.72 2.71 2.47 2.45 2.4 2.05 1.95 1.89 1.8 1.75 1.63 1.56 1.54 1.43 1.43 1.36 1.22 1.18 0.92 0.84 0.83 0.82 0.66 0.6 0.6 0.31 0.3 0.05 
304 1 1 1 1 1 1 1 1 1 1 1 1 1 1 1 1 1 1 1 1 1 1 1 1 1 1 1 1 1 1 1 1 1 1 1 1 1 1 1 1 1 1 1 1 1 1 1 0 0 0 0 0 0 0 0 0 0 0 0 0 0 0 0 0 0 0 0 0 0 0 0 0 0 0 0 0 0 0 0 0 0 0 0 0 0 0 0 0 0 0 0 
580 99 99 97 94 93 92 91 91 90 89 88 83 82 81 81 80 79 77 76 74 72 71 69 67 66 65 64 64 64 62 60 58 57 56 55 53 52 49 48 47 47 46 45 45 45 44 44 43 42 38 38 36 35 35 35 33 32 31 30 30 29 27 26 26 26 26 26 26 25 25 25 24 20 20 19 18 15 11 10 8 7 7 7 6 5 4 4 3 3 3 2 1 
600 t t t t t s s r r r r q q q q p p p o o n n n n n n n n n n m m m m l l l l l k k k k k k j j j j j j j j i i h h h h h h h g g g g g g f f e e e e e e e d d c c c c c b b b b a a a a a a a a 
578 t t t t t t s s r r r r r r q p p p p p p p p p p o o o o n n n n m m m m l l l l l l l l l k k k k j j i i i h h h h h g g g g f f f f f e e e e e e e e d d d d d c c c c c c b b a a a a a a 
606 9.95 9.81 9.79 9.76 9.72 9.45 9.43 9.18 9.1 9.01 8.85 8.65 8.62 8.52 8.49 8.09 7.83 7.56 7.49 7.4 7.36 7.32 7.09 7.04 7.04 6.8 6.66 6.51 6.51 6.4 6.4 6.3 6.26 6.17 6.13 5.68 5.67 5.42 5.33 5.33 5.32 5.23 5.13 5.13 4.95 4.94 4.85 4.72 4.71 4.65 4.64 4.61 4.61 4.55 4.5 4.43 4.23 4.1 3.94 3.87 3.81 3.68 3.67 3.6 3.54 3.49 3.47 3.4 3.19 3.08 3.02 2.99 2.8 2.77 2.77 2.75 2.57 2.5 2.31 2.15 1.84 1.79 1.75 1.72 1.68 1.52 1.52 1.32 1.24 1.21 1.13 1.03 1.02 0.15 0.13 0.07 
615 9.89 9.87 9.8 9.76 9.72 9.63 9.53 9.29 9.24 8.99 8.94 8.93 8.9 8.82 8.52 8.34 8.19 8.12 8.1 8.03 7.88 7.8 7.66 7.54 7.54 7.46 7.39 7.3 7.27 7.2 7.16 7.13 7.07 6.99 6.89 6.87 6.74 6.7 6.62 6.57 6.34 6.28 6.26 6.02 5.97 5.73 5.39 5.39 5.21 5.11 5.1 5.03 4.92 4.91 4.82 4.7 4.4 4.34 4.3 4.29 4.28 3.95 3.93 3.86 3.85 3.84 3.6 3.49 3.44 3.42 3.35 3.33 3.06 2.89 2.77 2.62 2.51 2.45 2.41 2.25 2.21 1.97 1.91 1.82 1.53 1.37 1.25 1.05 0.96 0.88 0.88 0.87 0.84 0.49 0.47 0.06 0.02 0.02 
326 1 1 1 1 1 1 1 1 1 1 1 1 1 1 1 1 1 1 1 1 1 1 1 1 1 1 1 1 1 1 1 1 1 1 1 1 1 1 1 1 1 1 1 1 1 1 1 1 1 1 1 1 1 0 0 0 0 0 0 0 0 0 0 0 0 0 0 0 0 0 0 0 0 0 0 0 0 0 0 0 0 0 0 0 0 0 0 0 0 0 0 0 0 0 0 0 0 0 
365 1 1 1 1 1 1 1 1 1 1 1 1 1 1 1 1 1 1 1 1 1 1 1 1 1 1 1 1 1 1 1 1 1 1 1 1 1 1 1 1 1 1 1 1 1 1 1 1 1 0 0 0 0 0 0 0 0 0 0 0 0 0 0 0 0 0 0 0 0 0 0 0 0 0 0 0 0 0 0 0 0 0 0 0 0 0 0 0 0 0 0 0 0 0 0 0 0 0 0 
629 9.97 9.9 9.73 9.7 9.54 9.32 9.21 9.17 9.14 9.1 9.09 9.06 8.9 8.87 8.81 8.8 8.56 8.54 8.39 8.23 8.08 7.99 7.9 7.77 7.76 7.5 7.43 7.42 7.4 7.39 7.37 7.33 7.24 7.2 6.93 6.85 6.54 6.52 6.29 6.16 6.1 5.98 5.66 5.63 5.59 5.57 5.46 5.16 5.09 4.79 4.74 4.72 4.7 4.65 4.45 4.43 4.39 4.07 3.84 3.82 3.71 3.66 3.33 3.33 3.31 3.29 3.27 3.13 3.12 3 2.72 2.62 2.53 2.38 2.28 2.22 2.15 1.97 1.93 1.86 1.72 1.72 1.68 1.54 1.54 1.48 1.41 1.38 1.11 1.01 0.82 0.74 0.59 0.51 0.46 0.38 0.31 0.22 0.08 0.07 
642 t t t t s s r r r r r r q q q q q p p p p p o o o o n n n m m m m m m m m m m m l l l l l k k k k k j j j i h h h h h g g g g g f f f f e e e e e e e e d d d d d d d d d c c c c c b b b b b a a a a a a 
357 1 1 1 1 1 1 1 1 1 1 1 1 1 1 1 1 1 1 1 1 1 1 1 1 1 1 1 1 1 1 1 1 1 1 1 1 1 1 1 1 1 1 1 1 1 1 1 1 1 1 1 0 0 0 0 0 0 0 0 0 0 0 0 0 0 0 0 0 0 0 0 0 0 0 0 0 0 0 0 0 0 0 0 0 0 0 0 0 0 0 0 0 0 0 0 0 0 0 0 0 0 0 
646 t t t t t t t t t s s s r r r r r r r q q q q q q q q q q p p o o o n n n n m m m m m l l l l l k k k k k j j j j j j j j j i i i h h h h g g g g f f f f f f e e e e d d d d c c c c c c c c c c b b b a a a a 
672 99 98 97 96 96 95 94 92 92 91 91 90 90 88 86 86 86 85 85 85 84 83 83 82 81 80 80 74 73 72 71 71 69 67 65 64 64 64 63 62 61 60 60 57 56 56 55 54 53 53 52 51 50 49 49 48 48 48 47 47 47 45 42 42 41 41 40 37 35 34 34 33 32 31 31 30 29 28 27 26 26 26 24 24 23 23 21 20 19 18 17 16 13 10 9 9 8 7 5 5 4 3 1 1 1 
398 1 1 1 1 1 1 1 1 1 1 1 1 1 1 1 1 1 1 1 1 1 1 1 1 1 1 1 1 1 1 1 1 1 1 1 1 1 1 1 1 1 1 1 1 1 1 1 1 1 1 0 0 0 0 0 0 0 0 0 0 0 0 0 0 0 0 0 0 0 0 0 0 0 0 0 0 0 0 0 0 0 0 0 0 0 0 0 0 0 0 0 0 0 0 0 0 0 0 0 0 0 0 0 0 0 0 
674 9.95 9.8 9.42 9.41 9.41 9.4 9.32 9.3 9.29 9.25 9.14 9.09 9.04 9.02 9 8.96 8.91 8.78 8.65 8.53 8.51 8.11 8.03 7.95 7.88 7.87 7.83 7.74 7.74 7.69 7.53 7.51 7.46 7.4 7.25 7.21 7.05 6.85 6.77 6.73 6.41 6.22 6.12 5.9 5.86 5.84 5.62 5.56 5.45 5.4 5.39 5.31 5.22 5.21 5.17 5.16 5.16 5.08 5.03 4.68 4.48 4.47 4.46 4.31 4.18 3.94 3.88 3.83 3.81 3.71 3.47 3.41 3.16 2.68 2.48 2.48 2.37 2.34 2.3 2.24 2.01 1.92 1.78 1.76 1.76 1.7 1.61 1.5 1.46 1.35 1.31 1.22 1.08 1.04 0.85 0.83 0.8 0.74 0.66 0.63 0.44 0.44 0.38 0.29 0.16 0.07 
385 1 1 1 1 1 1 1 1 1 1 1 1 1 1 1 1 1 1 1 1 1 1 1 1 1 1 1 1 1 1 1 1 1 1 1 1 1 1 1 1 1 1 1 1 1 1 1 1 1 1 1 1 1 1 0 0 0 0 0 0 0 0 0 0 0 0 0 0 0 0 0 0 0 0 0 0 0 0 0 0 0 0 0 0 0 0 0 0 0 0 0 0 0 0 0 0 0 0 0 0 0 0 0 0 0 0 0 
404 1 1 1 1 1 1 1 1 1 1 1 1 1 1 1 1 1 1 1 1 1 1 1 1 1 1 1 1 1 1 1 1 1 1 1 1 1 1 1 1 1 1 1 1 1 1 1 1 1 1 0 0 0 0 0 0 0 0 0 0 0 0 0 0 0 0 0 0 0 0 0 0 0 0 0 0 0 0 0 0 0 0 0 0 0 0 0 0 0 0 0 0 0 0 0 0 0 0 0 0 0 0 0 0 0 0 0 
698 99 98 96 93 93 92 92 91 91 90 90 90 89 89 86 83 83 81 81 80 79 79 79 74 74 73 71 68 66 66 66 65 63 62 62 61 60 59 58 57 57 56 56 56 55 54 53 52 51 50 50 49 47 45 45 44 44 43 42 41 41 41 39 38 37 36 35 32 32 32 31 30 29 29 28 27 26 26 25 25 23 22 22 22 20 19 18 18 17 17 15 14 13 13 12 12 12 11 9 8 8 7 5 4 3 2 2 2 
692 9.99 9.88 9.81 9.79 9.76 9.74 9.67 9.65 9.62 9.38 8.92 8.88 8.87 8.79 8.68 8.64 8.55 8.28 8.23 8.01 7.86 7.83 7.71 7.71 7.67 7.57 7.56 7.41 7.33 7.23 7.05 6.88 6.87 6.64 6.59 6.42 6.25 6.24 5.98 5.93 5.91 5.87 5.8 5.63 5.55 5.54 5.51 5.24 5.05 4.82 4.73 4.72 4.69 4.63 4.53 4.36 4.14 4.1 3.95 3.94 3.93 3.82 3.79 3.68 3.56 3.54 3.47 3.37 3.34 3.28 3.13 3.01 2.99 2.87 2.85 2.85 2.83 2.83 2.76 2.63 2.61 2.57 2.51 2.43 2.37 2.09 2.06 1.96 1.95 1.89 1.84 1.69 1.55 1.43 1.1 1.08 0.91 0.91 0.69 0.63 0.58 0.55 0.52 0.48 0.37 0.24 0.13 0.07 
700 99 98 98 97 95 94 93 93 90 90 90 89 89 88 87 87 84 84 83 80 80 77 76 75 74 73 73 71 71 69 66 66 66 66 63 62 61 60 60 59 59 59 53 52 50 49 49 48 47 47 46 46 45 43 43 43 42 42 42 42 42 41 39 38 37 37 34 34 34 31 31 31 29 29 28 28 27 26 24 24 23 22 21 21 19 19 17 17 16 16 15 14 13 11 8 7 7 7 6 6 6 6 6 5 4 4 4 3 
417 1 1 1 1 1 1 1 1 1 1 1 1 1 1 1 1 1 1 1 1 1 1 1 1 1 1 1 1 1 1 1 1 1 1 1 1 1 1 1 1 1 1 1 1 1 1 1 1 1 0 0 0 0 0 0 0 0 0 0 0 0 0 0 0 0 0 0 0 0 0 0 0 0 0 0 0 0 0 0 0 0 0 0 0 0 0 0 0 0 0 0 0 0 0 0 0 0 0 0 0 0 0 0 0 0 0 0 0 0 
