3
2
2
5
4
2
3
5
4
3
4
2
3
2
2
2
3
3
3
2
3
2
2
2
3
2
2
5
2
3
4
4
4
3
4
7
2
4
6
5
2
5
3
5
4
2
2
3
3
4
4
2
3
4
4
2
4
3
6
6
4
2
3
2
4
5
3
2
5
4
3
4
2
2
2
2
3
3
2
4
2
4
3
4
4
3
5
5
5
2
2
2
3
2
2
3
3
2
5
2
