0 1 1 1 2 2 2 3 3 3 3 5 5 5 5 5 5 5 6 6 8 8 8 9 9 3.2 3.5 3.8 4.2 4.2 4.9 5.1 5.1 5.4 5.6 
0 1 1 1 1 2 2 2 2 3 3 3 3 3 4 7 10 10 10 4.9 5.3 5.7 6.2 6.3 6.3 6.3 6.4 6.4 6.4 6.7 
0 4 0 0 0 0 1 1 1 1 1 1 1 
0 1 1 1 1 1 2 3 3 3 4 4 4 4 6 8 9 9 11 a f g j n n o o p r r s 
0 6 0 0 0 0 0 0 1 1 1 1 1 1 1 
0 4 0 0 0 0 1 1 1 1 1 1 1 1 1 
0 1 2 2 2 2 2 2 3 5 6 6 6 6 6 6 6 7 7 7 7 8 8 8 10 10 10 12 12 13 39 40 46 47 47 48 55 59 62 62 65 65 67 68 
0 2 2 3 3 4 4 4 4 4 5 7 9 9 12 12 13 13 13 14 a a c e j k k l l n n n p s t t 
0 1 2 3 3 3 3 4 5 6 7 7 10 12 12 12 13 16 16 a b c g h i j l l l m m p q q q s 
0 6 0 0 0 0 0 0 1 1 1 1 1 1 1 1 1 1 1 
0 2 3 3 3 4 5 5 6 7 8 8 8 8 8 10 10 10 11 11 13 15 16 18 18 18 19 19 6 6 7 10 11 13 14 15 20 20 23 25 25 26 26 27 28 28 31 33 33 
0 10 0 0 0 0 0 0 0 0 0 0 1 1 1 1 1 1 1 1 1 1 1 1 
0 2 2 4 5 5 6 7 8 10 10 10 11 11 11 13 13 13 13 15 16 18 18 20 21 21 22 22 23 24 15 15 17 17 18 20 21 22 23 23 26 29 29 33 33 34 35 35 37 37 38 40 42 43 44 
0 11 0 0 0 0 0 0 0 0 0 0 0 1 1 1 1 1 1 1 1 1 1 1 1 1 1 
0 1 2 2 3 6 7 7 8 9 9 9 9 11 12 14 14 15 16 16 17 17 17 19 19 20 20 21 23 24 49 50 52 53 53 53 54 56 57 61 61 62 63 63 65 66 68 71 71 73 75 76 76 77 78 
0 3 4 4 6 8 10 12 12 14 14 16 16 16 16 16 19 19 22 24 a a a b d d e e f f g g i i k k p p p r r r s s t t t 
0 12 0 0 0 0 0 0 0 0 0 0 0 0 1 1 1 1 1 1 1 1 1 1 1 1 1 1 1 1 
0 2 3 4 5 8 9 10 12 12 12 13 16 18 18 18 19 20 23 24 a a b c d e e e f g h h k l l l m m p q r r r s t t t t t 
0 1 3 5 6 6 6 7 7 9 10 11 13 15 16 16 18 18 19 19 19 20 21 22 23 24 26 26 27 29 19 20 20 21 21 22 25 27 27 28 29 30 30 31 31 32 34 34 36 39 40 41 42 43 44 44 46 47 47 48 
0 2 4 4 4 4 6 7 7 8 9 9 9 9 9 11 14 16 17 19 22 23 24 24 26 28 30 30 30 30 0 0 1 1 5 5 6 8 9 14 14 15 15 15 16 16 17 18 18 19 19 19 20 21 23 23 24 24 25 25 29 
0 1 3 3 5 6 8 8 10 12 14 15 16 18 19 22 24 25 28 29 a b b d d e f f h h i i j j k l m m n o o o p p q r r r s t t t 
0 1 2 3 5 6 9 9 11 11 13 16 18 19 20 22 22 24 27 31 a b c d d e f f f h h j j k k k l l m n o o q q r r r s s s s t t 
0 13 0 0 0 0 0 0 0 0 0 0 0 0 0 1 1 1 1 1 1 1 1 1 1 1 1 1 1 1 1 1 1 1 1 
0 2 4 7 10 13 14 16 17 18 20 20 21 23 24 27 28 30 31 33 a a b b c c c d d d e e e f g g h i j j l m m n o o o p q q r s s t 
0 2 3 4 5 5 5 6 6 7 9 11 12 13 14 14 16 18 20 20 21 25 26 26 26 27 28 29 30 32 1.1 1.1 1.2 1.3 1.4 1.7 1.9 2 2 2.1 2.1 2.2 2.3 2.4 2.6 2.6 2.7 2.7 2.8 2.8 3 3.1 3.1 3.1 3.1 3.2 3.5 3.6 3.7 3.8 3.9 3.9 4 4 4 
0 3 3 3 3 5 5 8 8 8 14 14 14 15 16 17 20 23 24 24 28 29 31 32 32 34 42 42 42 46 46 48 48 48 51 51 51 51 51 51 54 55 56 57 57 57 58 58 58 59 61 61 61 61 62 63 63 64 66 66 67 
0 23 0 0 0 0 0 0 0 0 0 0 0 0 0 0 0 0 0 0 0 0 0 0 0 1 1 1 1 1 1 1 1 1 1 1 1 1 1 
0 1 1 1 3 5 7 9 10 13 14 16 18 18 18 19 20 21 21 21 24 28 29 29 29 32 34 36 49 52 52 53 53 54 54 55 55 56 57 57 57 58 59 59 60 60 63 64 65 68 68 68 69 69 69 69 70 73 73 73 74 74 75 75 76 76 76 76 
0 4 4 7 9 9 10 10 13 16 20 21 22 23 24 29 31 34 37 39 a a a a c c c d d f h h h i i i j j j j k l m n o o o o o p p q q q r r r s s t 
0 2 4 4 5 8 10 11 13 13 15 18 21 23 28 28 31 34 36 38 a a b b d e e e f f g h h j j k k k l l l m m n n n n n p p p q q q r r s s t t t 
0 1 2 6 8 10 11 11 12 14 16 18 20 22 24 24 24 25 25 27 28 31 34 35 35 35 36 43 44 45 45 45 45 46 46 47 47 48 50 51 51 52 52 53 53 54 54 55 55 56 56 59 61 61 62 63 63 63 64 64 64 65 68 69 69 69 69 69 
0 2 2 4 4 6 7 8 9 11 13 14 16 18 19 21 22 23 26 26 27 30 30 32 34 36 37 38 41 41 39 39 41 41 43 43 44 45 46 47 47 48 48 49 50 50 51 51 52 53 53 54 55 56 56 56 58 59 59 59 61 61 62 62 63 63 64 65 66 66 66 68 
0 1 3 4 4 5 7 9 10 12 13 14 18 21 22 23 24 27 29 29 32 32 32 32 33 34 35 39 41 42 2.7 2.8 2.8 2.9 3.1 3.2 3.2 3.3 3.3 3.4 3.5 3.5 3.6 3.7 3.8 3.8 3.8 3.8 3.9 3.9 3.9 4 4.1 4.2 4.3 4.3 4.3 4.4 4.4 4.6 4.6 4.6 5 5.1 5.2 5.3 5.3 5.3 5.3 5.4 5.4 5.5 5.6 
0 4 5 5 8 9 10 13 16 17 17 19 22 25 27 29 34 38 38 42 a a a a b d d d e f g g g h h h i k k l l l m m m n n o o p p p p p q q q q s s s s t t 
0 26 0 0 0 0 0 0 0 0 0 0 0 0 0 0 0 0 0 0 0 0 0 0 0 0 0 0 1 1 1 1 1 1 1 1 1 1 1 1 1 1 1 1 1 1 1 
0 1 6 8 11 12 14 17 21 21 22 23 25 29 34 37 37 39 41 42 a b b b b b c c d d d e f f g g g h h h h j k l l m m m m n n n n n o o o q q r r s t t t t 
0 2 5 8 8 9 13 15 16 18 18 19 20 21 23 24 25 27 28 30 32 36 37 38 39 40 42 44 44 44 1.9 1.9 2 2 2 2.1 2.1 2.1 2.3 2.4 2.4 2.4 2.4 2.5 2.5 2.6 2.7 2.7 2.9 3 3.1 3.2 3.2 3.3 3.4 3.5 3.5 3.6 3.7 3.7 3.8 3.8 3.9 3.9 3.9 3.9 4 4.1 4.2 4.3 4.4 4.4 4.5 4.5 4.8 4.8 
0 1 1 2 2 5 6 7 7 10 12 14 16 17 18 18 20 22 23 27 29 29 31 32 34 36 40 44 45 47 39 41 43 43 43 44 45 47 47 47 48 48 49 49 50 50 51 52 54 54 55 55 56 57 57 57 57 58 58 60 60 61 62 62 63 63 64 64 64 64 65 65 65 65 66 67 67 68 68 
0 1 2 4 5 6 9 11 13 14 17 18 18 20 21 25 25 25 26 26 30 33 34 38 40 41 43 45 48 1.7 1.8 1.9 1.9 2 2.1 2.2 2.2 2.2 2.3 2.3 2.4 2.4 2.5 2.6 2.6 2.6 2.7 2.9 2.9 3 3.1 3.1 3.1 3.1 3.4 3.6 3.6 3.6 3.6 3.7 3.7 3.7 3.8 3.9 3.9 3.9 3.9 4 4 4.1 4.2 4.2 4.3 4.3 4.4 4.4 4.4 4.5 4.5 
0 2 5 7 8 8 13 14 16 19 21 21 22 25 27 27 28 30 32 33 35 37 37 40 40 43 43 46 47 51 6 6 7 7 7 8 8 9 11 11 11 11 11 12 13 13 14 14 14 15 15 17 18 18 18 19 19 21 22 22 23 23 24 25 25 26 26 28 28 28 30 30 30 32 32 32 33 34 34 34 34 35 
0 1 5 7 9 12 15 20 23 25 29 33 37 37 39 42 45 48 49 53 a b b b b c c d d e e e f f f g g g g g h h h i i j j j j k k k k l l l l n n o o o p p p q q q r s s s s t 
0 1 4 8 10 12 13 13 16 19 19 20 23 26 26 29 31 32 33 37 40 40 42 44 46 49 51 52 54 4.2 4.3 4.3 4.3 4.4 4.4 4.4 4.4 4.5 4.5 4.6 4.6 4.7 4.9 4.9 4.9 5 5 5 5.2 5.3 5.3 5.3 5.4 5.4 5.4 5.6 5.6 5.6 5.7 5.7 5.8 5.9 6 6 6 6 6.1 6.1 6.1 6.3 6.3 6.4 6.4 6.5 6.5 6.6 6.6 6.6 6.7 6.7 6.8 6.9 6.9 7 
0 1 5 7 8 9 9 11 14 17 18 21 23 25 27 28 30 32 32 33 33 36 37 38 39 41 48 48 54 21 22 22 22 22 23 23 24 25 27 27 28 28 28 29 29 29 30 31 31 31 32 32 33 33 34 34 35 36 36 37 37 39 41 41 41 42 43 44 45 45 46 46 46 46 46 46 46 48 48 48 48 48 48 49 49 
0 1 3 5 7 7 8 13 15 15 17 19 21 24 28 32 33 37 40 41 43 44 45 47 49 54 54 56 56 27 28 28 29 29 30 30 32 33 33 33 33 33 34 34 36 36 37 37 38 38 39 39 39 40 40 40 40 41 41 41 41 42 43 43 43 43 44 44 44 45 46 46 47 48 49 49 50 50 51 51 51 51 51 53 53 55 
0 3 4 5 7 9 14 16 17 18 18 21 23 23 25 28 29 30 32 33 33 34 36 37 40 42 44 48 52 53 0.4 0.4 0.4 0.5 0.6 0.7 0.7 0.8 0.8 0.9 0.9 0.9 0.9 0.9 1 1 1.1 1.2 1.4 1.4 1.4 1.5 1.5 1.7 1.7 1.8 1.8 1.8 1.9 2 2.1 2.1 2.2 2.4 2.5 2.5 2.6 2.7 2.7 2.7 2.8 2.8 2.9 2.9 3 3 3 3 3.1 3.1 3.1 3.1 3.2 3.3 3.3 3.3 3.3 
0 3 6 9 11 13 16 18 19 25 29 32 35 35 37 43 46 48 50 54 a a a b b b c c c d d e e f f f g g h i i i i i i j j j j k k k l l l n n o o o o o o p p p q q r r s s s s t t t 
0 2 5 7 10 10 10 10 13 14 19 21 23 26 27 32 33 36 41 41 42 44 48 48 49 49 50 53 55 56 29 29 30 30 30 31 31 32 32 32 36 36 36 37 38 38 38 38 38 39 39 40 40 41 41 41 42 43 43 43 43 43 44 45 45 45 46 46 46 46 46 48 49 49 50 50 50 50 52 54 55 55 55 56 56 57 58 58 
0 2 3 4 5 5 6 8 8 9 10 14 16 18 19 21 26 27 30 34 37 39 41 44 48 50 52 52 54 58 1 1 1.1 1.2 1.3 1.5 1.6 1.6 1.8 1.9 2 2 2 2 2.1 2.1 2.2 2.2 2.3 2.4 2.4 2.5 2.5 2.5 2.5 2.5 2.6 2.7 2.7 2.7 2.8 2.8 2.8 2.8 2.9 2.9 2.9 3 3 3.1 3.1 3.2 3.2 3.2 3.3 3.3 3.3 3.3 3.4 3.4 3.5 3.5 3.7 3.7 3.8 3.8 3.8 3.8 3.9 
0 2 4 6 8 10 13 13 16 17 20 21 24 25 28 31 31 34 38 41 43 44 48 48 48 50 52 52 55 58 3.9 3.9 4 4 4.1 4.1 4.2 4.2 4.3 4.3 4.4 4.4 4.4 4.6 4.6 4.6 4.7 4.8 4.8 4.8 4.9 5 5 5 5.1 5.2 5.2 5.2 5.3 5.3 5.3 5.5 5.5 5.5 5.6 5.6 5.6 5.6 5.7 5.7 5.7 5.8 5.8 5.9 6 6 6 6 6.3 6.3 6.4 6.4 6.6 6.6 6.6 6.7 6.7 6.7 6.8 6.8 
0 2 7 12 17 18 18 22 27 27 32 34 36 39 41 47 50 52 56 58 a a b b b b b c c c c c d d d d d e g g g g h h h h h j j j j j k k l l m m m n n o o o o o o p p p q q r r r r s s t t 
0 4 6 7 8 9 12 14 20 24 25 27 27 29 29 30 36 39 39 43 43 45 47 50 51 53 56 57 58 59 3.8 3.8 3.8 3.8 3.9 3.9 4 4.1 4.2 4.3 4.3 4.3 4.4 4.4 4.5 4.5 4.5 4.5 4.5 4.5 4.6 4.6 4.6 4.6 4.7 4.8 4.8 5 5 5.2 5.3 5.3 5.3 5.3 5.3 5.3 5.4 5.4 5.4 5.6 5.6 5.6 5.6 5.8 5.8 5.9 5.9 6 6 6 6.1 6.2 6.2 6.3 6.3 6.3 6.4 6.5 6.6 6.7 
0 2 3 4 6 11 14 16 16 16 18 18 21 26 29 31 34 35 35 36 37 39 41 42 43 47 49 54 54 59 11 11 12 13 14 14 15 15 15 15 15 16 16 16 17 17 20 20 22 22 22 23 23 23 23 23 24 24 24 25 25 26 26 26 27 29 30 31 31 32 32 33 34 35 35 35 35 36 36 37 37 37 37 37 39 39 39 39 39 40 40 
0 28 0 0 0 0 0 0 0 0 0 0 0 0 0 0 0 0 0 0 0 0 0 0 0 0 0 0 0 0 1 1 1 1 1 1 1 1 1 1 1 1 1 1 1 1 1 1 1 1 1 1 1 1 1 1 1 1 1 1 1 1 1 1 
0 2 4 9 14 14 16 19 25 27 27 30 31 36 40 43 48 50 57 60 a a b b c c c c c d d d d d f f g g g h h h h h h i i k k k l m m m m m n n n n o o o p p p p p q q r r r r r r r s s s t t t t 
0 1 2 6 7 11 11 13 16 19 23 26 27 28 29 30 32 34 34 37 38 41 42 44 47 49 51 54 57 58 2.4 2.5 2.6 2.6 2.6 2.6 2.7 2.8 2.8 2.8 2.8 3 3 3.1 3.1 3.1 3.2 3.2 3.2 3.3 3.3 3.3 3.3 3.4 3.4 3.4 3.5 3.6 3.7 3.8 3.9 3.9 4 4 4.2 4.2 4.2 4.3 4.4 4.4 4.4 4.5 4.6 4.6 4.7 4.7 4.7 4.8 4.8 4.9 4.9 5 5 5 5.1 5.1 5.1 5.2 5.3 5.3 5.3 5.3 5.3 5.3 
0 3 5 8 14 16 20 23 25 29 35 35 37 39 44 47 50 52 55 61 a a a b b c c c d d d d d d e e f f f f g g g h h i i i i j j j j j j l l m m n n n n n o o o p p p q q r r r s s s s s s t t t t 
0 3 4 7 11 13 17 19 21 24 25 25 27 29 32 36 37 40 40 41 43 43 46 46 51 53 56 57 60 63 1 1 1 2 3 3 3 4 4 4 4 5 5 6 6 6 6 7 7 8 8 9 9 9 10 12 12 13 13 14 14 14 15 15 15 15 16 17 17 17 19 20 20 22 22 22 24 24 24 24 24 25 25 26 26 26 27 28 28 28 29 29 29 30 30 
0 28 0 0 0 0 0 0 0 0 0 0 0 0 0 0 0 0 0 0 0 0 0 0 0 0 0 0 0 0 1 1 1 1 1 1 1 1 1 1 1 1 1 1 1 1 1 1 1 1 1 1 1 1 1 1 1 1 1 1 1 1 1 1 1 1 1 
0 34 0 0 0 0 0 0 0 0 0 0 0 0 0 0 0 0 0 0 0 0 0 0 0 0 0 0 0 0 0 0 0 0 0 0 1 1 1 1 1 1 1 1 1 1 1 1 1 1 1 1 1 1 1 1 1 1 1 1 1 1 1 1 1 1 1 1 1 
0 35 0 0 0 0 0 0 0 0 0 0 0 0 0 0 0 0 0 0 0 0 0 0 0 0 0 0 0 0 0 0 0 0 0 0 0 1 1 1 1 1 1 1 1 1 1 1 1 1 1 1 1 1 1 1 1 1 1 1 1 1 1 1 1 1 1 1 1 1 1 
0 4 10 14 18 22 28 33 34 38 39 41 43 47 50 55 57 63 65 69 a a a a b b b b b b c c c c d d d d e e e e f f f f f f g g g g g h i i i i j k k l l m m m m n n n o o o o o p p q q q q q q r r s s s s t t t 
0 4 8 11 13 16 16 18 21 22 24 28 29 29 30 32 33 35 39 41 42 44 47 51 55 55 57 61 67 69 3.6 3.6 3.6 3.6 3.7 3.7 3.7 3.7 3.8 3.8 3.8 3.9 3.9 4 4 4 4.2 4.2 4.3 4.3 4.3 4.4 4.5 4.5 4.6 4.6 4.6 4.6 4.7 4.9 5 5 5.1 5.2 5.2 5.3 5.3 5.3 5.3 5.4 5.4 5.5 5.6 5.6 5.7 5.7 5.7 5.8 5.8 5.8 5.8 5.9 5.9 5.9 5.9 6.1 6.1 6.2 6.2 6.2 6.2 6.3 6.3 6.3 6.3 6.3 6.3 6.4 6.4 6.5 6.5 6.5 
0 2 5 7 8 12 13 14 17 20 21 24 25 27 31 35 36 39 41 46 51 52 54 56 58 62 66 67 71 11 11 12 12 12 13 13 14 15 15 15 15 16 17 18 18 18 19 19 19 20 21 21 21 22 23 23 24 24 24 24 25 25 25 25 26 27 27 27 28 28 29 29 29 29 29 30 30 30 30 30 31 32 32 33 33 34 34 35 35 35 35 36 36 36 36 37 38 38 38 38 39 39 
0 42 0 0 0 0 0 0 0 0 0 0 0 0 0 0 0 0 0 0 0 0 0 0 0 0 0 0 0 0 0 0 0 0 0 0 0 0 0 0 0 0 0 0 1 1 1 1 1 1 1 1 1 1 1 1 1 1 1 1 1 1 1 1 1 1 1 1 1 1 1 1 1 1 1 
0 5 8 12 16 19 20 23 26 33 40 44 52 54 61 63 70 70 72 72 a a a a a b b b c c c c d d d d e e e f g g g h h h i i i i i i i j j j j j j j k k k k l l l l l l l l m m n n n n n n n o o p p p p p p p r r t t 
0 3 6 8 15 20 25 31 36 40 45 47 51 57 60 60 63 65 72 74 a a a b b b c c d d d d d d d e e e e e f f f f f g g g g g g h h h h h i i i i j j j j j k k l l l l m m m m m m n n n p p p q q r r r r r r r s s t 
0 2 6 6 8 12 13 17 20 21 25 29 31 36 37 41 43 45 45 47 49 52 54 58 64 65 67 69 72 74 26 26 27 27 27 27 29 29 30 30 30 30 31 32 32 32 32 33 33 33 34 35 35 35 35 36 36 36 36 37 37 38 38 38 38 38 39 40 40 40 40 41 41 42 42 44 44 45 45 46 46 46 47 47 48 48 48 48 49 49 49 49 49 49 50 51 51 52 52 53 53 53 54 54 55 55 
0 10 13 17 20 24 27 31 34 44 48 50 51 56 63 64 65 69 72 75 a a a a a a a a a a b b b c c c c d d d e e e e f f f g g g g h h h i i i i i i i i i i j j j j k k l m m m m m n n n n n n n o p q q q q r r r s s s t 
0 3 6 10 15 18 24 28 30 32 38 43 46 50 54 55 59 64 66 71 a a a b b b c c c c d d d d d e e e f f f f f f g g g g h h i i j j j j j j k k k k k l l l m m m m n n n n o p p p p q q q q q r r s s s s s t t t t t t 
0 6 10 13 17 20 22 26 33 36 38 40 41 42 46 51 55 58 64 70 a a a a a a b b b b c c c d d d d e e e f f g g g g h h h h h h h i i i j j k k l m n n n n o o o o o p p p p q q q r r r r r r s s s s s s t t t t t t t 
0 6 9 14 17 20 22 24 27 32 36 37 39 43 45 48 50 51 52 55 56 58 61 62 66 70 71 72 73 74 3.8 3.8 3.8 3.8 3.8 3.8 3.9 3.9 3.9 4 4 4 4 4 4.1 4.1 4.1 4.2 4.2 4.2 4.3 4.3 4.4 4.4 4.5 4.5 4.5 4.6 4.6 4.6 4.6 4.6 4.7 4.7 4.7 4.7 4.8 4.9 4.9 5 5 5 5 5.1 5.1 5.2 5.2 5.2 5.3 5.3 5.4 5.5 5.6 5.6 5.6 5.7 5.8 5.8 5.9 5.9 5.9 6 6.1 6.1 6.1 6.1 6.2 6.2 6.2 6.2 6.3 6.4 6.5 6.6 6.7 6.7 6.7 6.7 
0 1 1 5 10 13 17 23 26 31 35 40 44 52 57 60 63 67 70 75 a c c c c d d d d d e e e f f f f g g g g g g h h h i i i i i j j j j k k k k k l l l l m m m m m m m m n n n n n o o o p p p q q q q r r r s s s s s t t t t t 
0 4 6 9 10 12 14 19 23 25 26 28 33 38 39 41 43 45 48 52 56 57 61 62 64 68 69 72 75 79 19 19 19 19 20 20 21 21 21 22 23 23 24 24 25 25 25 25 25 26 26 26 26 27 27 28 29 29 30 30 30 30 30 31 31 31 31 31 32 33 33 34 34 35 35 36 36 36 37 37 37 37 38 38 38 38 39 40 40 40 40 41 42 42 43 43 43 43 44 45 45 45 46 46 46 47 47 47 47 48 48 48 
0 1 4 5 9 12 14 15 17 18 20 25 28 28 30 34 37 42 46 49 54 59 61 66 68 74 78 80 81 1 1.1 1.1 1.1 1.2 1.3 1.3 1.3 1.3 1.4 1.4 1.4 1.5 1.5 1.6 1.7 1.7 1.8 1.9 1.9 2 2 2 2 2 2.1 2.1 2.1 2.3 2.3 2.4 2.4 2.4 2.4 2.5 2.5 2.5 2.6 2.6 2.6 2.6 2.6 2.7 2.7 2.7 2.7 2.8 2.8 2.8 2.9 2.9 2.9 2.9 2.9 3 3 3 3 3 3.1 3.1 3.2 3.2 3.2 3.2 3.2 3.3 3.3 3.4 3.4 3.4 3.4 3.4 3.4 3.5 3.5 3.5 3.5 3.6 3.6 3.7 3.8 3.8 3.8 
0 4 8 11 13 16 18 24 28 32 35 37 38 41 44 44 48 48 51 53 53 59 60 61 64 68 71 74 80 81 0.2 0.2 0.2 0.2 0.3 0.3 0.3 0.3 0.4 0.4 0.4 0.5 0.5 0.6 0.6 0.6 0.7 0.7 0.8 0.8 0.8 0.8 0.8 0.8 0.9 0.9 0.9 0.9 1 1 1 1 1.1 1.1 1.1 1.2 1.2 1.3 1.4 1.4 1.4 1.5 1.5 1.5 1.7 1.7 1.7 1.7 1.9 1.9 1.9 2 2 2.2 2.2 2.2 2.2 2.2 2.2 2.3 2.4 2.5 2.5 2.5 2.6 2.6 2.6 2.6 2.7 2.7 2.7 2.8 2.8 2.8 2.9 2.9 2.9 2.9 2.9 2.9 3 3.1 3.1 3.1 
0 3 5 7 8 11 14 16 19 21 22 25 28 29 34 37 38 41 47 53 54 58 60 61 64 71 75 78 80 81 4.2 4.2 4.2 4.3 4.3 4.4 4.4 4.5 4.6 4.6 4.6 4.7 4.7 4.7 4.8 4.8 4.9 4.9 4.9 5 5 5.1 5.2 5.2 5.2 5.3 5.3 5.3 5.4 5.5 5.5 5.5 5.5 5.5 5.6 5.6 5.6 5.7 5.8 5.8 5.8 5.9 5.9 5.9 5.9 5.9 5.9 6 6 6 6 6 6 6.1 6.2 6.2 6.2 6.2 6.3 6.3 6.4 6.5 6.5 6.5 6.6 6.6 6.6 6.6 6.6 6.6 6.6 6.7 6.7 6.7 6.7 6.8 6.8 6.8 6.9 6.9 7 7.1 7.1 7.1 
0 37 0 0 0 0 0 0 0 0 0 0 0 0 0 0 0 0 0 0 0 0 0 0 0 0 0 0 0 0 0 0 0 0 0 0 0 0 0 1 1 1 1 1 1 1 1 1 1 1 1 1 1 1 1 1 1 1 1 1 1 1 1 1 1 1 1 1 1 1 1 1 1 1 1 1 1 1 1 1 1 1 1 1 1 1 1 
0 38 0 0 0 0 0 0 0 0 0 0 0 0 0 0 0 0 0 0 0 0 0 0 0 0 0 0 0 0 0 0 0 0 0 0 0 0 0 0 1 1 1 1 1 1 1 1 1 1 1 1 1 1 1 1 1 1 1 1 1 1 1 1 1 1 1 1 1 1 1 1 1 1 1 1 1 1 1 1 1 1 1 1 1 1 1 
0 45 0 0 0 0 0 0 0 0 0 0 0 0 0 0 0 0 0 0 0 0 0 0 0 0 0 0 0 0 0 0 0 0 0 0 0 0 0 0 0 0 0 0 0 0 0 1 1 1 1 1 1 1 1 1 1 1 1 1 1 1 1 1 1 1 1 1 1 1 1 1 1 1 1 1 1 1 1 1 1 1 1 1 1 1 1 
0 3 11 14 14 17 19 21 21 21 21 26 27 28 29 36 39 39 44 44 47 49 55 60 61 67 70 73 73 79 30 30 30 31 31 31 31 31 31 31 31 32 32 32 34 34 34 35 35 36 36 40 40 40 40 40 41 42 43 44 44 44 44 44 44 44 45 45 45 47 47 47 47 47 49 49 49 50 50 51 51 51 51 51 51 52 52 52 52 52 53 54 54 54 54 54 54 55 55 55 56 56 56 58 58 58 58 58 58 59 59 59 59 59 59 59 59 
0 3 6 7 12 17 22 25 32 38 43 49 54 58 67 70 73 78 81 84 a a a b b b c d d d d d e e e e e f f f f f g g g h h h h h h h i i i i i i j j j j j k k k k k k l l l l l m m m m n n n n n n n n n o o o p p p q q q q q r r r s s s t t t t t 
0 3 5 7 9 10 14 17 19 22 28 32 35 39 39 45 47 49 53 60 62 64 67 70 74 77 80 82 84 86 0.7 0.7 0.7 0.8 0.8 0.9 0.9 1 1 1.1 1.2 1.2 1.2 1.2 1.3 1.3 1.3 1.4 1.4 1.5 1.5 1.5 1.6 1.6 1.6 1.6 1.6 1.6 1.7 1.7 1.7 1.7 1.8 1.8 1.8 1.9 1.9 1.9 1.9 2.1 2.1 2.1 2.1 2.1 2.1 2.2 2.2 2.3 2.3 2.4 2.4 2.4 2.4 2.5 2.5 2.5 2.5 2.5 2.5 2.5 2.6 2.6 2.7 2.7 2.8 2.8 2.8 2.9 2.9 2.9 3 3 3 3 3.1 3.1 3.1 3.2 3.2 3.2 3.3 3.3 3.4 3.4 3.5 3.5 3.6 3.6 3.6 3.6 
0 6 11 13 19 25 29 34 38 45 50 57 60 64 67 71 78 83 88 91 a a a a a a b b b b b c c d d d d d d e e e e e e f f f f g g g g g h h h h i i i i i i i j j j j j k k k k k k k l l l m m m m n n n o o o o p p p p p p p q q q q q r r r r r s s s t 
0 3 4 6 7 10 12 16 18 23 26 29 34 38 43 47 51 53 57 60 62 64 67 68 71 76 78 81 86 88 1 1 1 2 3 3 4 5 5 5 6 6 7 7 7 7 8 8 9 9 9 9 9 10 10 10 11 11 11 12 12 12 12 12 13 13 13 13 14 14 14 14 14 15 15 15 15 16 16 16 16 17 17 18 18 18 18 19 19 19 20 20 21 21 22 22 22 23 24 24 24 25 25 25 25 25 26 26 27 27 27 28 28 28 28 28 29 29 30 30 30 30 30 
0 1 6 11 15 16 20 22 29 37 39 44 49 56 58 60 63 72 77 83 a b b b b b c c c c c d d d d e f f f f g g h h h h h h h i i i i i i i i j j k k k k k l l l l l m m m m m m m n n o o p p p q q q q q q q q q r r r r r s s s s s s t t t t t t t t t t t 
0 44 0 0 0 0 0 0 0 0 0 0 0 0 0 0 0 0 0 0 0 0 0 0 0 0 0 0 0 0 0 0 0 0 0 0 0 0 0 0 0 0 0 0 0 0 1 1 1 1 1 1 1 1 1 1 1 1 1 1 1 1 1 1 1 1 1 1 1 1 1 1 1 1 1 1 1 1 1 1 1 1 1 1 1 1 1 1 1 1 1 1 1 1 1 1 1 
0 2 3 5 8 11 11 14 18 19 22 26 29 31 35 38 41 50 54 57 63 68 74 77 79 80 83 87 91 94 0.2 0.2 0.3 0.4 0.4 0.5 0.5 0.5 0.6 0.6 0.6 0.8 0.8 0.8 0.9 0.9 0.9 0.9 1 1.1 1.1 1.1 1.2 1.2 1.2 1.2 1.3 1.3 1.3 1.4 1.4 1.5 1.5 1.5 1.5 1.6 1.6 1.6 1.7 1.7 1.7 1.8 1.8 1.8 1.8 1.8 1.8 1.8 1.8 1.8 1.9 1.9 1.9 1.9 2 2 2 2.1 2.1 2.1 2.1 2.1 2.1 2.2 2.2 2.2 2.2 2.2 2.3 2.3 2.3 2.3 2.3 2.3 2.4 2.4 2.4 2.5 2.5 2.6 2.7 2.7 2.7 2.8 2.8 2.8 2.8 2.9 2.9 2.9 2.9 3 3 3 3.1 3.1 
0 3 5 10 12 18 23 27 29 33 34 40 41 43 49 53 57 58 60 63 68 71 76 78 79 80 85 88 92 96 4 4 4 4.1 4.1 4.2 4.2 4.2 4.2 4.2 4.3 4.3 4.4 4.4 4.4 4.4 4.4 4.4 4.5 4.5 4.5 4.5 4.5 4.6 4.6 4.6 4.6 4.7 4.7 4.8 4.8 4.8 4.8 4.9 5 5 5 5 5 5 5.1 5.2 5.2 5.3 5.3 5.3 5.3 5.3 5.3 5.4 5.4 5.4 5.4 5.5 5.5 5.5 5.5 5.6 5.7 5.7 5.8 5.8 5.8 5.9 5.9 5.9 5.9 5.9 6 6 6 6.1 6.1 6.1 6.1 6.1 6.2 6.2 6.3 6.4 6.5 6.5 6.5 6.5 6.5 6.6 6.6 6.6 6.7 6.7 6.7 6.7 6.8 6.8 6.8 6.8 6.9 6.9 
0 7 12 15 21 21 26 32 38 40 45 53 62 67 71 74 81 84 89 93 a a a a a a a b b b b b c c c d d d d d d f f f f f g g g g g g h h h h h h i i j j j j j k k k k k k k k l l l l l l l l l m m m m m n n n n o o o p p p p p p p q q q r r r r r s s s s t t t t t 
0 3 5 11 13 15 19 26 29 30 31 32 36 39 42 44 49 53 59 60 65 69 70 74 77 80 82 86 88 94 1.8 1.8 1.8 1.9 1.9 2 2 2 2 2 2 2.1 2.1 2.2 2.2 2.3 2.3 2.3 2.3 2.4 2.4 2.4 2.4 2.4 2.4 2.4 2.5 2.5 2.5 2.6 2.7 2.8 2.9 2.9 2.9 2.9 3 3 3 3.1 3.1 3.1 3.2 3.2 3.3 3.3 3.3 3.3 3.3 3.4 3.4 3.4 3.4 3.5 3.5 3.5 3.5 3.5 3.5 3.6 3.7 3.7 3.7 3.7 3.7 3.8 3.8 3.8 3.8 3.9 4 4 4 4 4.1 4.1 4.1 4.2 4.2 4.2 4.3 4.3 4.4 4.4 4.4 4.4 4.5 4.5 4.6 4.6 4.6 4.6 4.6 4.6 4.7 4.7 4.7 4.7 
0 55 0 0 0 0 0 0 0 0 0 0 0 0 0 0 0 0 0 0 0 0 0 0 0 0 0 0 0 0 0 0 0 0 0 0 0 0 0 0 0 0 0 0 0 0 0 0 0 0 0 0 0 0 0 0 0 1 1 1 1 1 1 1 1 1 1 1 1 1 1 1 1 1 1 1 1 1 1 1 1 1 1 1 1 1 1 1 1 1 1 1 1 1 1 1 1 1 1 1 1 
0 4 6 8 10 13 19 23 25 32 35 35 39 43 47 53 58 62 65 67 72 75 79 80 82 86 87 90 97 97 3.8 3.8 3.8 3.8 3.9 3.9 4 4 4.1 4.1 4.2 4.2 4.2 4.3 4.3 4.3 4.3 4.3 4.3 4.4 4.4 4.4 4.4 4.5 4.5 4.6 4.6 4.6 4.6 4.6 4.6 4.6 4.7 4.7 4.7 4.9 4.9 4.9 4.9 5 5 5 5 5.1 5.1 5.1 5.1 5.2 5.2 5.2 5.2 5.2 5.2 5.3 5.3 5.3 5.3 5.3 5.4 5.4 5.4 5.4 5.5 5.5 5.5 5.6 5.6 5.7 5.7 5.7 5.7 5.7 5.8 5.8 5.8 5.9 5.9 5.9 5.9 6 6.1 6.1 6.2 6.2 6.2 6.2 6.3 6.4 6.4 6.4 6.5 6.5 6.5 6.5 6.5 6.5 6.5 6.7 6.7 6.7 
0 1 2 3 6 11 14 18 22 29 32 39 42 49 51 54 57 58 58 64 67 68 72 79 81 87 92 94 95 98 12 13 14 15 15 15 16 16 16 16 16 17 17 17 18 18 18 18 19 19 19 19 20 20 20 20 20 20 20 21 21 21 22 22 22 22 22 22 22 23 23 23 24 24 24 24 24 24 24 25 25 26 26 26 27 27 27 28 30 30 30 30 30 30 31 31 31 32 33 33 33 33 34 34 34 34 34 34 34 35 35 36 36 36 36 36 36 37 37 37 37 37 38 38 39 40 40 40 41 41 41 
0 55 0 0 0 0 0 0 0 0 0 0 0 0 0 0 0 0 0 0 0 0 0 0 0 0 0 0 0 0 0 0 0 0 0 0 0 0 0 0 0 0 0 0 0 0 0 0 0 0 0 0 0 0 0 0 0 1 1 1 1 1 1 1 1 1 1 1 1 1 1 1 1 1 1 1 1 1 1 1 1 1 1 1 1 1 1 1 1 1 1 1 1 1 1 1 1 1 1 1 1 1 1 1 1 
0 61 0 0 0 0 0 0 0 0 0 0 0 0 0 0 0 0 0 0 0 0 0 0 0 0 0 0 0 0 0 0 0 0 0 0 0 0 0 0 0 0 0 0 0 0 0 0 0 0 0 0 0 0 0 0 0 0 0 0 0 0 0 1 1 1 1 1 1 1 1 1 1 1 1 1 1 1 1 1 1 1 1 1 1 1 1 1 1 1 1 1 1 1 1 1 1 1 1 1 1 1 1 1 1 1 
0 7 15 17 23 26 29 32 38 44 47 51 54 57 57 64 66 69 71 74 75 77 84 87 90 90 96 98 99 104 3.9 3.9 3.9 3.9 3.9 3.9 3.9 4 4 4 4 4 4 4 4 4.1 4.1 4.2 4.2 4.2 4.2 4.2 4.2 4.3 4.3 4.3 4.4 4.4 4.4 4.5 4.5 4.5 4.6 4.6 4.6 4.6 4.6 4.6 4.7 4.7 4.7 4.7 4.7 4.7 4.8 4.8 4.8 4.9 4.9 4.9 4.9 5 5 5 5.1 5.1 5.1 5.3 5.3 5.3 5.3 5.3 5.3 5.3 5.4 5.4 5.5 5.5 5.5 5.6 5.6 5.7 5.7 5.7 5.8 5.9 5.9 6 6 6 6 6 6 6 6.1 6.1 6.1 6.2 6.2 6.2 6.4 6.4 6.4 6.4 6.4 6.4 6.5 6.5 6.6 6.7 6.7 6.7 6.7 6.7 6.8 
0 5 6 9 12 17 23 28 30 31 33 41 46 51 57 59 62 65 68 71 73 77 78 79 85 87 91 94 96 102 17 17 17 17 17 18 19 19 19 20 20 20 21 21 21 21 21 22 22 22 22 22 22 23 23 23 23 23 24 24 25 26 26 27 27 27 27 27 27 27 27 28 28 28 28 28 29 29 29 29 29 30 30 30 30 30 30 31 31 32 32 32 33 33 33 34 34 34 35 35 35 36 36 37 37 37 37 38 39 40 40 40 40 40 40 41 41 42 42 42 42 43 43 43 44 44 45 45 45 45 45 45 46 46 46 46 
0 2 8 12 15 18 21 22 26 32 34 39 41 43 45 48 51 54 56 58 66 68 70 76 79 82 93 99 100 104 3.6 3.6 3.7 3.7 3.7 3.7 3.7 3.7 3.8 3.8 3.8 3.8 3.9 3.9 3.9 4 4 4 4.1 4.1 4.1 4.2 4.3 4.3 4.3 4.3 4.4 4.4 4.4 4.4 4.4 4.4 4.5 4.5 4.6 4.6 4.6 4.6 4.6 4.7 4.7 4.8 4.8 4.9 4.9 5 5 5 5.1 5.1 5.1 5.2 5.2 5.2 5.3 5.3 5.4 5.4 5.5 5.5 5.5 5.5 5.5 5.5 5.5 5.5 5.6 5.6 5.7 5.7 5.8 5.8 5.8 5.8 5.8 5.8 5.9 5.9 5.9 6 6 6 6.1 6.1 6.1 6.1 6.1 6.1 6.1 6.1 6.1 6.1 6.1 6.2 6.2 6.2 6.2 6.2 6.2 6.3 6.4 6.4 6.4 6.4 6.5 6.5 6.5 
0 4 12 16 21 27 30 35 38 42 53 60 65 67 71 75 83 89 93 100 a a a a b b b b b b b b c c c c d d d d d e e e e e e f f f g g g g g h h h i i i i j j j j j j j j j j j k k k k k k k l l l l l m m n n n n o o o o p p p p p p p p q q q q q q r r r r s s s s s s s t t t t t t t t 
0 2 5 7 13 16 20 23 28 35 38 48 50 53 57 60 65 70 76 78 82 85 89 94 96 99 99 100 105 107 24 24 25 25 25 26 26 27 27 27 27 27 27 28 28 28 29 29 29 29 30 30 30 31 31 31 31 31 32 32 32 32 32 32 32 33 33 33 34 34 34 34 34 34 34 34 34 34 35 35 36 36 36 37 37 37 37 38 38 38 39 39 39 39 39 40 40 40 40 40 41 41 41 41 41 41 42 42 43 43 43 43 44 44 44 45 45 45 45 46 46 46 46 46 47 47 48 48 48 50 51 51 51 51 51 52 52 53 
